Wall time,Step,Value
1514384726.3763044,0,440.86785888671875
1514384803.5979125,1,305.6998291015625
1514384880.7334223,2,289.8167419433594
1514384958.4003592,3,280.5867614746094
1514385035.764185,4,268.2825012207031
1514385112.940772,5,258.8676452636719
1514385189.2316346,6,248.65658569335938
1514385265.6446934,7,248.6690673828125
1514385342.548395,8,249.83331298828125
1514385420.4365036,9,250.18145751953125
1514385500.015094,10,250.61517333984375
1514385576.0560658,11,251.80099487304688
1514385652.6751926,12,252.57183837890625
1514385728.6175182,13,251.51934814453125
1514385805.984068,14,248.75384521484375
1514385882.805995,15,245.53048706054688
1514385958.8865006,16,241.60958862304688
1514386034.867893,17,237.89358520507812
1514386111.0588346,18,234.54901123046875
1514386187.0368679,19,231.5760498046875
1514386262.9262705,20,232.7687225341797
1514386338.765636,21,233.46859741210938
1514386414.5688212,22,232.72140502929688
1514386490.288331,23,231.4437713623047
1514386566.2022057,24,229.88629150390625
1514386642.0535665,25,228.3009796142578
1514386717.8196166,26,225.9160919189453
1514386793.5844746,27,223.63880920410156
1514386869.264646,28,221.39561462402344
1514386944.9997797,29,218.75924682617188
1514387020.9170423,30,216.12423706054688
1514387098.1618567,31,213.77481079101562
1514387174.2634342,32,211.61767578125
1514387250.1295655,33,208.99412536621094
1514387326.0744689,34,207.0246124267578
1514387401.8936043,35,206.31576538085938
1514387477.780309,36,205.55023193359375
1514387553.7795608,37,204.74656677246094
1514387633.6636496,38,203.92428588867188
1514387709.6757755,39,203.0824432373047
1514387785.5490363,40,202.24905395507812
1514387861.5038946,41,201.3802947998047
1514387938.0351338,42,201.47299194335938
1514388013.7858632,43,201.97608947753906
1514388089.5513487,44,202.45504760742188
1514388165.436578,45,202.8724822998047
1514388241.2481718,46,203.22010803222656
1514388317.0347183,47,203.4975128173828
1514388392.7777712,48,203.7767333984375
1514388468.5784276,49,204.27041625976562
1514388544.2897792,50,204.47991943359375
1514388620.0536985,51,204.62733459472656
1514388695.8244438,52,204.74301147460938
1514388771.499467,53,204.73158264160156
1514388847.3012264,54,204.43917846679688
1514388923.1434324,55,203.9749298095703
1514388999.045604,56,203.84654235839844
1514389074.9309995,57,203.696044921875
1514389150.6750877,58,203.5149383544922
1514389226.4873903,59,203.31246948242188
1514389302.3942437,60,203.0782928466797
1514389378.1738777,61,202.67861938476562
1514389453.9588246,62,202.35635375976562
1514389529.7616398,63,202.06333923339844
1514389605.5761995,64,201.7462158203125
1514389681.3764162,65,201.400390625
1514389757.2608545,66,201.0345458984375
1514389833.0910888,67,200.65292358398438
1514389908.9395902,68,200.26162719726562
1514389984.7752242,69,199.84707641601562
1514390060.6120365,70,199.47756958007812
1514390136.558686,71,199.02911376953125
1514390212.409912,72,198.60926818847656
1514390288.1652532,73,198.17697143554688
1514390364.0019174,74,197.73269653320312
1514390439.8344762,75,197.27542114257812
1514390515.6022666,76,196.80514526367188
1514390591.41446,77,196.32565307617188
1514390667.142996,78,195.83116149902344
1514390743.1107566,79,195.32476806640625
1514390819.057389,80,194.8070831298828
1514390894.8970947,81,194.26718139648438
1514390970.7043312,82,193.70953369140625
1514391046.594963,83,193.13165283203125
1514391123.365517,84,192.53236389160156
1514391202.4841719,85,191.91940307617188
1514391280.8973866,86,191.30319213867188
1514391357.8838146,87,190.64114379882812
1514391433.86342,88,189.00221252441406
1514391509.8846774,89,187.82534790039062
1514391585.9112713,90,187.0708465576172
1514391661.9236698,91,186.4749755859375
1514391737.79629,92,185.873779296875
1514391813.5791152,93,185.27151489257812
1514391889.5051417,94,184.66598510742188
1514391965.2960198,95,184.09368896484375
1514392041.2311428,96,183.575439453125
1514392117.067073,97,183.0283966064453
1514392193.1418939,98,183.1477508544922
1514392269.1107903,99,183.35415649414062
1514392344.9826567,100,183.5606231689453
1514392420.9064896,101,183.755126953125
1514392496.9932995,102,183.943115234375
1514392572.987703,103,184.34280395507812
1514392648.9415216,104,184.54205322265625
1514392725.0525384,105,184.7359161376953
1514392801.0474482,106,184.91830444335938
1514392876.8649945,107,185.09136962890625
1514392952.7683368,108,185.259521484375
1514393028.7560449,109,185.42173767089844
1514393104.6658127,110,185.5797119140625
1514393180.5252242,111,185.7378692626953
1514393257.1033635,112,185.88877868652344
1514393333.4684045,113,186.0360870361328
1514393409.4970386,114,186.1796417236328
1514393485.5299478,115,186.67202758789062
1514393561.353211,116,187.0701446533203
1514393637.2383258,117,187.40325927734375
1514393713.2505517,118,187.73448181152344
1514393789.2030022,119,188.03900146484375
1514393865.0433264,120,188.32521057128906
1514393940.8502893,121,188.47137451171875
1514394016.6876245,122,188.58668518066406
1514394092.5423517,123,188.70242309570312
1514394168.4729714,124,188.8172149658203
1514394244.3519344,125,188.93038940429688
1514394320.3852751,126,189.04176330566406
1514394396.2656038,127,189.15037536621094
1514394472.382773,128,189.2563934326172
1514394548.4515636,129,189.35897827148438
1514394624.3787034,130,189.45887756347656
1514394700.3421352,131,189.55516052246094
1514394776.4099107,132,189.6477508544922
1514394852.4402134,133,189.7364959716797
1514394928.4038687,134,189.8213653564453
1514395004.3608575,135,189.90187072753906
1514395080.310307,136,189.9806671142578
1514395156.2551422,137,190.05470275878906
1514395232.186858,138,190.12437438964844
1514395308.2134368,139,190.1905059814453
1514395384.234217,140,190.2530517578125
1514395460.0728917,141,190.310791015625
1514395535.972502,142,190.3656005859375
1514395611.9778764,143,190.41578674316406
1514395687.9808156,144,190.4618682861328
1514395763.9457066,145,190.50335693359375
1514395839.8257916,146,190.5421600341797
1514395915.8110683,147,190.5763397216797
1514395991.7540822,148,190.60696411132812
1514396067.856566,149,190.63392639160156
1514396143.7078514,150,190.65586853027344
1514396219.6937943,151,190.6742706298828
1514396295.6617615,152,190.69004821777344
1514396371.6709337,153,190.69570922851562
1514396447.612299,154,190.53868103027344
1514396523.585544,155,190.5545654296875
1514396599.4744754,156,190.5850372314453
1514396675.4823413,157,190.6065673828125
1514396751.5927637,158,190.6205596923828
1514396827.4973717,159,190.6296844482422
1514396903.4131126,160,190.63389587402344
1514396979.4615352,161,190.63487243652344
1514397055.4519227,162,190.63235473632812
1514397132.5918784,163,190.6271514892578
1514397208.6992683,164,190.6193389892578
1514397284.6446917,165,190.60838317871094
1514397360.6185434,166,190.5954132080078
1514397436.6186934,167,190.579833984375
1514397512.582636,168,190.56201171875
1514397588.7578552,169,190.5420379638672
1514397664.67566,170,190.51995849609375
1514397740.6262982,171,190.49594116210938
1514397816.506266,172,190.4699249267578
1514397892.4465234,173,190.44151306152344
1514397968.459373,174,190.41184997558594
1514398044.500765,175,190.37998962402344
1514398120.4297094,176,190.34671020507812
1514398196.3912854,177,190.31182861328125
1514398272.2909136,178,190.2754669189453
1514398348.3563867,179,190.23736572265625
1514398424.2521248,180,190.19833374023438
1514398500.3373537,181,190.1578369140625
1514398577.2347703,182,190.1162567138672
1514398654.935018,183,190.07330322265625
1514398732.750295,184,190.02935791015625
1514398811.301591,185,189.98391723632812
1514398888.079634,186,189.9375762939453
1514398964.0216072,187,189.89077758789062
1514399040.0178409,188,189.84254455566406
1514399116.002497,189,189.7933349609375
1514399191.9212098,190,189.74310302734375
1514399267.9897757,191,189.6919708251953
1514399343.9124522,192,189.63998413085938
1514399420.1156747,193,189.58773803710938
1514399496.018466,194,189.5347137451172
1514399571.9843085,195,189.4807891845703
1514399648.0315304,196,189.42636108398438
1514399724.0816433,197,189.37112426757812
1514399800.1108513,198,189.3158416748047
1514399876.2371535,199,189.26007080078125
1514399952.2441921,200,189.20359802246094
1514400028.2556663,201,189.14695739746094
1514400104.2332926,202,189.0901641845703
1514400180.2680829,203,189.0326385498047
1514400256.3165264,204,188.97506713867188
1514400332.3267415,205,188.916748046875
1514400408.3538985,206,188.85821533203125
1514400484.4213657,207,188.79954528808594
1514400560.4925153,208,188.7406768798828
1514400636.4841263,209,188.68154907226562
1514400712.4924555,210,188.62228393554688
1514400788.5004156,211,188.56259155273438
1514400864.473448,212,188.50274658203125
1514400940.596769,213,188.44259643554688
1514401016.6507182,214,188.3824005126953
1514401092.6193833,215,188.3218994140625
1514401168.6012983,216,188.2611083984375
1514401244.5694394,217,188.20040893554688
1514401320.5945692,218,188.13990783691406
1514401396.5949101,219,188.078857421875
1514401472.7539175,220,188.01783752441406
1514401548.771291,221,187.95677185058594
1514401624.7942657,222,187.89505004882812
1514401700.773529,223,187.83338928222656
1514401776.7645292,224,187.77133178710938
1514401853.188272,225,187.70968627929688
1514401931.542383,226,187.6474609375
1514402008.4049053,227,187.58531188964844
1514402084.5266056,228,187.52281188964844
1514402160.577312,229,187.46022033691406
1514402236.9463573,230,187.39776611328125
1514402315.2366126,231,187.33526611328125
1514402391.2506905,232,187.27255249023438
1514402467.2703748,233,187.2097625732422
1514402543.156553,234,187.14642333984375
1514402619.1313224,235,187.0833740234375
1514402695.0719635,236,187.01956176757812
1514402771.0144343,237,186.9559783935547
1514402846.9253523,238,186.89230346679688
1514402922.8062706,239,186.8283233642578
1514402998.7114756,240,186.76431274414062
1514403074.5510578,241,186.70001220703125
1514403150.340725,242,186.63536071777344
1514403226.316555,243,186.571044921875
1514403302.1732564,244,186.50633239746094
1514403378.075691,245,186.44146728515625
1514403453.9834008,246,186.37637329101562
1514403529.9215484,247,186.31146240234375
1514403605.909456,248,186.24627685546875
1514403681.8234503,249,186.1807098388672
1514403757.7208188,250,186.1144256591797
1514403833.7680385,251,186.04823303222656
1514403909.6853876,252,185.981689453125
1514403985.4906921,253,185.91488647460938
1514404061.2476008,254,185.84716796875
1514404137.069715,255,185.78018188476562
1514404212.8675575,256,185.712646484375
1514404288.8509154,257,185.64459228515625
1514404364.7033396,258,185.5765838623047
1514404440.5959084,259,185.50796508789062
1514404516.480804,260,185.43887329101562
1514404592.3938868,261,185.3728485107422
1514404668.373358,262,185.4074249267578
1514404744.38095,263,185.3405303955078
1514404820.2683802,264,185.31809997558594
1514404896.2520916,265,185.3078155517578
1514404972.124488,266,185.2533721923828
1514405048.1183805,267,185.19668579101562
1514405123.9408362,268,185.13934326171875
1514405199.8976204,269,185.0703887939453
1514405275.7565546,270,185.00694274902344
1514405351.7029088,271,184.93936157226562
1514405427.641889,272,184.88035583496094
1514405503.5504344,273,184.8173065185547
1514405579.594668,274,184.78128051757812
1514405655.488453,275,184.72157287597656
1514405731.366063,276,184.6632843017578
1514405807.227711,277,184.6010284423828
1514405883.182735,278,184.53125
1514405959.8468995,279,184.46658325195312
1514406038.049745,280,184.4252166748047
1514406115.1374702,281,184.35792541503906
1514406191.2754722,282,184.28688049316406
1514406267.3025951,283,184.21688842773438
1514406343.2996204,284,184.14036560058594
1514406419.3788986,285,184.060546875
1514406495.629049,286,183.9999237060547
1514406571.6659842,287,183.94091796875
1514406647.8921561,288,183.86972045898438
1514406723.9237084,289,183.80516052246094
1514406799.9273415,290,183.75645446777344
1514406875.981791,291,183.68287658691406
1514406951.9515083,292,183.6041717529297
1514407027.9801698,293,183.52630615234375
1514407104.1164098,294,183.4427490234375
1514407180.125347,295,183.3629608154297
1514407256.128222,296,183.30784606933594
1514407332.1960335,297,183.2559356689453
1514407408.2875266,298,183.17654418945312
1514407484.405859,299,183.0947723388672
1514407560.44161,300,182.99496459960938
1514407636.5532668,301,182.90650939941406
1514407712.6054296,302,182.8234405517578
1514407788.5606189,303,182.73910522460938
1514407864.528152,304,182.63169860839844
1514407940.566188,305,182.55386352539062
1514408016.67081,306,182.46913146972656
1514408092.752378,307,182.381591796875
1514408168.7585387,308,182.2891082763672
1514408244.798321,309,182.20291137695312
1514408320.7732742,310,182.11679077148438
1514408396.7712092,311,182.02932739257812
1514408472.7444856,312,181.9412841796875
1514408548.8058069,313,181.8509063720703
1514408624.9104848,314,181.75592041015625
1514408700.8808956,315,181.67897033691406
1514408776.9001203,316,181.5800018310547
1514408852.9329686,317,181.49093627929688
1514408928.9075117,318,181.3998565673828
1514409004.9444618,319,181.31507873535156
1514409081.1128163,320,181.22012329101562
1514409157.0763912,321,181.1670379638672
1514409233.0761166,322,181.07447814941406
1514409309.2014892,323,180.98292541503906
1514409385.2940428,324,180.88223266601562
1514409461.286208,325,180.7644500732422
1514409537.3029485,326,180.69020080566406
1514409613.310071,327,180.598876953125
1514409689.271053,328,180.50758361816406
1514409765.4917505,329,180.41448974609375
1514409841.6216185,330,180.32037353515625
1514409917.7028904,331,180.22947692871094
1514409993.7207298,332,180.1359405517578
1514410069.7998123,333,180.0424346923828
1514410145.8283646,334,179.94741821289062
1514410221.9500196,335,179.85446166992188
1514410297.9125674,336,179.75840759277344
1514410373.960444,337,179.66159057617188
1514410449.8954566,338,179.56646728515625
1514410525.8829384,339,179.4712371826172
1514410601.953093,340,179.38519287109375
1514410678.0957255,341,179.29002380371094
1514410754.099552,342,179.19662475585938
1514410830.182905,343,179.1009521484375
1514410906.2346325,344,179.01052856445312
1514410982.1568267,345,178.9158935546875
1514411058.155718,346,178.81607055664062
1514411134.1952868,347,178.7056427001953
1514411210.095068,348,178.61854553222656
1514411286.015502,349,178.52377319335938
1514411361.9962652,350,178.42970275878906
1514411438.0749743,351,178.33306884765625
1514411514.1237495,352,178.2290802001953
1514411590.115651,353,178.12477111816406
1514411666.2086902,354,178.0277099609375
1514411742.1600072,355,177.9316864013672
1514411818.227951,356,177.833984375
1514411894.213282,357,177.73377990722656
1514411970.1391199,358,177.63632202148438
1514412046.208165,359,177.53988647460938
1514412122.306621,360,177.44297790527344
1514412198.4435909,361,177.3472900390625
1514412274.5669005,362,177.24954223632812
1514412350.6697934,363,177.14932250976562
1514412426.660562,364,177.05345153808594
1514412502.6166186,365,176.95420837402344
1514412578.5816767,366,176.8565216064453
1514412654.6357634,367,176.7843475341797
1514412730.6628475,368,176.68655395507812
1514412806.791568,369,176.6043243408203
1514412882.8835704,370,176.5278778076172
1514412958.9386034,371,176.41136169433594
1514413034.8764806,372,176.31394958496094
1514413110.9736204,373,176.2166290283203
1514413186.9754074,374,176.12051391601562
1514413263.1537614,375,176.02049255371094
1514413339.2078485,376,175.9525146484375
1514413415.3740664,377,175.85023498535156
1514413491.309363,378,175.75277709960938
1514413567.3229349,379,175.66265869140625
1514413643.453403,380,175.5662078857422
1514413719.5663474,381,175.47125244140625
1514413795.713737,382,175.3773193359375
1514413871.804113,383,175.2825469970703
1514413947.833071,384,175.14889526367188
1514414023.906632,385,175.09034729003906
1514414100.043602,386,174.99351501464844
1514414176.172326,387,174.88587951660156
1514414252.0958147,388,174.7944793701172
1514414328.0973797,389,174.6995086669922
1514414404.2264087,390,174.61373901367188
1514414480.3664052,391,174.51004028320312
1514414556.3610847,392,174.41026306152344
1514414632.383591,393,174.3165283203125
1514414708.4064665,394,174.22401428222656
1514414784.5022924,395,174.13064575195312
1514414860.4961472,396,174.03733825683594
1514414936.5141544,397,173.94505310058594
1514415012.4420831,398,173.85250854492188
1514415088.301569,399,173.75970458984375
1514415164.2731385,400,173.66134643554688
1514415240.3271801,401,173.56752014160156
1514415316.3489995,402,173.4683837890625
1514415392.3938534,403,173.40347290039062
1514415468.499198,404,173.3739471435547
1514415544.4005644,405,173.34564208984375
1514415620.4095275,406,173.32452392578125
1514415696.5080101,407,173.29556274414062
1514415772.5691862,408,173.27127075195312
1514415848.6309953,409,173.24649047851562
1514415924.617926,410,173.21798706054688
1514416000.748451,411,173.1880645751953
1514416076.9205377,412,173.16357421875
1514416152.874373,413,173.13340759277344
1514416228.9485493,414,173.10804748535156
1514416304.8540595,415,173.07937622070312
1514416380.8577187,416,173.05621337890625
1514416456.9383037,417,173.03086853027344
1514416533.0013556,418,172.997314453125
1514416609.221101,419,172.97389221191406
1514416685.2717056,420,172.94622802734375
1514416761.3576384,421,172.92718505859375
1514416837.3553457,422,172.90333557128906
1514416913.3763583,423,172.8807373046875
1514416989.4450953,424,172.86807250976562
1514417065.4792566,425,172.84124755859375
1514417141.5630515,426,172.82057189941406
1514417217.7321749,427,172.80657958984375
1514417293.79333,428,172.78857421875
1514417369.8230686,429,172.76495361328125
1514417445.8832018,430,172.7435302734375
1514417521.9787219,431,172.71890258789062
1514417598.1902318,432,172.69615173339844
1514417674.3304856,433,172.6748504638672
1514417750.3738565,434,172.6634979248047
1514417826.3673115,435,172.64590454101562
1514417902.329152,436,172.6258544921875
1514417978.3280098,437,172.6007843017578
1514418054.425424,438,172.57736206054688
1514418130.4275026,439,172.5550537109375
1514418206.557111,440,172.53262329101562
1514418282.5270953,441,172.51812744140625
1514418358.6637592,442,172.49807739257812
1514418434.6316535,443,172.4745330810547
1514418510.723486,444,172.4561767578125
1514418586.6680682,445,172.4362030029297
1514418662.5721877,446,172.4204559326172
1514418738.641333,447,172.4117431640625
1514418814.7503338,448,172.3921661376953
1514418890.8847787,449,172.38153076171875
1514418966.9005797,450,172.36669921875
1514419042.9858603,451,172.36141967773438
1514419118.916565,452,172.3422393798828
1514419194.9017084,453,172.32351684570312
1514419270.9338536,454,172.29930114746094
1514419346.952921,455,172.27833557128906
1514419422.971891,456,172.2593536376953
1514419499.0852292,457,172.23513793945312
1514419575.0750794,458,172.2147216796875
1514419650.9987535,459,172.19105529785156
1514419727.090212,460,172.18301391601562
1514419803.1068919,461,172.16004943847656
1514419879.0700943,462,172.14454650878906
1514419954.9896727,463,172.12269592285156
1514420030.935479,464,172.10336303710938
1514420106.8347213,465,172.0789794921875
1514420182.8719962,466,172.06455993652344
1514420258.9044085,467,172.04335021972656
1514420334.984166,468,172.02125549316406
1514420411.0163975,469,171.9965057373047
1514420487.050893,470,171.9791717529297
1514420563.0290778,471,171.9591827392578
1514420639.0558662,472,171.93951416015625
1514420715.0344527,473,171.9212646484375
1514420790.9682934,474,171.89463806152344
1514420867.0350342,475,171.8759002685547
1514420943.1467564,476,171.86146545410156
1514421019.3232734,477,171.837890625
1514421095.4238658,478,171.81741333007812
1514421171.4025161,479,171.8021240234375
1514421247.4534295,480,171.78150939941406
1514421323.546902,481,171.761962890625
1514421399.5106423,482,171.74339294433594
1514421475.5644174,483,171.72335815429688
1514421551.5230296,484,171.7012176513672
1514421627.5496595,485,171.68536376953125
1514421703.6016958,486,171.6660919189453
1514421779.742237,487,171.63998413085938
1514421855.9053788,488,171.62835693359375
1514421931.9949868,489,171.6083526611328
1514422007.9645872,490,171.58787536621094
1514422083.8854709,491,171.5691375732422
1514422159.9430265,492,171.5480194091797
1514422235.93068,493,171.52560424804688
1514422311.9573457,494,171.5060577392578
1514422387.8202696,495,171.48565673828125
1514422463.8881783,496,171.4666748046875
1514422539.8990662,497,171.45242309570312
1514422615.9510128,498,171.4332275390625
1514422691.9617162,499,171.41529846191406
1514422768.0363734,500,171.39295959472656
1514422843.9375794,501,171.37457275390625
1514422920.0116677,502,171.353271484375
1514422996.0658119,503,171.33265686035156
1514423072.1408403,504,171.32032775878906
1514423148.261854,505,171.29953002929688
1514423224.2325702,506,171.279052734375
1514423300.220013,507,171.26087951660156
1514423376.301246,508,171.24203491210938
1514423452.337683,509,171.2224884033203
1514423528.4290345,510,171.20533752441406
1514423604.528072,511,171.18516540527344
1514423680.6795442,512,171.165283203125
1514423756.7542481,513,171.1442108154297
1514423832.6549385,514,171.12644958496094
1514423908.7188957,515,171.10696411132812
1514423984.726897,516,171.08856201171875
1514424060.8690104,517,171.0663299560547
1514424136.9894805,518,171.04971313476562
1514424212.9965749,519,171.03225708007812
1514424289.0567765,520,171.0113525390625
1514424365.0464597,521,170.99386596679688
1514424441.2355833,522,170.974853515625
1514424517.2665,523,170.95779418945312
1514424593.408918,524,170.93919372558594
1514424669.4533007,525,170.9180145263672
1514424745.5313213,526,170.9005584716797
1514424821.5866964,527,170.8818359375
1514424897.759336,528,170.8642578125
1514424973.7324197,529,170.84678649902344
1514425049.771744,530,170.8330078125
1514425125.9048364,531,170.8120880126953
1514425201.9802456,532,170.7920379638672
1514425278.2465827,533,170.7753448486328
1514425354.339766,534,170.75450134277344
1514425430.5388439,535,170.7360076904297
1514425506.5937173,536,170.71572875976562
1514425582.7614594,537,170.69891357421875
1514425658.9093041,538,170.67950439453125
1514425734.915744,539,170.66082763671875
1514425811.000049,540,170.64048767089844
1514425887.1998284,541,170.6243133544922
1514425963.3406625,542,170.60609436035156
1514426039.3555746,543,170.5890350341797
1514426115.4641695,544,170.56878662109375
1514426191.5225296,545,170.55345153808594
1514426267.6081731,546,170.5344696044922
1514426343.651093,547,170.51531982421875
1514426419.9557154,548,170.49757385253906
1514426496.0712526,549,170.47817993164062
1514426572.1030462,550,170.45875549316406
1514426648.1354709,551,170.43994140625
1514426724.3434353,552,170.42233276367188
1514426800.32763,553,170.4044189453125
1514426876.3805504,554,170.38487243652344
1514426952.503092,555,170.36671447753906
1514427028.592173,556,170.3478240966797
1514427104.6264393,557,170.33175659179688
1514427180.829072,558,170.31375122070312
1514427257.0193896,559,170.29672241210938
1514427333.0586603,560,170.27734375
1514427409.294889,561,170.257568359375
1514427485.328383,562,170.23953247070312
1514427561.2523773,563,170.21983337402344
1514427637.2085018,564,170.20184326171875
1514427713.279191,565,170.18214416503906
1514427789.3952649,566,170.1638641357422
1514427865.4394855,567,170.14491271972656
1514427941.5738323,568,170.1265411376953
1514428017.7824428,569,170.10740661621094
1514428093.8495636,570,170.0910186767578
1514428169.928887,571,170.06956481933594
1514428246.1755366,572,170.05247497558594
1514428322.197128,573,170.0341033935547
1514428398.3960223,574,170.0150909423828
1514428474.3807542,575,169.99485778808594
1514428550.4256597,576,169.97781372070312
1514428626.5511763,577,169.9593505859375
1514428702.6420379,578,169.9426727294922
1514428778.739375,579,169.92401123046875
1514428854.724323,580,169.90553283691406
1514428930.7762425,581,169.88491821289062
1514429006.8583558,582,169.8724822998047
1514429082.9709399,583,169.85479736328125
1514429159.0653965,584,169.83860778808594
1514429235.0386631,585,169.8202362060547
1514429311.0568588,586,169.80404663085938
1514429387.108594,587,169.79270935058594
1514429463.1587214,588,169.8029327392578
1514429539.296207,589,169.81170654296875
1514429615.490879,590,169.8173065185547
1514429691.7148294,591,169.8225860595703
1514429767.7528558,592,169.82875061035156
1514429843.705408,593,169.8385009765625
1514429919.6970167,594,169.84283447265625
1514429995.8710632,595,169.84954833984375
1514430072.0098035,596,169.8540802001953
1514430148.1755471,597,169.8621826171875
1514430224.2715197,598,169.8705596923828
1514430300.357273,599,169.87608337402344
1514430376.4870338,600,169.88421630859375
1514430452.5847733,601,169.89022827148438
1514430528.6940906,602,169.8975830078125
1514430604.7912402,603,169.90272521972656
1514430680.8249788,604,169.9087371826172
1514430756.9333818,605,169.92103576660156
1514430833.0692658,606,169.9296417236328
1514430909.238644,607,169.92689514160156
1514430985.3920465,608,169.93826293945312
1514431061.5644429,609,169.94500732421875
1514431137.5430713,610,169.95272827148438
1514431213.7275848,611,169.9579315185547
1514431289.7760806,612,169.968994140625
1514431365.8314443,613,169.9678955078125
1514431441.9573383,614,169.97442626953125
1514431518.0965908,615,169.98439025878906
1514431594.1235447,616,169.9962158203125
1514431670.227696,617,170.00164794921875
1514431746.1549797,618,170.00942993164062
1514431822.0706167,619,170.0181884765625
1514431898.2012415,620,170.0229949951172
1514431974.3923638,621,170.03173828125
1514432050.367549,622,170.040283203125
1514432126.396955,623,170.0513916015625
1514432202.4159129,624,170.0557861328125
1514432278.534897,625,170.06658935546875
1514432354.5364876,626,170.07327270507812
1514432430.606494,627,170.08456420898438
1514432506.748112,628,170.09121704101562
1514432582.6931398,629,170.0996551513672
1514432658.9125485,630,170.1055450439453
1514432734.9618208,631,170.1121063232422
1514432811.0513372,632,170.11439514160156
1514432887.0691545,633,170.12135314941406
1514432963.1278465,634,170.12586975097656
1514433039.2355542,635,170.13446044921875
1514433115.31241,636,170.1435546875
1514433191.3372607,637,170.15032958984375
1514433267.3541028,638,170.15646362304688
1514433343.313576,639,170.16714477539062
1514433419.3440526,640,170.17364501953125
1514433495.437569,641,170.17906188964844
1514433571.3532453,642,170.1851806640625
1514433647.428927,643,170.1931915283203
1514433723.5274327,644,170.20094299316406
1514433799.7278583,645,170.20947265625
1514433875.9011004,646,170.21710205078125
1514433952.0013,647,170.2216033935547
1514434028.129406,648,170.22708129882812
1514434104.3240013,649,170.2350616455078
1514434180.3189533,650,170.24168395996094
1514434256.361683,651,170.2481231689453
1514434332.4915152,652,170.25437927246094
1514434408.703183,653,170.2569580078125
1514434484.6950684,654,170.2629852294922
1514434560.8075116,655,170.26925659179688
1514434636.927504,656,170.2767333984375
1514434712.9932008,657,170.28250122070312
1514434789.026274,658,170.2910919189453
1514434865.075045,659,170.2979736328125
1514434941.2082734,660,170.30235290527344
1514435017.390303,661,170.31114196777344
1514435093.4226232,662,170.31716918945312
1514435169.446347,663,170.32415771484375
1514435245.6061878,664,170.33026123046875
1514435321.7417028,665,170.33657836914062
1514435397.9609745,666,170.34263610839844
1514435474.0237293,667,170.3505859375
1514435550.0314658,668,170.35572814941406
1514435626.1866398,669,170.35816955566406
1514435702.2914371,670,170.36729431152344
1514435778.3959792,671,170.3732147216797
1514435854.4336684,672,170.3789520263672
1514435930.4944596,673,170.37515258789062
1514436006.6191478,674,170.3788299560547
1514436082.7517915,675,170.38389587402344
1514436158.884156,676,170.38963317871094
1514436235.0340054,677,170.40194702148438
1514436311.0212839,678,170.40069580078125
1514436387.1645346,679,170.40623474121094
1514436463.250858,680,170.4075164794922
1514436539.3291364,681,170.41412353515625
1514436615.3633497,682,170.41416931152344
1514436691.4932156,683,170.4242401123047
1514436767.6891541,684,170.4251708984375
1514436843.7446978,685,170.4302978515625
1514436919.8090732,686,170.4354248046875
1514436995.7840772,687,170.4397430419922
1514437071.7754471,688,170.44480895996094
1514437147.8001347,689,170.45498657226562
1514437223.865711,690,170.4521484375
1514437299.9537656,691,170.45591735839844
1514437375.995385,692,170.45758056640625
1514437452.01014,693,170.4636688232422
1514437528.1254482,694,170.469482421875
1514437604.1888428,695,170.47625732421875
1514437680.223079,696,170.48170471191406
1514437756.3863847,697,170.48483276367188
1514437832.3469346,698,170.49014282226562
1514437908.3927364,699,170.49615478515625
1514437984.3919077,700,170.5017852783203
1514438060.5233169,701,170.5094757080078
1514438136.5059588,702,170.51353454589844
1514438212.5445652,703,170.51788330078125
1514438288.4921312,704,170.51638793945312
1514438364.6583896,705,170.5242462158203
1514438440.6054585,706,170.52984619140625
1514438516.596917,707,170.5354461669922
1514438592.596359,708,170.53964233398438
1514438668.6060169,709,170.54443359375
1514438744.6921551,710,170.54864501953125
1514438820.7527835,711,170.55296325683594
1514438896.9113503,712,170.55662536621094
1514438972.9241774,713,170.5618896484375
1514439048.974812,714,170.5681915283203
1514439125.0253506,715,170.5724334716797
1514439201.1627474,716,170.57923889160156
1514439277.3373427,717,170.5848388671875
1514439353.4514534,718,170.59332275390625
1514439429.431404,719,170.59103393554688
1514439505.6127906,720,170.605224609375
1514439581.62116,721,170.6083221435547
1514439657.6579542,722,170.6085968017578
1514439733.80331,723,170.60598754882812
1514439809.779656,724,170.6094512939453
1514439885.814653,725,170.6143035888672
1514439961.9233797,726,170.61630249023438
1514440038.0678554,727,170.62167358398438
1514440114.0214217,728,170.62728881835938
1514440190.1204402,729,170.6317596435547
1514440266.229922,730,170.6300811767578
1514440342.3847988,731,170.63589477539062
1514440418.345118,732,170.63841247558594
1514440494.3474216,733,170.6421661376953
1514440570.3880637,734,170.64012145996094
1514440646.5095115,735,170.6450653076172
1514440722.565276,736,170.64918518066406
1514440798.6648788,737,170.65570068359375
1514440874.6878932,738,170.6605987548828
1514440950.7216287,739,170.6667938232422
1514441026.9486425,740,170.6683807373047
1514441103.2093663,741,170.67079162597656
1514441179.3222349,742,170.67921447753906
1514441255.3088775,743,170.6849365234375
1514441331.3870409,744,170.69322204589844
1514441407.4579678,745,170.69459533691406
1514441483.503523,746,170.69529724121094
1514441559.4811618,747,170.7042694091797
1514441635.7294426,748,170.70079040527344
1514441711.7571425,749,170.70266723632812
1514441787.807262,750,170.70709228515625
1514441863.7653916,751,170.71083068847656
1514441939.8466096,752,170.71392822265625
1514442015.9268732,753,170.7242431640625
1514442092.0853932,754,170.72775268554688
1514442168.3222842,755,170.7311248779297
1514442244.4312472,756,170.73110961914062
1514442320.5541022,757,170.73622131347656
1514442396.6577132,758,170.74142456054688
1514442472.8810353,759,170.74412536621094
1514442548.9718823,760,170.74722290039062
1514442625.1768422,761,170.74244689941406
1514442701.1644568,762,170.74447631835938
1514442777.2686753,763,170.74737548828125
1514442853.3409696,764,170.7549591064453
1514442929.4744086,765,170.75965881347656
1514443005.5658634,766,170.75856018066406
1514443081.798672,767,170.76055908203125
1514443157.8520267,768,170.77020263671875
1514443233.960142,769,170.7760009765625
1514443310.0018742,770,170.77896118164062
1514443386.1106522,771,170.78330993652344
1514443462.1583862,772,170.78038024902344
1514443538.133517,773,170.7835235595703
1514443614.153215,774,170.7883758544922
1514443690.1695013,775,170.7906036376953
1514443766.150087,776,170.7945098876953
1514443842.161498,777,170.8038787841797
1514443918.3728275,778,170.80746459960938
1514443994.400218,779,170.81031799316406
1514444070.4310117,780,170.8136444091797
1514444146.636738,781,170.81651306152344
1514444222.6295452,782,170.81971740722656
1514444298.775429,783,170.82301330566406
1514444374.8091192,784,170.8267822265625
1514444451.082548,785,170.82835388183594
1514444527.1075952,786,170.82684326171875
1514444603.157746,787,170.8284149169922
1514444679.2143774,788,170.83279418945312
1514444755.3771336,789,170.83897399902344
1514444831.5541255,790,170.83749389648438
1514444907.6390529,791,170.84567260742188
1514444983.6842167,792,170.84793090820312
1514445059.6628082,793,170.85157775878906
1514445135.6869822,794,170.85446166992188
1514445211.824256,795,170.85952758789062
1514445287.8277917,796,170.8618927001953
1514445363.9330668,797,170.86463928222656
1514445439.995398,798,170.86911010742188
1514445516.0075517,799,170.86721801757812
1514445592.1164467,800,170.8688201904297
1514445668.194569,801,170.87295532226562
1514445744.2615247,802,170.8733367919922
1514445820.2896545,803,170.87649536132812
1514445896.322365,804,170.88023376464844
1514445972.5753336,805,170.88140869140625
1514446048.64594,806,170.8840789794922
1514446124.5758758,807,170.88699340820312
1514446200.5627391,808,170.8888702392578
1514446276.744806,809,170.89291381835938
1514446352.7467067,810,170.89305114746094
1514446428.9159763,811,170.88580322265625
1514446505.1748881,812,170.88792419433594
1514446581.3454807,813,170.88876342773438
1514446657.3984199,814,170.89126586914062
1514446733.5249822,815,170.89212036132812
1514446809.6329257,816,170.8951416015625
1514446885.6880565,817,170.8960418701172
1514446961.8748693,818,170.8949432373047
1514447038.089457,819,170.89523315429688
1514447114.1768036,820,170.8926239013672
1514447190.3593369,821,170.90216064453125
1514447266.586059,822,170.8993682861328
1514447342.5569549,823,170.90151977539062
1514447418.763064,824,170.9054412841797
1514447494.8376834,825,170.9077911376953
1514447570.941689,826,170.90895080566406
1514447646.9079452,827,170.91258239746094
1514447722.941905,828,170.91184997558594
1514447799.0066967,829,170.91818237304688
1514447875.2888327,830,170.91307067871094
1514447951.3673675,831,170.9153289794922
1514448027.5336952,832,170.9181671142578
1514448103.613727,833,170.91697692871094
1514448179.7327404,834,170.9208984375
1514448255.8769934,835,170.9215545654297
1514448332.0649736,836,170.92271423339844
1514448408.2169702,837,170.9252166748047
1514448484.4308681,838,170.92279052734375
1514448560.6468663,839,170.92605590820312
1514448636.7761402,840,170.927978515625
1514448712.9746745,841,170.92437744140625
1514448789.13766,842,170.9320526123047
1514448865.2594001,843,170.92486572265625
1514448941.1710157,844,170.9273223876953
1514449017.2691543,845,170.9258270263672
1514449093.3327286,846,170.9294891357422
1514449169.5533612,847,170.9282989501953
1514449245.67616,848,170.92689514160156
1514449321.7254064,849,170.92892456054688
1514449397.8861156,850,170.93154907226562
1514449473.9082065,851,170.92068481445312
1514449550.0127096,852,170.9199981689453
1514449626.0558405,853,170.92308044433594
1514449702.239413,854,170.9336395263672
1514449778.3204472,855,170.9259033203125
1514449854.4904156,856,170.92913818359375
1514449930.3989,857,170.9334259033203
1514450006.4728956,858,170.93014526367188
1514450082.5896912,859,170.931884765625
1514450158.7296653,860,170.93170166015625
1514450234.8261185,861,170.93222045898438
1514450310.962647,862,170.93446350097656
1514450387.211017,863,170.9329376220703
1514450463.4082758,864,170.9346923828125
1514450539.563767,865,170.937255859375
1514450615.6744325,866,170.93658447265625
1514450691.8476968,867,170.9388427734375
1514450767.9014294,868,170.94091796875
1514450843.9929636,869,170.93734741210938
1514450920.0716832,870,170.9386444091797
1514450996.3061652,871,170.93917846679688
1514451072.3296762,872,170.94125366210938
1514451148.5113502,873,170.94155883789062
1514451224.5939102,874,170.94540405273438
1514451300.8699546,875,170.94540405273438
1514451377.1292584,876,170.93722534179688
1514451453.09559,877,170.94541931152344
1514451529.1158776,878,170.93922424316406
1514451605.2308936,879,170.9415740966797
1514451681.3661008,880,170.94497680664062
1514451757.4874744,881,170.94525146484375
1514451833.632347,882,170.94497680664062
1514451909.7443006,883,170.9475860595703
1514451985.9105914,884,170.94717407226562
1514452061.9929867,885,170.9477996826172
1514452138.0342777,886,170.9496307373047
1514452214.140431,887,170.95021057128906
1514452290.29817,888,170.95091247558594
1514452366.5034952,889,170.95013427734375
1514452442.6765907,890,170.95187377929688
1514452518.8949172,891,170.9496307373047
1514452595.0802193,892,170.95162963867188
1514452671.3045795,893,170.9495086669922
1514452747.3931198,894,170.95315551757812
1514452823.5420144,895,170.95355224609375
1514452899.6035001,896,170.9577178955078
1514452975.7589376,897,170.9598846435547
1514453051.962558,898,170.95852661132812
1514453128.1239855,899,170.9626007080078
1514453204.3911572,900,170.96176147460938
1514453280.5386832,901,170.96348571777344
1514453356.812173,902,170.9560546875
1514453432.8754737,903,170.9552459716797
1514453509.0281155,904,170.9552459716797
1514453585.2112226,905,170.9626007080078
1514453661.2633176,906,170.9564208984375
1514453737.263359,907,170.9566192626953
1514453813.3080013,908,170.95852661132812
1514453889.286324,909,170.95822143554688
1514453965.527666,910,170.96005249023438
1514454041.5763211,911,170.96051025390625
1514454117.6801984,912,170.95848083496094
1514454193.8269265,913,170.9578399658203
1514454269.9454591,914,170.95883178710938
1514454346.1228046,915,170.95932006835938
1514454422.2793963,916,170.95794677734375
1514454498.3792274,917,170.9590301513672
1514454574.64384,918,170.9580535888672
1514454650.8653889,919,170.95826721191406
1514454727.0336382,920,170.95994567871094
1514454803.1534011,921,170.9601593017578
1514454879.124923,922,170.95631408691406
1514454955.3753273,923,170.9596405029297
1514455031.4731574,924,170.95579528808594
1514455107.5890167,925,170.95819091796875
1514455183.8414438,926,170.95550537109375
1514455259.852886,927,170.95358276367188
1514455335.9425726,928,170.95388793945312
1514455412.2108722,929,170.952392578125
1514455488.4005988,930,170.9500274658203
1514455564.491614,931,170.9515380859375
1514455640.8459747,932,170.95188903808594
1514455717.061015,933,170.949462890625
1514455793.264221,934,170.9498748779297
1514455869.3921933,935,170.94642639160156
1514455945.6506798,936,170.9467010498047
1514456021.7546337,937,170.94708251953125
1514456097.8635082,938,170.94773864746094
1514456174.019615,939,170.9485321044922
1514456250.162763,940,170.948486328125
1514456326.3427374,941,170.95101928710938
1514456402.474812,942,170.95285034179688
1514456478.6485572,943,170.95314025878906
1514456554.7627165,944,170.95545959472656
1514456630.923051,945,170.95530700683594
1514456707.0242257,946,170.9563446044922
1514456783.081917,947,170.9569091796875
1514456859.2096865,948,170.9573211669922
1514456935.3836255,949,170.95806884765625
1514457011.5755947,950,170.9622039794922
1514457087.6574373,951,170.95603942871094
1514457163.6806798,952,170.95957946777344
1514457239.7557824,953,170.95875549316406
1514457315.8242612,954,170.9576416015625
1514457391.9588928,955,170.95664978027344
1514457468.2377553,956,170.95541381835938
1514457544.2949433,957,170.95362854003906
1514457620.4737432,958,170.9530792236328
1514457696.606064,959,170.95176696777344
1514457772.7791083,960,170.95083618164062
1514457848.8007834,961,170.95028686523438
1514457924.9198613,962,170.9492950439453
1514458000.9025323,963,170.94772338867188
1514458077.1517715,964,170.94703674316406
1514458153.4256623,965,170.9459991455078
1514458229.662801,966,170.94570922851562
1514458305.7206466,967,170.9444122314453
1514458381.8720055,968,170.9434814453125
1514458458.0531783,969,170.94223022460938
1514458534.1813102,970,170.94082641601562
1514458610.2425184,971,170.9398193359375
1514458686.3991947,972,170.93856811523438
1514458762.5511076,973,170.93739318847656
1514458838.6835692,974,170.93603515625
1514458914.8192968,975,170.93504333496094
1514458990.8965166,976,170.93405151367188
1514459067.139922,977,170.93310546875
1514459143.213237,978,170.93177795410156
1514459219.4214222,979,170.93080139160156
1514459295.5295289,980,170.93014526367188
1514459371.6730337,981,170.92945861816406
1514459447.790162,982,170.9285430908203
1514459523.8872411,983,170.92807006835938
1514459599.9947672,984,170.92779541015625
1514459676.0826356,985,170.9276123046875
1514459752.1917229,986,170.9271697998047
1514459828.2756083,987,170.927001953125
1514459904.3554323,988,170.92608642578125
1514459980.4403696,989,170.9256134033203
1514460056.5716953,990,170.9250946044922
1514460132.774236,991,170.92491149902344
1514460209.0287356,992,170.9246063232422
1514460285.1927805,993,170.9241485595703
1514460361.508387,994,170.92343139648438
1514460437.6900947,995,170.92303466796875
1514460513.8262186,996,170.92202758789062
1514460589.9633443,997,170.92210388183594
1514460666.0781593,998,170.9216766357422
1514460742.237407,999,170.92076110839844
