Wall time,Step,Value
1514384728.7798688,0,43.1135368347168
1514384805.9798787,1,33.54825973510742
1514384883.1451375,2,32.35285568237305
1514384960.7513332,3,32.0894889831543
1514385038.1172469,4,31.80077362060547
1514385115.2801232,5,31.51754379272461
1514385191.5564625,6,31.2777099609375
1514385267.9860134,7,31.097963333129883
1514385344.9121861,8,30.954832077026367
1514385422.898675,9,30.84149169921875
1514385502.355325,10,30.738140106201172
1514385578.3783705,11,30.655776977539062
1514385654.9971497,12,30.581974029541016
1514385730.945954,13,30.514677047729492
1514385808.3333774,14,30.453351974487305
1514385885.131556,15,30.39800262451172
1514385961.2182689,16,30.347732543945312
1514386037.188549,17,30.30142593383789
1514386113.4017015,18,30.260250091552734
1514386189.3656158,19,30.219833374023438
1514386265.2546067,20,30.17921257019043
1514386341.0910761,21,30.141454696655273
1514386416.8854318,22,30.10660171508789
1514386492.6025066,23,30.078227996826172
1514386568.532322,24,30.049758911132812
1514386644.3797495,25,30.019010543823242
1514386720.1347733,26,29.99449920654297
1514386795.90376,27,29.970701217651367
1514386871.5822184,28,29.947486877441406
1514386947.3190198,29,29.926286697387695
1514387023.2459223,30,29.90517807006836
1514387100.491833,31,29.89141845703125
1514387176.5854468,32,29.870302200317383
1514387252.4465365,33,29.856586456298828
1514387328.3979669,34,29.843626022338867
1514387404.2211916,35,29.82952308654785
1514387480.107175,36,29.819122314453125
1514387556.1267076,37,29.80773162841797
1514387635.99181,38,29.7970027923584
1514387712.0294955,39,29.787580490112305
1514387787.8888893,40,29.779943466186523
1514387863.8286402,41,29.77068328857422
1514387940.3510382,42,29.76342010498047
1514388016.1027253,43,29.752498626708984
1514388091.8804028,44,29.744651794433594
1514388167.7633688,45,29.737037658691406
1514388243.57514,46,29.729585647583008
1514388319.3485725,47,29.7252197265625
1514388395.0942361,48,29.717939376831055
1514388470.8927736,49,29.712385177612305
1514388546.6215878,50,29.708017349243164
1514388622.3705182,51,29.702632904052734
1514388698.137617,52,29.696884155273438
1514388773.8121161,53,29.6933536529541
1514388849.6229303,54,29.688549041748047
1514388925.465771,55,29.683839797973633
1514389001.3713994,56,29.679506301879883
1514389077.252583,57,29.674413681030273
1514389152.991211,58,29.67009162902832
1514389228.8067029,59,29.666017532348633
1514389304.7261093,60,29.661630630493164
1514389380.4878912,61,29.657548904418945
1514389456.2750988,62,29.653671264648438
1514389532.085782,63,29.647823333740234
1514389607.8978,64,29.644861221313477
1514389683.7117357,65,29.642053604125977
1514389759.5873883,66,29.637907028198242
1514389835.4154098,67,29.635255813598633
1514389911.2550843,68,29.632471084594727
1514389987.0939116,69,29.630298614501953
1514390062.9498966,70,29.628406524658203
1514390138.879185,71,29.62386703491211
1514390214.7246113,72,29.62125015258789
1514390290.4881887,73,29.619123458862305
1514390366.328494,74,29.61720848083496
1514390442.149328,75,29.61528205871582
1514390517.9170885,76,29.613845825195312
1514390593.739332,77,29.61122703552246
1514390669.45473,78,29.608901977539062
1514390745.4326565,79,29.606212615966797
1514390821.3938406,80,29.602354049682617
1514390897.2190845,81,29.602046966552734
1514390973.021376,82,29.599323272705078
1514391048.919686,83,29.59862518310547
1514391125.8771474,84,29.597074508666992
1514391204.8751655,85,29.594318389892578
1514391283.238449,86,29.59233856201172
1514391360.2150307,87,29.591094970703125
1514391436.1862385,88,29.596158981323242
1514391512.198673,89,29.590736389160156
1514391588.2462318,90,29.585895538330078
1514391664.2400525,91,29.586698532104492
1514391740.1088464,92,29.584630966186523
1514391815.8932095,93,29.583797454833984
1514391891.8570573,94,29.58182716369629
1514391967.6118703,95,29.580726623535156
1514392043.5658963,96,29.579877853393555
1514392119.389599,97,29.579761505126953
1514392195.4649663,98,29.578432083129883
1514392271.4264252,99,29.576805114746094
1514392347.3209972,100,29.576295852661133
1514392423.220728,101,29.575048446655273
1514392499.3185925,102,29.574077606201172
1514392575.3078995,103,29.573593139648438
1514392651.2757542,104,29.569992065429688
1514392727.378332,105,29.567947387695312
1514392803.3583896,106,29.567943572998047
1514392879.1813722,107,29.569581985473633
1514392955.0961561,108,29.56891441345215
1514393031.0995986,109,29.568283081054688
1514393106.9928453,110,29.56711196899414
1514393182.8728533,111,29.565990447998047
1514393259.5893302,112,29.565736770629883
1514393335.7906232,113,29.563884735107422
1514393411.8110392,114,29.56578254699707
1514393487.85105,115,29.56352996826172
1514393563.6662786,116,29.56279182434082
1514393639.5539556,117,29.5635929107666
1514393715.5728848,118,29.56422233581543
1514393791.5176015,119,29.563674926757812
1514393867.3709412,120,29.563432693481445
1514393943.164991,121,29.56293487548828
1514394019.0059566,122,29.56209373474121
1514394094.8578463,123,29.561359405517578
1514394170.8077788,124,29.560701370239258
1514394246.6670296,125,29.560121536254883
1514394322.7499342,126,29.559558868408203
1514394398.5810077,127,29.559022903442383
1514394474.7069764,128,29.55866050720215
1514394550.777854,129,29.558252334594727
1514394626.707346,130,29.557842254638672
1514394702.667414,131,29.557361602783203
1514394778.7334998,132,29.556854248046875
1514394854.765485,133,29.55638313293457
1514394930.7170882,134,29.556379318237305
1514395006.688032,135,29.555551528930664
1514395082.6253498,136,29.555051803588867
1514395158.5711207,137,29.554262161254883
1514395234.5090585,138,29.55389976501465
1514395310.5334046,139,29.553268432617188
1514395386.5599458,140,29.55291175842285
1514395462.407578,141,29.55232810974121
1514395538.2860594,142,29.551883697509766
1514395614.3204336,143,29.55162811279297
1514395690.3080165,144,29.55158805847168
1514395766.265725,145,29.550901412963867
1514395842.14473,146,29.550607681274414
1514395918.1319041,147,29.550247192382812
1514395994.0745788,148,29.54996109008789
1514396070.1745691,149,29.54979705810547
1514396146.0469387,150,29.54973793029785
1514396222.0252485,151,29.550331115722656
1514396297.986939,152,29.550981521606445
1514396373.9858127,153,29.551048278808594
1514396449.932692,154,29.547391891479492
1514396525.9165509,155,29.54731559753418
1514396601.833726,156,29.547338485717773
1514396677.8002522,157,29.547266006469727
1514396753.9352114,158,29.54679298400879
1514396829.817377,159,29.546478271484375
1514396905.7566774,160,29.545896530151367
1514396981.786878,161,29.54528045654297
1514397057.7737548,162,29.544588088989258
1514397134.916893,163,29.544822692871094
1514397211.0134265,164,29.544281005859375
1514397286.9934227,165,29.544179916381836
1514397362.937276,166,29.543853759765625
1514397438.946575,167,29.543659210205078
1514397514.896263,168,29.543792724609375
1514397591.079038,169,29.543560028076172
1514397667.0129917,170,29.543643951416016
1514397742.9404702,171,29.543546676635742
1514397818.823432,172,29.543235778808594
1514397894.7713997,173,29.54302978515625
1514397970.7798247,174,29.542400360107422
1514398046.8162339,175,29.542139053344727
1514398122.743189,176,29.542404174804688
1514398198.7063859,177,29.54231071472168
1514398274.6144683,178,29.542282104492188
1514398350.6750116,179,29.542301177978516
1514398426.596817,180,29.54204559326172
1514398502.6668925,181,29.541465759277344
1514398579.619883,182,29.541345596313477
1514398657.3407946,183,29.541221618652344
1514398735.10329,184,29.541128158569336
1514398813.6810477,185,29.541105270385742
1514398890.4033265,186,29.541322708129883
1514398966.3406093,187,29.54118537902832
1514399042.3355002,188,29.540666580200195
1514399118.3454442,189,29.541223526000977
1514399194.2484415,190,29.54067039489746
1514399270.3065991,191,29.54046630859375
1514399346.2286747,192,29.540122985839844
1514399422.4347417,193,29.53997230529785
1514399498.3347862,194,29.53995132446289
1514399574.3070724,195,29.540128707885742
1514399650.3569005,196,29.540050506591797
1514399726.3991501,197,29.539875030517578
1514399802.433322,198,29.5397891998291
1514399878.5602546,199,29.539640426635742
1514399954.5856674,200,29.53944969177246
1514400030.5772417,201,29.53936195373535
1514400106.546573,202,29.539215087890625
1514400182.586957,203,29.539175033569336
1514400258.6950605,204,29.539100646972656
1514400334.649212,205,29.53902244567871
1514400410.6859913,206,29.53885841369629
1514400486.750588,207,29.538692474365234
1514400562.8194492,208,29.538663864135742
1514400638.804254,209,29.538572311401367
1514400714.8273277,210,29.53816032409668
1514400790.8164997,211,29.538467407226562
1514400866.7996187,212,29.53829574584961
1514400942.9285338,213,29.537912368774414
1514401018.9677002,214,29.537853240966797
1514401094.9429545,215,29.537677764892578
1514401170.9229977,216,29.537193298339844
1514401246.899617,217,29.536941528320312
1514401322.911436,218,29.536836624145508
1514401398.959906,219,29.536712646484375
1514401475.0912607,220,29.536624908447266
1514401551.0991783,221,29.536531448364258
1514401627.1176379,222,29.536375045776367
1514401703.0914867,223,29.536314010620117
1514401779.0786338,224,29.536216735839844
1514401855.6760623,225,29.53614044189453
1514401933.9485564,226,29.536144256591797
1514402010.729383,227,29.536128997802734
1514402086.8510678,228,29.5362548828125
1514402162.9219337,229,29.536117553710938
1514402239.4210973,230,29.53593635559082
1514402317.5538876,231,29.535999298095703
1514402393.57758,232,29.53597640991211
1514402469.5869138,233,29.535846710205078
1514402545.4812398,234,29.53575897216797
1514402621.4550717,235,29.535673141479492
1514402697.4038992,236,29.535274505615234
1514402773.3420343,237,29.53512191772461
1514402849.2625418,238,29.53512191772461
1514402925.127495,239,29.53504180908203
1514403001.0498652,240,29.53499412536621
1514403076.8663528,241,29.53492546081543
1514403152.6723852,242,29.534835815429688
1514403228.632693,243,29.53474998474121
1514403304.4927206,244,29.534650802612305
1514403380.4118152,245,29.534494400024414
1514403456.302358,246,29.53435707092285
1514403532.2473857,247,29.5342960357666
1514403608.2241113,248,29.534265518188477
1514403684.1437268,249,29.53423500061035
1514403760.0483272,250,29.534130096435547
1514403836.0933833,251,29.53426170349121
1514403911.9991486,252,29.534196853637695
1514403987.8055313,253,29.534297943115234
1514404063.5633996,254,29.53424644470215
1514404139.393509,255,29.534204483032227
1514404215.1916711,256,29.5343074798584
1514404291.1819208,257,29.53424835205078
1514404367.0242875,258,29.534122467041016
1514404442.9153085,259,29.53412628173828
1514404518.8118029,260,29.534225463867188
1514404594.7465322,261,29.533924102783203
1514404670.688632,262,29.533906936645508
1514404746.7026718,263,29.53386688232422
1514404822.5858881,264,29.533843994140625
1514404898.5769014,265,29.533842086791992
1514404974.4498134,266,29.533859252929688
1514405050.4427361,267,29.533981323242188
1514405126.2535286,268,29.53399658203125
1514405202.215719,269,29.534181594848633
1514405278.0919743,270,29.53430938720703
1514405354.0250409,271,29.53423500061035
1514405429.973542,272,29.534252166748047
1514405505.8828962,273,29.534215927124023
1514405581.9112146,274,29.53426170349121
1514405657.813725,275,29.534204483032227
1514405733.691602,276,29.53423309326172
1514405809.543596,277,29.534605026245117
1514405885.5040128,278,29.53471565246582
1514405962.236166,279,29.534786224365234
1514406040.4075243,280,29.53465461730957
1514406117.480215,281,29.53456687927246
1514406193.5946465,282,29.534568786621094
1514406269.6175845,283,29.53451156616211
1514406345.6582696,284,29.534467697143555
1514406421.695009,285,29.534452438354492
1514406497.9450681,286,29.53449249267578
1514406573.9941103,287,29.534669876098633
1514406650.216191,288,29.534608840942383
1514406726.2394612,289,29.534679412841797
1514406802.257482,290,29.534666061401367
1514406878.3077185,291,29.534576416015625
1514406954.274024,292,29.53456687927246
1514407030.296767,293,29.534534454345703
1514407106.4330227,294,29.534652709960938
1514407182.450672,295,29.534690856933594
1514407258.4478495,296,29.534719467163086
1514407334.5141435,297,29.534738540649414
1514407410.615689,298,29.534753799438477
1514407486.7495213,299,29.534711837768555
1514407562.7761571,300,29.53469467163086
1514407638.8761637,301,29.534605026245117
1514407714.9287765,302,29.534587860107422
1514407790.877165,303,29.53456687927246
1514407866.8449926,304,29.53460693359375
1514407942.8942022,305,29.534523010253906
1514408018.992964,306,29.534645080566406
1514408095.079199,307,29.534658432006836
1514408171.0920079,308,29.534988403320312
1514408247.129416,309,29.535329818725586
1514408323.104951,310,29.535364151000977
1514408399.0876918,311,29.53534698486328
1514408475.1049728,312,29.535419464111328
1514408551.1275282,313,29.53537368774414
1514408627.26601,314,29.5355281829834
1514408703.197711,315,29.535503387451172
1514408779.2188637,316,29.53561019897461
1514408855.2507937,317,29.535655975341797
1514408931.2234416,318,29.535669326782227
1514409007.2716851,319,29.535675048828125
1514409083.45167,320,29.535669326782227
1514409159.3978689,321,29.535917282104492
1514409235.3927636,322,29.536008834838867
1514409311.5335386,323,29.535980224609375
1514409387.6218786,324,29.53597068786621
1514409463.6013527,325,29.535953521728516
1514409539.6241546,326,29.53629493713379
1514409615.6724534,327,29.53664207458496
1514409691.5974035,328,29.536701202392578
1514409767.8218093,329,29.536754608154297
1514409843.9587338,330,29.536815643310547
1514409920.0351174,331,29.536897659301758
1514409996.0405536,332,29.53693199157715
1514410072.1348531,333,29.536968231201172
1514410148.1544335,334,29.536991119384766
1514410224.2740247,335,29.537029266357422
1514410300.2358034,336,29.537067413330078
1514410376.2810166,337,29.536924362182617
1514410452.215509,338,29.53697395324707
1514410528.1995044,339,29.537031173706055
1514410604.281168,340,29.537063598632812
1514410680.4132218,341,29.53693962097168
1514410756.4602273,342,29.53730583190918
1514410832.4999564,343,29.537334442138672
1514410908.559509,344,29.53728675842285
1514410984.4770334,345,29.537199020385742
1514411060.4747717,346,29.537216186523438
1514411136.5114408,347,29.53726577758789
1514411212.4120584,348,29.537216186523438
1514411288.3316174,349,29.537168502807617
1514411364.3270633,350,29.537216186523438
1514411440.403255,351,29.537382125854492
1514411516.4382014,352,29.537399291992188
1514411592.4342365,353,29.537450790405273
1514411668.5285957,354,29.537370681762695
1514411744.4725778,355,29.537511825561523
1514411820.5412796,356,29.537508010864258
1514411896.5817435,357,29.537473678588867
1514411972.457502,358,29.53756332397461
1514412048.5349646,359,29.537477493286133
1514412124.6361885,360,29.537473678588867
1514412200.7726498,361,29.5374813079834
1514412276.8895462,362,29.53742027282715
1514412352.9918978,363,29.537351608276367
1514412428.9731972,364,29.537141799926758
1514412504.9328663,365,29.537090301513672
1514412580.8963692,366,29.53703498840332
1514412656.9635875,367,29.537059783935547
1514412732.984417,368,29.53704833984375
1514412809.1093118,369,29.537099838256836
1514412885.2631745,370,29.537094116210938
1514412961.2561595,371,29.537078857421875
1514413037.234196,372,29.537139892578125
1514413113.3027587,373,29.537233352661133
1514413189.3017852,374,29.5375919342041
1514413265.4741864,375,29.537565231323242
1514413341.532936,376,29.537525177001953
1514413417.695918,377,29.53754425048828
1514413493.627872,378,29.53766632080078
1514413569.6517048,379,29.537878036499023
1514413645.7896504,380,29.537813186645508
1514413721.8893726,381,29.537899017333984
1514413798.0303147,382,29.537879943847656
1514413874.1265953,383,29.53789710998535
1514413950.1663604,384,29.537919998168945
1514414026.25372,385,29.53798484802246
1514414102.3681755,386,29.537994384765625
1514414178.502435,387,29.537925720214844
1514414254.4125829,388,29.537939071655273
1514414330.4202952,389,29.53800392150879
1514414406.5540745,390,29.538057327270508
1514414482.6847503,391,29.538122177124023
1514414558.6882255,392,29.53817367553711
1514414634.7068655,393,29.538280487060547
1514414710.7234612,394,29.53836441040039
1514414786.8190587,395,29.538341522216797
1514414862.8217225,396,29.53823471069336
1514414938.8298979,397,29.538280487060547
1514415014.7584705,398,29.538368225097656
1514415090.6155906,399,29.53838348388672
1514415166.6484559,400,29.538471221923828
1514415242.6437042,401,29.538530349731445
1514415318.6655986,402,29.538589477539062
1514415394.7281816,403,29.53858184814453
1514415470.8152518,404,29.538667678833008
1514415546.7180517,405,29.53874969482422
1514415622.7229602,406,29.538822174072266
1514415698.8364475,407,29.538820266723633
1514415774.8937106,408,29.53887939453125
1514415850.9498267,409,29.538883209228516
1514415926.960724,410,29.538860321044922
1514416003.0723867,411,29.538965225219727
1514416079.248033,412,29.538984298706055
1514416155.2178752,413,29.53911590576172
1514416231.2637758,414,29.539104461669922
1514416307.2046604,415,29.53917694091797
1514416383.1753447,416,29.539173126220703
1514416459.2657144,417,29.539175033569336
1514416535.3171916,418,29.539121627807617
1514416611.546197,419,29.538854598999023
1514416687.6186657,420,29.538854598999023
1514416763.6780806,421,29.53890037536621
1514416839.6801615,422,29.5389347076416
1514416915.6978204,423,29.538978576660156
1514416991.7609894,424,29.539121627807617
1514417067.8063958,425,29.539167404174805
1514417143.8827653,426,29.53927230834961
1514417220.0473092,427,29.539339065551758
1514417296.1529021,428,29.53938865661621
1514417372.1414647,429,29.5394287109375
1514417448.214289,430,29.539608001708984
1514417524.3087754,431,29.539520263671875
1514417600.5265512,432,29.53972816467285
1514417676.6537995,433,29.539804458618164
1514417752.701761,434,29.539670944213867
1514417828.6875186,435,29.540210723876953
1514417904.6434107,436,29.54024314880371
1514417980.6418426,437,29.540483474731445
1514418056.7507753,438,29.54044532775879
1514418132.7420478,439,29.540180206298828
1514418208.884668,440,29.540172576904297
1514418284.840451,441,29.540237426757812
1514418360.9817648,442,29.540250778198242
1514418436.9941108,443,29.54056167602539
1514418513.0423336,444,29.54060935974121
1514418588.9872167,445,29.540634155273438
1514418664.8880389,446,29.540666580200195
1514418740.9656785,447,29.540742874145508
1514418817.07992,448,29.540781021118164
1514418893.2123036,449,29.540842056274414
1514418969.234789,450,29.540760040283203
1514419045.3148432,451,29.540868759155273
1514419121.2327485,452,29.540973663330078
1514419197.217802,453,29.541053771972656
1514419273.2540226,454,29.541030883789062
1514419349.274067,455,29.541101455688477
1514419425.3325524,456,29.541166305541992
1514419501.4135735,457,29.541284561157227
1514419577.4180238,458,29.54131507873535
1514419653.3145273,459,29.5413818359375
1514419729.4299018,460,29.541379928588867
1514419805.423259,461,29.54143714904785
1514419881.3941736,462,29.54143714904785
1514419957.3095875,463,29.541643142700195
1514420033.2504928,464,29.541715621948242
1514420109.1489031,465,29.54143714904785
1514420185.191594,466,29.541454315185547
1514420261.2358468,467,29.541759490966797
1514420337.299251,468,29.541534423828125
1514420413.3381805,469,29.54159164428711
1514420489.3797743,470,29.54157257080078
1514420565.3821304,471,29.541645050048828
1514420641.372206,472,29.54169464111328
1514420717.3858902,473,29.541725158691406
1514420793.2955348,474,29.541725158691406
1514420869.3672018,475,29.541772842407227
1514420945.4778285,476,29.541736602783203
1514421021.6412592,477,29.54171371459961
1514421097.7534318,478,29.54172134399414
1514421173.719357,479,29.54170799255371
1514421249.7923472,480,29.541736602783203
1514421325.8727584,481,29.541749954223633
1514421401.839459,482,29.541826248168945
1514421477.8868237,483,29.54182243347168
1514421553.8423553,484,29.541858673095703
1514421629.8677475,485,29.54191780090332
1514421705.9742067,486,29.54201316833496
1514421782.0603654,487,29.541980743408203
1514421858.231917,488,29.542016983032227
1514421934.3170974,489,29.542139053344727
1514422010.2960393,490,29.542152404785156
1514422086.203669,491,29.541921615600586
1514422162.2639632,492,29.541887283325195
1514422238.256568,493,29.54193687438965
1514422314.2730694,494,29.542003631591797
1514422390.135489,495,29.542068481445312
1514422466.2025158,496,29.542016983032227
1514422542.2294903,497,29.54201889038086
1514422618.2830806,498,29.54207992553711
1514422694.288329,499,29.54203224182129
1514422770.3649895,500,29.5421142578125
1514422846.2973228,501,29.542139053344727
1514422922.3364398,502,29.542142868041992
1514422998.3960745,503,29.542434692382812
1514423074.4712849,504,29.54241371154785
1514423150.5838995,505,29.54244613647461
1514423226.5504956,506,29.542448043823242
1514423302.5390997,507,29.542469024658203
1514423378.6263041,508,29.54244041442871
1514423454.6691527,509,29.54241943359375
1514423530.7617364,510,29.542428970336914
1514423606.849628,511,29.542444229125977
1514423683.0103893,512,29.542465209960938
1514423759.0709097,513,29.542417526245117
1514423834.9712267,514,29.542434692382812
1514423911.0528526,515,29.542543411254883
1514423987.1149404,516,29.542516708374023
1514424063.1888351,517,29.54262351989746
1514424139.3087552,518,29.54262924194336
1514424215.3095424,519,29.542604446411133
1514424291.387802,520,29.542503356933594
1514424367.3681948,521,29.54256820678711
1514424443.5636091,522,29.542619705200195
1514424519.5904982,523,29.542621612548828
1514424595.7317169,524,29.54261016845703
1514424671.774366,525,29.542631149291992
1514424747.8491573,526,29.542728424072266
1514424823.9125462,527,29.542749404907227
1514424900.0905545,528,29.542694091796875
1514424976.0980446,529,29.542831420898438
1514425052.0990322,530,29.5428524017334
1514425128.2265027,531,29.542919158935547
1514425204.3054266,532,29.542917251586914
1514425280.5677953,533,29.542951583862305
1514425356.6594424,534,29.543081283569336
1514425432.8647654,535,29.543073654174805
1514425508.91963,536,29.543119430541992
1514425585.087468,537,29.543113708496094
1514425661.2337792,538,29.54307746887207
1514425737.239145,539,29.543071746826172
1514425813.3340268,540,29.54313087463379
1514425889.5272837,541,29.543115615844727
1514425965.7007294,542,29.543123245239258
1514426041.6694653,543,29.543203353881836
1514426117.818033,544,29.543292999267578
1514426193.8441,545,29.54326820373535
1514426269.9317584,546,29.543363571166992
1514426345.974662,547,29.543420791625977
1514426422.2807171,548,29.543418884277344
1514426498.3904696,549,29.54337501525879
1514426574.435982,550,29.543476104736328
1514426650.4568589,551,29.543447494506836
1514426726.6655037,552,29.543596267700195
1514426802.6441193,553,29.543550491333008
1514426878.6996236,554,29.54358673095703
1514426954.8350987,555,29.54355239868164
1514427030.9146006,556,29.54363250732422
1514427107.0184696,557,29.543703079223633
1514427183.152327,558,29.543691635131836
1514427259.3629136,559,29.543720245361328
1514427335.4003985,560,29.544036865234375
1514427411.6230001,561,29.54405975341797
1514427487.6495862,562,29.543962478637695
1514427563.5704691,563,29.544055938720703
1514427639.5358262,564,29.544071197509766
1514427715.5964603,565,29.544160842895508
1514427791.7176056,566,29.54425048828125
1514427867.7631853,567,29.544240951538086
1514427943.8953886,568,29.544265747070312
1514428020.11443,569,29.544239044189453
1514428096.241529,570,29.54427146911621
1514428172.2529812,571,29.54425811767578
1514428248.4937277,572,29.54416275024414
1514428324.5356233,573,29.544170379638672
1514428400.713234,574,29.544567108154297
1514428476.695423,575,29.544532775878906
1514428552.7420187,576,29.544588088989258
1514428628.8719196,577,29.544206619262695
1514428704.970947,578,29.54456329345703
1514428781.0698228,579,29.54456901550293
1514428857.0537615,580,29.54461669921875
1514428933.0948615,581,29.544696807861328
1514429009.1817174,582,29.54473304748535
1514429085.3001962,583,29.54472541809082
1514429161.382894,584,29.544715881347656
1514429237.3903546,585,29.54478645324707
1514429313.37508,586,29.544822692871094
1514429389.429875,587,29.544843673706055
1514429465.4835856,588,29.544837951660156
1514429541.6293147,589,29.544893264770508
1514429617.841107,590,29.544940948486328
1514429694.0308192,591,29.545032501220703
1514429770.0668929,592,29.54511833190918
1514429846.0239906,593,29.545164108276367
1514429922.0148137,594,29.545259475708008
1514429998.1921995,595,29.545284271240234
1514430074.3404572,596,29.54534912109375
1514430150.4988635,597,29.545366287231445
1514430226.6240206,598,29.54536247253418
1514430302.6820533,599,29.545385360717773
1514430378.835344,600,29.545385360717773
1514430454.9013991,601,29.545413970947266
1514430531.022614,602,29.54543113708496
1514430607.1110618,603,29.545398712158203
1514430683.1411905,604,29.545391082763672
1514430759.264485,605,29.545366287231445
1514430835.386788,606,29.545392990112305
1514430911.5635667,607,29.545427322387695
1514430987.7288275,608,29.545446395874023
1514431063.8812814,609,29.54547691345215
1514431139.8723109,610,29.545501708984375
1514431216.087608,611,29.545400619506836
1514431292.0969534,612,29.545448303222656
1514431368.1710918,613,29.545536041259766
1514431444.2844214,614,29.545530319213867
1514431520.4180994,615,29.545530319213867
1514431596.4514182,616,29.54548454284668
1514431672.5458248,617,29.54541778564453
1514431748.4692984,618,29.54536247253418
1514431824.385692,619,29.54536247253418
1514431900.5313027,620,29.545364379882812
1514431976.715982,621,29.545419692993164
1514432052.6830223,622,29.545560836791992
1514432128.7200694,623,29.545513153076172
1514432204.745115,624,29.545555114746094
1514432280.8660977,625,29.545549392700195
1514432356.9075055,626,29.54560089111328
1514432432.9288802,627,29.545608520507812
1514432509.0731838,628,29.545360565185547
1514432585.0233016,629,29.545385360717773
1514432661.2531288,630,29.545333862304688
1514432737.277612,631,29.545377731323242
1514432813.366458,632,29.54542350769043
1514432889.407768,633,29.545438766479492
1514432965.4609542,634,29.545490264892578
1514433041.5641222,635,29.54546356201172
1514433117.6307182,636,29.545856475830078
1514433193.6531694,637,29.545705795288086
1514433269.6701908,638,29.545698165893555
1514433345.6800299,639,29.545696258544922
1514433421.6749656,640,29.545757293701172
1514433497.793293,641,29.545818328857422
1514433573.6810286,642,29.54596519470215
1514433649.7566102,643,29.54629898071289
1514433725.857171,644,29.546316146850586
1514433802.0581114,645,29.54638671875
1514433878.226513,646,29.546371459960938
1514433954.3278856,647,29.546281814575195
1514434030.456688,648,29.546348571777344
1514434106.6565127,649,29.546361923217773
1514434182.6494098,650,29.546342849731445
1514434258.679589,651,29.546375274658203
1514434334.8134806,652,29.546260833740234
1514434411.0207293,653,29.54623794555664
1514434487.076268,654,29.54621124267578
1514434563.1240792,655,29.546253204345703
1514434639.2479467,656,29.546226501464844
1514434715.3089783,657,29.546260833740234
1514434791.3491542,658,29.54625701904297
1514434867.3896043,659,29.546255111694336
1514434943.5449193,660,29.546222686767578
1514435019.7095294,661,29.546245574951172
1514435095.739727,662,29.546531677246094
1514435171.7727907,663,29.54648780822754
1514435247.9294846,664,29.54645347595215
1514435324.0691285,665,29.546459197998047
1514435400.2838025,666,29.546457290649414
1514435476.3963995,667,29.54642105102539
1514435552.3584778,668,29.546457290649414
1514435628.51089,669,29.546470642089844
1514435704.6354804,670,29.546483993530273
1514435780.7243266,671,29.546506881713867
1514435856.7511218,672,29.54585075378418
1514435932.8151507,673,29.54587745666504
1514436008.9381263,674,29.545900344848633
1514436085.0735817,675,29.54595184326172
1514436161.2077463,676,29.54597282409668
1514436237.362092,677,29.546001434326172
1514436313.339003,678,29.545970916748047
1514436389.4894423,679,29.545961380004883
1514436465.5897524,680,29.54602813720703
1514436541.6562357,681,29.546045303344727
1514436617.7322125,682,29.546056747436523
1514436693.8130336,683,29.54608726501465
1514436770.0129068,684,29.546058654785156
1514436846.0695732,685,29.546117782592773
1514436922.1315212,686,29.54616355895996
1514436998.1014843,687,29.546113967895508
1514437074.0990868,688,29.546106338500977
1514437150.1153622,689,29.54615020751953
1514437226.2045958,690,29.546146392822266
1514437302.269365,691,29.546157836914062
1514437378.3125837,692,29.546180725097656
1514437454.32821,693,29.546142578125
1514437530.4423811,694,29.546113967895508
1514437606.5704522,695,29.54608917236328
1514437682.5420895,696,29.54617691040039
1514437758.7223165,697,29.546154022216797
1514437834.6633322,698,29.546146392822266
1514437910.7156043,699,29.54623794555664
1514437986.7274458,700,29.546226501464844
1514438062.8402348,701,29.546188354492188
1514438138.8265378,702,29.546180725097656
1514438214.8644993,703,29.5461483001709
1514438290.81377,704,29.546184539794922
1514438366.9806335,705,29.546255111694336
1514438442.9243171,706,29.546268463134766
1514438518.9230678,707,29.54629898071289
1514438594.9157271,708,29.54596519470215
1514438670.923576,709,29.54598617553711
1514438747.0445013,710,29.545988082885742
1514438823.0836232,711,29.545820236206055
1514438899.2289903,712,29.545827865600586
1514438975.25216,713,29.545848846435547
1514439051.2976775,714,29.545862197875977
1514439127.3483768,715,29.545900344848633
1514439203.4906719,716,29.54599952697754
1514439279.658295,717,29.546009063720703
1514439355.7668045,718,29.545989990234375
1514439431.7488859,719,29.545978546142578
1514439507.9516654,720,29.546049118041992
1514439583.9376934,721,29.545988082885742
1514439659.975947,722,29.545942306518555
1514439736.1817486,723,29.54593276977539
1514439812.0978303,724,29.545909881591797
1514439888.1885571,725,29.545963287353516
1514439964.2522779,726,29.545982360839844
1514440040.390615,727,29.546030044555664
1514440116.3477552,728,29.546131134033203
1514440192.44144,729,29.546159744262695
1514440268.562446,730,29.546146392822266
1514440344.7282043,731,29.546146392822266
1514440420.6633382,732,29.546157836914062
1514440496.6663146,733,29.546205520629883
1514440572.713501,734,29.546260833740234
1514440648.8309834,735,29.546283721923828
1514440724.8830783,736,29.54634666442871
1514440800.9813023,737,29.546371459960938
1514440877.0360231,738,29.546350479125977
1514440953.0377886,739,29.54628562927246
1514441029.2984803,740,29.546321868896484
1514441105.5465856,741,29.546348571777344
1514441181.6379693,742,29.546327590942383
1514441257.6318324,743,29.546287536621094
1514441333.7044427,744,29.54630470275879
1514441409.7832391,745,29.5462703704834
1514441485.8288336,746,29.5462646484375
1514441561.8007245,747,29.5462703704834
1514441638.0486026,748,29.546253204345703
1514441714.0747716,749,29.54631996154785
1514441790.1351626,750,29.54638671875
1514441866.1462064,751,29.546390533447266
1514441942.1640465,752,29.54637336730957
1514442018.2690365,753,29.546411514282227
1514442094.4101715,754,29.54637336730957
1514442170.6568334,755,29.54637908935547
1514442246.7609684,756,29.54640769958496
1514442322.8851333,757,29.546411514282227
1514442398.9804673,758,29.54639434814453
1514442475.204759,759,29.546371459960938
1514442551.3031354,760,29.546356201171875
1514442627.500017,761,29.546409606933594
1514442703.4856534,762,29.546424865722656
1514442779.601156,763,29.546459197998047
1514442855.660106,764,29.546497344970703
1514442931.8128123,765,29.546541213989258
1514443007.929703,766,29.546537399291992
1514443084.124183,767,29.546546936035156
1514443160.1794972,768,29.546606063842773
1514443236.2826467,769,29.546640396118164
1514443312.3359778,770,29.546951293945312
1514443388.4332519,771,29.546674728393555
1514443464.4729586,772,29.54691505432129
1514443540.4496481,773,29.546714782714844
1514443616.480534,774,29.546667098999023
1514443692.4855256,775,29.546953201293945
1514443768.4654183,776,29.546934127807617
1514443844.4847524,777,29.547016143798828
1514443920.7010262,778,29.547029495239258
1514443996.7735107,779,29.547025680541992
1514444072.760831,780,29.546993255615234
1514444148.9553142,781,29.546993255615234
1514444224.9490943,782,29.54701805114746
1514444301.0985727,783,29.547012329101562
1514444377.1278186,784,29.54701042175293
1514444453.4077291,785,29.547025680541992
1514444529.4255812,786,29.54708480834961
1514444605.4761355,787,29.547109603881836
1514444681.5299075,788,29.54717254638672
1514444757.7034037,789,29.547138214111328
1514444833.8875942,790,29.547164916992188
1514444909.9648497,791,29.54712677001953
1514444986.0318294,792,29.547109603881836
1514445061.9803762,793,29.547109603881836
1514445138.051955,794,29.547101974487305
1514445214.1399648,795,29.547168731689453
1514445290.152393,796,29.547122955322266
1514445366.2563982,797,29.54709815979004
1514445442.3203213,798,29.547090530395508
1514445518.323575,799,29.547056198120117
1514445594.458545,800,29.547128677368164
1514445670.5178478,801,29.54707908630371
1514445746.5889466,802,29.547151565551758
1514445822.6030157,803,29.547157287597656
1514445898.6507933,804,29.547107696533203
1514445974.9081233,805,29.547128677368164
1514446050.960003,806,29.5471134185791
1514446126.942497,807,29.547163009643555
1514446202.8854365,808,29.54713249206543
1514446279.0644133,809,29.547170639038086
1514446355.0852358,810,29.547199249267578
1514446431.246866,811,29.54720115661621
1514446507.4964113,812,29.547025680541992
1514446583.663914,813,29.547014236450195
1514446659.723771,814,29.547208786010742
1514446735.841055,815,29.54696273803711
1514446811.9489336,816,29.547151565551758
1514446888.0102587,817,29.547134399414062
1514446964.1990428,818,29.547142028808594
1514447040.4244928,819,29.547117233276367
1514447116.5622475,820,29.547046661376953
1514447192.676699,821,29.54707145690918
1514447268.9059203,822,29.546995162963867
1514447344.8905318,823,29.547035217285156
1514447421.1025777,824,29.547019958496094
1514447497.1684952,825,29.546791076660156
1514447573.274337,826,29.547086715698242
1514447649.229044,827,29.54709243774414
1514447725.2564592,828,29.547134399414062
1514447801.333577,829,29.547134399414062
1514447877.629714,830,29.54703712463379
1514447953.6820395,831,29.547042846679688
1514448029.8514962,832,29.547019958496094
1514448105.9529705,833,29.547080993652344
1514448182.0566347,834,29.54706382751465
1514448258.2290924,835,29.547033309936523
1514448334.3911831,836,29.547029495239258
1514448410.5429666,837,29.547040939331055
1514448486.75574,838,29.546995162963867
1514448562.9646657,839,29.546993255615234
1514448639.1125915,840,29.54698371887207
1514448715.300436,841,29.546974182128906
1514448791.4602141,842,29.54703140258789
1514448867.5789514,843,29.5470027923584
1514448943.487613,844,29.547054290771484
1514449019.5993536,845,29.547035217285156
1514449095.6500413,846,29.54703140258789
1514449171.8824596,847,29.54705238342285
1514449248.0242026,848,29.547094345092773
1514449324.046874,849,29.547399520874023
1514449400.2152414,850,29.54750633239746
1514449476.2329402,851,29.547462463378906
1514449552.327941,852,29.547489166259766
1514449628.3943312,853,29.54741859436035
1514449704.5542147,854,29.547449111938477
1514449780.6357076,855,29.5474853515625
1514449856.8024297,856,29.547456741333008
1514449932.717335,857,29.5474853515625
1514450008.7944057,858,29.547576904296875
1514450084.9087462,859,29.547592163085938
1514450161.0623417,860,29.54762077331543
1514450237.1902502,861,29.547624588012695
1514450313.287463,862,29.547595977783203
1514450389.5466552,863,29.54763412475586
1514450465.730467,864,29.54758644104004
1514450541.8910825,865,29.547651290893555
1514450617.994637,866,29.547683715820312
1514450694.178159,867,29.54768180847168
1514450770.2188585,868,29.547725677490234
1514450846.311324,869,29.547657012939453
1514450922.3990583,870,29.547683715820312
1514450998.627536,871,29.54767417907715
1514451074.6475122,872,29.547672271728516
1514451150.8339748,873,29.547710418701172
1514451226.9688153,874,29.54772186279297
1514451303.1998515,875,29.547725677490234
1514451379.4640555,876,29.547719955444336
1514451455.410957,877,29.546968460083008
1514451531.4414268,878,29.54693031311035
1514451607.5495956,879,29.546916961669922
1514451683.7117763,880,29.54685401916504
1514451759.8054693,881,29.546899795532227
1514451835.9565883,882,29.54692840576172
1514451912.0693583,883,29.54683494567871
1514451988.2286289,884,29.54690170288086
1514452064.3202386,885,29.54684066772461
1514452140.3522825,886,29.546846389770508
1514452216.5019915,887,29.546890258789062
1514452292.6198945,888,29.546918869018555
1514452368.858731,889,29.54697036743164
1514452445.0141876,890,29.546899795532227
1514452521.2200468,891,29.54692840576172
1514452597.4180791,892,29.546966552734375
1514452673.624363,893,29.547008514404297
1514452749.714854,894,29.54700469970703
1514452825.8665397,895,29.547025680541992
1514452901.9163425,896,29.54702377319336
1514452978.0832272,897,29.547046661376953
1514453054.2863746,898,29.547109603881836
1514453130.4410694,899,29.547061920166016
1514453206.7823446,900,29.547042846679688
1514453282.8626504,901,29.54706382751465
1514453359.1407967,902,29.547033309936523
1514453435.1994076,903,29.54695701599121
1514453511.3618681,904,29.547000885009766
1514453587.5283856,905,29.546985626220703
1514453663.575862,906,29.54698371887207
1514453739.5833201,907,29.546899795532227
1514453815.623437,908,29.546916961669922
1514453891.6028376,909,29.546871185302734
1514453967.8719761,910,29.546850204467773
1514454043.8918514,911,29.54688262939453
1514454119.997696,912,29.546873092651367
1514454196.1801744,913,29.546875
1514454272.2648392,914,29.546865463256836
1514454348.483043,915,29.546859741210938
1514454424.6073923,916,29.54681968688965
1514454500.7094958,917,29.546716690063477
1514454576.9719067,918,29.54669952392578
1514454653.1982865,919,29.546728134155273
1514454729.3647437,920,29.546688079833984
1514454805.469431,921,29.54669952392578
1514454881.4451509,922,29.54676055908203
1514454957.7072976,923,29.546743392944336
1514455033.792913,924,29.5467529296875
1514455109.9111156,925,29.546764373779297
1514455186.1871588,926,29.54671287536621
1514455262.1675825,927,29.546728134155273
1514455338.2960904,928,29.546781539916992
1514455414.5304346,929,29.546730041503906
1514455490.745132,930,29.546720504760742
1514455566.839074,931,29.5466365814209
1514455643.17587,932,29.54668426513672
1514455719.385856,933,29.546640396118164
1514455795.583079,934,29.546640396118164
1514455871.7124674,935,29.546611785888672
1514455947.986121,936,29.546558380126953
1514456024.071365,937,29.546611785888672
1514456100.18633,938,29.54651641845703
1514456176.3765492,939,29.546527862548828
1514456252.491624,940,29.546470642089844
1514456328.6992452,941,29.54644775390625
1514456404.8090494,942,29.546445846557617
1514456480.9680414,943,29.546449661254883
1514456557.0797863,944,29.546432495117188
1514456633.2526345,945,29.546463012695312
1514456709.341544,946,29.546527862548828
1514456785.4045076,947,29.546403884887695
1514456861.5357375,948,29.546417236328125
1514456937.706386,949,29.546464920043945
1514457013.9068403,950,29.546436309814453
1514457089.9758472,951,29.546422958374023
1514457166.0062063,952,29.54665756225586
1514457242.080282,953,29.546703338623047
1514457318.1776123,954,29.546640396118164
1514457394.2979038,955,29.54659652709961
1514457470.567196,956,29.546592712402344
1514457546.6153405,957,29.546518325805664
1514457622.7998412,958,29.54650115966797
1514457698.9266584,959,29.54645347595215
1514457775.1083088,960,29.546504974365234
1514457851.115637,961,29.5465087890625
1514457927.2359414,962,29.546489715576172
1514458003.225302,963,29.5465145111084
1514458079.4705017,964,29.546489715576172
1514458155.7573166,965,29.546518325805664
1514458231.984265,966,29.5465145111084
1514458308.1053631,967,29.546497344970703
1514458384.2141607,968,29.54652214050293
1514458460.3761358,969,29.54654884338379
1514458536.5094218,970,29.546659469604492
1514458612.5720108,971,29.546613693237305
1514458688.7166228,972,29.546581268310547
1514458764.8723273,973,29.546613693237305
1514458841.0146759,974,29.54660415649414
1514458917.135123,975,29.54656219482422
1514458993.2133257,976,29.546520233154297
1514459069.473396,977,29.54652976989746
1514459145.5302062,978,29.546566009521484
1514459221.7493145,979,29.546537399291992
1514459297.9176152,980,29.546510696411133
1514459374.0092597,981,29.546510696411133
1514459450.115707,982,29.546489715576172
1514459526.211739,983,29.54650115966797
1514459602.316274,984,29.546520233154297
1514459678.4058301,985,29.54654312133789
1514459754.5218868,986,29.546499252319336
1514459830.5923018,987,29.546470642089844
1514459906.6779833,988,29.546470642089844
1514459982.76435,989,29.54625129699707
1514460058.9039311,990,29.546236038208008
1514460135.0965064,991,29.54630470275879
1514460211.3490412,992,29.546228408813477
1514460287.5537918,993,29.546424865722656
1514460363.8337204,994,29.546401977539062
1514460440.0150497,995,29.546384811401367
1514460516.1556485,996,29.546161651611328
1514460592.2908428,997,29.546377182006836
1514460668.4012296,998,29.546161651611328
1514460744.554814,999,29.54639434814453
