Wall time,Step,Value
1514384731.1120238,0,63.88437271118164
1514384808.3673856,1,21.496620178222656
1514384885.5651593,2,18.138124465942383
1514384963.133903,3,17.472396850585938
1514385040.5132587,4,16.656410217285156
1514385117.6057522,5,15.783167839050293
1514385193.8822522,6,14.969440460205078
1514385270.3264577,7,14.303362846374512
1514385347.2330854,8,13.78540325164795
1514385425.3431911,9,13.351649284362793
1514385504.676702,10,12.96796703338623
1514385580.709304,11,12.640081405639648
1514385657.3187249,12,12.338231086730957
1514385733.273248,13,12.059147834777832
1514385810.70806,14,11.80186939239502
1514385887.4533482,15,11.562255859375
1514385963.5504324,16,11.342328071594238
1514386039.510809,17,11.136073112487793
1514386115.7177274,18,10.939568519592285
1514386191.7231047,19,10.75008773803711
1514386267.568917,20,10.565030097961426
1514386343.4217358,21,10.382851600646973
1514386419.1982622,22,10.211986541748047
1514386494.9168742,23,10.054544448852539
1514386570.8671556,24,9.905227661132812
1514386646.7059934,25,9.761977195739746
1514386722.44875,26,9.624284744262695
1514386798.2218952,27,9.496427536010742
1514386873.902487,28,9.373638153076172
1514386949.6523526,29,9.257304191589355
1514387025.5600195,30,9.145478248596191
1514387102.8307133,31,9.038414001464844
1514387178.905828,32,8.935624122619629
1514387254.7648807,33,8.84247875213623
1514387330.7213624,34,8.756522178649902
1514387406.5493321,35,8.673603057861328
1514387482.4359426,36,8.596506118774414
1514387558.5284398,37,8.524148941040039
1514387638.3165393,38,8.456095695495605
1514387714.3668845,39,8.391925811767578
1514387790.2385352,40,8.331281661987305
1514387866.1499681,41,8.274290084838867
1514387942.6819055,42,8.217857360839844
1514388018.4188173,43,8.163138389587402
1514388094.2132108,44,8.112730026245117
1514388170.0799181,45,8.064825057983398
1514388245.892858,46,8.01898193359375
1514388321.6608856,47,7.9752349853515625
1514388397.411013,48,7.933326244354248
1514388473.2244718,49,7.890971660614014
1514388548.935727,50,7.851503849029541
1514388624.684792,51,7.813599109649658
1514388700.4495003,52,7.777163028717041
1514388776.1235921,53,7.742176532745361
1514388851.942936,54,7.708587169647217
1514388927.787425,55,7.674679756164551
1514389003.6981995,56,7.642323970794678
1514389079.5737529,57,7.611385345458984
1514389155.305161,58,7.58157205581665
1514389231.1380987,59,7.552674293518066
1514389307.0428176,60,7.524767875671387
1514389382.810141,61,7.496490478515625
1514389458.5948954,62,7.468855857849121
1514389534.4179463,63,7.4426093101501465
1514389610.2187657,64,7.417320728302002
1514389686.0336,65,7.392818927764893
1514389761.9093158,66,7.369062423706055
1514389837.736355,67,7.346010208129883
1514389913.5680099,68,7.323549747467041
1514389989.4219317,69,7.3018317222595215
1514390065.278788,70,7.2796220779418945
1514390141.1988263,71,7.258101463317871
1514390217.0397613,72,7.237605571746826
1514390292.8076026,73,7.217688083648682
1514390368.6543808,74,7.198325157165527
1514390444.464791,75,7.179497718811035
1514390520.2297115,76,7.161137580871582
1514390596.0621204,77,7.143271446228027
1514390671.7650812,78,7.125905990600586
1514390747.765685,79,7.108802795410156
1514390823.7253797,80,7.092153549194336
1514390899.541376,81,7.075859069824219
1514390975.3434806,82,7.060080528259277
1514391051.243284,83,7.0446882247924805
1514391128.3446064,84,7.029644966125488
1514391207.2369306,85,7.015048980712891
1514391285.586973,86,7.000856399536133
1514391362.5412931,87,6.987140655517578
1514391438.5067048,88,6.971327781677246
1514391514.5263386,89,6.956335544586182
1514391590.567718,90,6.942680358886719
1514391666.558362,91,6.929471492767334
1514391742.4623709,92,6.916686058044434
1514391818.2070787,93,6.904125690460205
1514391894.1773689,94,6.891884803771973
1514391969.925817,95,6.880003929138184
1514392045.9024138,96,6.8684186935424805
1514392121.7132452,97,6.857113361358643
1514392197.7863972,98,6.846048355102539
1514392273.7560384,99,6.835215091705322
1514392349.6419032,100,6.824679851531982
1514392425.5331776,101,6.814416885375977
1514392501.644185,102,6.80446720123291
1514392577.6279156,103,6.793778896331787
1514392653.606847,104,6.783580780029297
1514392729.7034657,105,6.773856163024902
1514392805.6720645,106,6.764455318450928
1514392881.5139623,107,6.755260467529297
1514392957.4291017,108,6.746258735656738
1514393033.4516246,109,6.7374773025512695
1514393109.3086603,110,6.72883415222168
1514393185.1852815,111,6.720396041870117
1514393262.0430403,112,6.712173938751221
1514393338.1252224,113,6.704110145568848
1514393414.1242683,114,6.696240425109863
1514393490.169408,115,6.687414169311523
1514393565.9785678,116,6.6795477867126465
1514393641.8672597,117,6.67195463180542
1514393717.8924625,118,6.6644721031188965
1514393793.8433113,119,6.6571784019470215
1514393869.6859975,120,6.650018692016602
1514393945.481667,121,6.643066883087158
1514394021.3435683,122,6.63621711730957
1514394097.1737974,123,6.629423141479492
1514394173.1577024,124,6.622781276702881
1514394248.979543,125,6.616272926330566
1514394325.0708036,126,6.609854698181152
1514394400.895806,127,6.603535175323486
1514394477.033839,128,6.597365856170654
1514394553.1144373,129,6.59129524230957
1514394629.018992,130,6.58532190322876
1514394704.9930387,131,6.579494476318359
1514394781.0582142,132,6.5737104415893555
1514394857.0859458,133,6.568020343780518
1514394933.0326648,134,6.562463760375977
1514395009.01198,135,6.55698823928833
1514395084.9388828,136,6.551596164703369
1514395160.8868744,137,6.54629373550415
1514395236.8335712,138,6.541018962860107
1514395312.901545,139,6.535854339599609
1514395388.871735,140,6.530778884887695
1514395464.723241,141,6.525774002075195
1514395540.5987537,142,6.520847320556641
1514395616.655938,143,6.516021728515625
1514395692.6352484,144,6.511309623718262
1514395768.5790823,145,6.506632328033447
1514395844.4641562,146,6.50201416015625
1514395920.4539964,147,6.497462272644043
1514395996.391435,148,6.492964267730713
1514396072.5026875,149,6.488534927368164
1514396148.3742094,150,6.484233856201172
1514396224.3583512,151,6.480003356933594
1514396300.326109,152,6.475820064544678
1514396376.3014095,153,6.4717020988464355
1514396452.2794106,154,6.467061996459961
1514396528.2403612,155,6.46299409866333
1514396604.1495285,156,6.459010124206543
1514396680.1169674,157,6.455076694488525
1514396756.2680874,158,6.4511566162109375
1514396832.1533315,159,6.447355270385742
1514396908.0896106,160,6.443557262420654
1514396984.1101522,161,6.43979024887085
1514397060.0961075,162,6.436108589172363
1514397137.2704947,163,6.432507514953613
1514397213.3328059,164,6.42892599105835
1514397289.3074908,165,6.425393104553223
1514397365.256438,166,6.421917915344238
1514397441.2742505,167,6.418530464172363
1514397517.2093966,168,6.415128231048584
1514397593.410885,169,6.41182804107666
1514397669.3400106,170,6.408598899841309
1514397745.2541313,171,6.405368328094482
1514397821.149389,172,6.402159214019775
1514397897.0943274,173,6.399003028869629
1514397973.0948758,174,6.395907402038574
1514398049.1284585,175,6.392843723297119
1514398125.058098,176,6.389835357666016
1514398201.0237336,177,6.386837959289551
1514398276.974287,178,6.383880138397217
1514398353.0035162,179,6.380988597869873
1514398428.9125707,180,6.378127098083496
1514398504.9914591,181,6.375322341918945
1514398582.078854,182,6.37253475189209
1514398659.6828554,183,6.369720935821533
1514398737.4803994,184,6.367013931274414
1514398816.0085871,185,6.364302635192871
1514398892.7274375,186,6.361676216125488
1514398968.7016227,187,6.359050750732422
1514399044.6537135,188,6.356456279754639
1514399120.6750112,189,6.3538899421691895
1514399196.5640829,190,6.351344108581543
1514399272.6282036,191,6.348865985870361
1514399348.548471,192,6.346357822418213
1514399424.7526069,193,6.34391975402832
1514399500.6463573,194,6.341501235961914
1514399576.6297703,195,6.3391432762146
1514399652.6825657,196,6.33677864074707
1514399728.7166271,197,6.334442138671875
1514399804.7683177,198,6.332150459289551
1514399880.8953395,199,6.329862117767334
1514399956.9130628,200,6.327629566192627
1514400032.8985834,201,6.32541036605835
1514400108.8944976,202,6.3232197761535645
1514400184.907326,203,6.321083068847656
1514400261.020575,204,6.318960189819336
1514400336.9668272,205,6.316824436187744
1514400413.0097885,206,6.314742565155029
1514400489.0766842,207,6.3126912117004395
1514400565.1529377,208,6.310658931732178
1514400641.132799,209,6.30866813659668
1514400717.1516263,210,6.306633949279785
1514400793.134457,211,6.304642200469971
1514400869.1220107,212,6.302703857421875
1514400945.2567103,213,6.300760746002197
1514401021.287897,214,6.298861503601074
1514401097.293581,215,6.296963214874268
1514401173.245631,216,6.295072555541992
1514401249.2467835,217,6.293201923370361
1514401325.2297468,218,6.291380405426025
1514401401.3044014,219,6.289574146270752
1514401477.4128494,220,6.287746906280518
1514401553.4148128,221,6.285967826843262
1514401629.4434183,222,6.284183979034424
1514401705.4071133,223,6.282442569732666
1514401781.3944776,224,6.280727863311768
1514401858.0673635,225,6.279018878936768
1514401936.3473868,226,6.277328968048096
1514402013.075118,227,6.275663375854492
1514402089.1736114,228,6.274004936218262
1514402165.281592,229,6.272397041320801
1514402241.8342822,230,6.270755767822266
1514402319.8666043,231,6.269153594970703
1514402395.9026074,232,6.267594337463379
1514402471.9040854,233,6.266017913818359
1514402547.8066945,234,6.264434337615967
1514402623.7800148,235,6.262918949127197
1514402699.7361991,236,6.261408805847168
1514402775.6629376,237,6.259921073913574
1514402851.5860739,238,6.25841760635376
1514402927.460233,239,6.256961822509766
1514403003.367806,240,6.255514621734619
1514403079.1803122,241,6.254075050354004
1514403154.9994986,242,6.252630710601807
1514403230.946909,243,6.251208782196045
1514403306.8096964,244,6.249794960021973
1514403382.7421336,245,6.248392581939697
1514403458.6206956,246,6.247015953063965
1514403534.56666,247,6.245633125305176
1514403610.5379212,248,6.244284152984619
1514403686.478996,249,6.242922306060791
1514403762.3628733,250,6.24160623550415
1514403838.423327,251,6.240299701690674
1514403914.3139799,252,6.239010334014893
1514403990.132268,253,6.237738132476807
1514404065.8778386,254,6.236464977264404
1514404141.706263,255,6.235221862792969
1514404217.5144527,256,6.233951091766357
1514404293.5042746,257,6.2327070236206055
1514404369.348242,258,6.23147439956665
1514404445.2412574,259,6.230236053466797
1514404521.1252985,260,6.22902250289917
1514404597.089749,261,6.227835178375244
1514404673.0155945,262,6.226667404174805
1514404749.0241046,263,6.225478649139404
1514404824.9123201,264,6.224310874938965
1514404900.8969631,265,6.22316837310791
1514404976.7739055,266,6.222021579742432
1514405052.769464,267,6.220893383026123
1514405128.5680134,268,6.219757080078125
1514405204.5429437,269,6.218674659729004
1514405280.422815,270,6.217563152313232
1514405356.3459654,271,6.216466426849365
1514405432.293427,272,6.215384483337402
1514405508.2130525,273,6.2143144607543945
1514405584.2283125,274,6.213284492492676
1514405660.135936,275,6.212245941162109
1514405736.0119762,276,6.211238384246826
1514405811.8585217,277,6.210216999053955
1514405887.8249922,278,6.209198951721191
1514405964.6258013,279,6.208178520202637
1514406042.7449691,280,6.207184314727783
1514406119.8208818,281,6.206193923950195
1514406195.9359453,282,6.20522403717041
1514406271.9336078,283,6.204238414764404
1514406347.9857988,284,6.2032694816589355
1514406424.0111554,285,6.202311038970947
1514406500.2578561,286,6.201352119445801
1514406576.3198316,287,6.2004241943359375
1514406652.538208,288,6.1994733810424805
1514406728.5673347,289,6.1985554695129395
1514406804.5745373,290,6.197627067565918
1514406880.6312823,291,6.196755409240723
1514406956.591215,292,6.195859432220459
1514407032.6097457,293,6.19496488571167
1514407108.7467523,294,6.194097518920898
1514407184.7748888,295,6.193179607391357
1514407260.7655463,296,6.192294120788574
1514407336.8761702,297,6.19143533706665
1514407412.9467647,298,6.19057035446167
1514407489.0829036,299,6.189711093902588
1514407565.0909872,300,6.1888427734375
1514407641.1978304,301,6.188018798828125
1514407717.251724,302,6.187200546264648
1514407793.1946025,303,6.186379909515381
1514407869.1608255,304,6.185572147369385
1514407945.2210615,305,6.184767723083496
1514408021.3077555,306,6.183991432189941
1514408097.4031544,307,6.183213233947754
1514408173.4177213,308,6.182431221008301
1514408249.4752479,309,6.181649684906006
1514408325.4463916,310,6.180870056152344
1514408401.4023438,311,6.18010139465332
1514408477.4526427,312,6.179328441619873
1514408553.4460733,313,6.178581714630127
1514408629.5888345,314,6.177839756011963
1514408705.513207,315,6.177074909210205
1514408781.5356271,316,6.176358699798584
1514408857.5668623,317,6.1756134033203125
1514408933.5431342,318,6.174880027770996
1514409009.6061985,319,6.174148082733154
1514409085.7737045,320,6.173428058624268
1514409161.7182293,321,6.172719478607178
1514409237.7112007,322,6.1720170974731445
1514409313.8628254,323,6.1713385581970215
1514409389.9509945,324,6.170646667480469
1514409465.957485,325,6.16995096206665
1514409541.9502614,326,6.169276714324951
1514409618.0236104,327,6.168606281280518
1514409693.9284163,328,6.167969703674316
1514409770.159805,329,6.167309284210205
1514409846.2787893,330,6.16666841506958
1514409922.36635,331,6.166042804718018
1514409998.356498,332,6.165380954742432
1514410074.4744728,333,6.164755344390869
1514410150.4755218,334,6.164127349853516
1514410226.5936654,335,6.163499355316162
1514410302.5585525,336,6.162853240966797
1514410378.601619,337,6.1622138023376465
1514410454.530881,338,6.161589622497559
1514410530.5276744,339,6.160974502563477
1514410606.6575224,340,6.160380840301514
1514410682.7338037,341,6.159788608551025
1514410758.7800846,342,6.1592116355896
1514410834.8158135,343,6.1586198806762695
1514410910.8765256,344,6.1580610275268555
1514410986.8020332,345,6.157479763031006
1514411062.7913952,346,6.156891822814941
1514411138.8320634,347,6.156357765197754
1514411214.7280793,348,6.155792713165283
1514411290.6627877,349,6.155233383178711
1514411366.641301,350,6.154679775238037
1514411442.7283497,351,6.154119968414307
1514411518.7511778,352,6.153565406799316
1514411594.7516599,353,6.153017044067383
1514411670.8469572,354,6.152464389801025
1514411746.8185172,355,6.151939868927002
1514411822.8566966,356,6.151413917541504
1514411898.8971224,357,6.1508917808532715
1514411974.7713146,358,6.150365352630615
1514412050.8693573,359,6.149840354919434
1514412126.952263,360,6.14932918548584
1514412203.1003933,361,6.148808002471924
1514412279.2124164,362,6.148315906524658
1514412355.3164964,363,6.147817611694336
1514412431.2851858,364,6.147303104400635
1514412507.24717,365,6.146806716918945
1514412583.2107801,366,6.146295070648193
1514412659.2871256,367,6.145814895629883
1514412735.3353636,368,6.145320892333984
1514412811.44058,369,6.144848823547363
1514412887.6017432,370,6.144372463226318
1514412963.571499,371,6.143901824951172
1514413039.5574887,372,6.143441200256348
1514413115.6271648,373,6.1429948806762695
1514413191.6250517,374,6.142519474029541
1514413267.79299,375,6.142047882080078
1514413343.8559139,376,6.141602039337158
1514413420.018696,377,6.141160488128662
1514413495.94893,378,6.140715599060059
1514413571.9920812,379,6.1402668952941895
1514413648.1106234,380,6.139834403991699
1514413724.2104993,381,6.139405250549316
1514413800.346423,382,6.138974189758301
1514413876.4813445,383,6.138551712036133
1514413952.504939,384,6.138117790222168
1514414028.573467,385,6.137694358825684
1514414104.6870856,386,6.1372833251953125
1514414180.8295453,387,6.136849880218506
1514414256.7324336,388,6.136444091796875
1514414332.7759774,389,6.136039733886719
1514414408.8705657,390,6.135624408721924
1514414485.0023515,391,6.135250091552734
1514414561.0134602,392,6.134853363037109
1514414637.0303316,393,6.134469032287598
1514414713.0432446,394,6.134072303771973
1514414789.1352506,395,6.133686542510986
1514414865.1692896,396,6.133286952972412
1514414941.1474206,397,6.132892608642578
1514415017.1031837,398,6.132530212402344
1514415092.9412904,399,6.132150173187256
1514415168.9659495,400,6.131767272949219
1514415244.9588065,401,6.13139009475708
1514415320.9799805,402,6.131012916564941
1514415397.0580015,403,6.130622386932373
1514415473.1300557,404,6.130257606506348
1514415549.0317836,405,6.129855632781982
1514415625.0365534,406,6.129478454589844
1514415701.1609335,407,6.1291069984436035
1514415777.2149754,408,6.128756046295166
1514415853.278607,409,6.1283979415893555
1514415929.2949238,410,6.128056049346924
1514416005.4255664,411,6.127718448638916
1514416081.5746202,412,6.127354621887207
1514416157.5593717,413,6.127019882202148
1514416233.5817044,414,6.126682281494141
1514416309.5291455,415,6.126346111297607
1514416385.4953024,416,6.126012802124023
1514416461.5846908,417,6.125669002532959
1514416537.6301193,418,6.125341892242432
1514416613.8851888,419,6.125018119812012
1514416689.9495397,420,6.124698638916016
1514416765.996335,421,6.1243791580200195
1514416842.0084686,422,6.124044895172119
1514416918.015875,423,6.123719215393066
1514416994.077569,424,6.123412609100342
1514417070.1294286,425,6.123101711273193
1514417146.2342308,426,6.122792720794678
1514417222.360124,427,6.122483253479004
1514417298.4815316,428,6.122173309326172
1514417374.4732587,429,6.121842861175537
1514417450.5330207,430,6.121532917022705
1514417526.639935,431,6.121222972869873
1514417602.857535,432,6.120927333831787
1514417678.9748647,433,6.120624542236328
1514417755.0234368,434,6.120319843292236
1514417831.006448,435,6.120051383972168
1514417906.9565244,436,6.119736671447754
1514417982.9580994,437,6.119437217712402
1514418059.0771642,438,6.119156360626221
1514418135.0752292,439,6.118869304656982
1514418211.1997397,440,6.1185832023620605
1514418287.1798596,441,6.118310451507568
1514418363.3010573,442,6.118027210235596
1514418439.3199816,443,6.1177592277526855
1514418515.35835,444,6.117487907409668
1514418591.3031888,445,6.117219924926758
1514418667.2027175,446,6.116945266723633
1514418743.2883883,447,6.116666316986084
1514418819.4059103,448,6.1163787841796875
1514418895.552368,449,6.116104602813721
1514418971.5557842,450,6.115862846374512
1514419047.6433132,451,6.11558723449707
1514419123.5505846,452,6.115310192108154
1514419199.5335708,453,6.115054130554199
1514419275.5889714,454,6.114797115325928
1514419351.5908077,455,6.114537239074707
1514419427.6873999,456,6.114290237426758
1514419503.7421906,457,6.1140336990356445
1514419579.735358,458,6.113811492919922
1514419655.6435804,459,6.113561630249023
1514419731.7555852,460,6.113317489624023
1514419807.739462,461,6.113059997558594
1514419883.7168005,462,6.112813949584961
1514419959.631707,463,6.112587928771973
1514420035.5634508,464,6.1123199462890625
1514420111.462137,465,6.1120710372924805
1514420187.5096695,466,6.111844062805176
1514420263.5644913,467,6.111637115478516
1514420339.6158137,468,6.111397743225098
1514420415.702217,469,6.111166000366211
1514420491.6953318,470,6.11094331741333
1514420567.7301037,471,6.110715389251709
1514420643.6878588,472,6.110505104064941
1514420719.7088394,473,6.110283374786377
1514420795.6124187,474,6.11007022857666
1514420871.7005587,475,6.109844207763672
1514420947.8108385,476,6.109623908996582
1514421023.9575615,477,6.109409809112549
1514421100.0834763,478,6.109184741973877
1514421176.0470104,479,6.108984470367432
1514421252.1194656,480,6.108780860900879
1514421328.1965516,481,6.108567237854004
1514421404.1653056,482,6.1083598136901855
1514421480.207279,483,6.108145236968994
1514421556.2006385,484,6.107938289642334
1514421632.191228,485,6.1077446937561035
1514421708.3048308,486,6.107545375823975
1514421784.3767462,487,6.107354640960693
1514421860.5531182,488,6.107156753540039
1514421936.6511939,489,6.106973648071289
1514422012.6140141,490,6.106772422790527
1514422088.5212085,491,6.106576919555664
1514422164.5848765,492,6.106385231018066
1514422240.5796752,493,6.106208324432373
1514422316.587068,494,6.106013298034668
1514422392.4512255,495,6.105813503265381
1514422468.5164573,496,6.105618476867676
1514422544.5563939,497,6.105423927307129
1514422620.6082227,498,6.1052446365356445
1514422696.6598845,499,6.105053901672363
1514422772.6785743,500,6.104852676391602
1514422848.6170447,501,6.104687690734863
1514422924.657548,502,6.1045002937316895
1514423000.7235374,503,6.10433292388916
1514423076.794551,504,6.104140758514404
1514423152.9015393,505,6.103970050811768
1514423228.8685355,506,6.103795051574707
1514423304.8576317,507,6.103625297546387
1514423380.9502997,508,6.103456020355225
1514423457.0117996,509,6.103271961212158
1514423533.0801468,510,6.103096008300781
1514423609.1620078,511,6.102919101715088
1514423685.361026,512,6.102752208709717
1514423761.3880148,513,6.102589130401611
1514423837.307552,514,6.102430820465088
1514423913.3822978,515,6.102264881134033
1514423989.4400873,516,6.102109909057617
1514424065.5081134,517,6.1019415855407715
1514424141.6274116,518,6.101789951324463
1514424217.635836,519,6.101624488830566
1514424293.7068539,520,6.101450443267822
1514424369.689724,521,6.101294994354248
1514424445.8886383,522,6.101139068603516
1514424521.924881,523,6.100978851318359
1514424598.0528104,524,6.100826263427734
1514424674.096916,525,6.1006646156311035
1514424750.1666536,526,6.100513458251953
1514424826.2886007,527,6.1003618240356445
1514424902.4179099,528,6.100200176239014
1514424978.4352446,529,6.100053310394287
1514425054.4127073,530,6.0999040603637695
1514425130.542627,531,6.099752426147461
1514425206.6256285,532,6.099597454071045
1514425282.8928626,533,6.099445343017578
1514425358.980741,534,6.099309921264648
1514425435.1899588,535,6.099159240722656
1514425511.2435715,536,6.099008083343506
1514425587.412951,537,6.098862648010254
1514425663.5588899,538,6.098724365234375
1514425739.5705094,539,6.098568916320801
1514425815.7035356,540,6.098419189453125
1514425891.854085,541,6.098288059234619
1514425968.0181928,542,6.098124027252197
1514426043.9823449,543,6.098004341125488
1514426120.1330488,544,6.097867488861084
1514426196.1666293,545,6.097735404968262
1514426272.2527044,546,6.097606658935547
1514426348.29414,547,6.097476482391357
1514426424.6017773,548,6.097330093383789
1514426500.7233725,549,6.097202777862549
1514426576.7514193,550,6.097056865692139
1514426652.7815719,551,6.096915245056152
1514426728.9850209,552,6.096797466278076
1514426804.9604921,553,6.096668243408203
1514426881.018914,554,6.096551895141602
1514426957.198846,555,6.096432209014893
1514427033.2353718,556,6.096311092376709
1514427109.3538902,557,6.096184730529785
1514427185.4758153,558,6.096056938171387
1514427261.7038603,559,6.095927715301514
1514427337.7292042,560,6.095819473266602
1514427413.9506285,561,6.095678806304932
1514427489.9683437,562,6.0955586433410645
1514427565.8861744,563,6.095437049865723
1514427641.8691008,564,6.095312118530273
1514427717.9141643,565,6.095188617706299
1514427794.037371,566,6.095078945159912
1514427870.0873668,567,6.094962120056152
1514427946.2708595,568,6.094849109649658
1514428022.4577553,569,6.094735145568848
1514428098.5609066,570,6.094620704650879
1514428174.5781636,571,6.094524383544922
1514428250.8100412,572,6.094417095184326
1514428326.8664875,573,6.094302654266357
1514428403.0309339,574,6.09419059753418
1514428479.0087776,575,6.094086170196533
1514428555.0575373,576,6.093989372253418
1514428631.191733,577,6.093877792358398
1514428707.3102012,578,6.093769073486328
1514428783.4093728,579,6.093661785125732
1514428859.3780167,580,6.093562126159668
1514428935.425021,581,6.093451976776123
1514429011.500651,582,6.093352794647217
1514429087.6537004,583,6.0932416915893555
1514429163.6982813,584,6.093137741088867
1514429239.716568,585,6.093043804168701
1514429315.6964016,586,6.092945098876953
1514429391.7487898,587,6.092844486236572
1514429467.809041,588,6.092748165130615
1514429543.9674988,589,6.092653751373291
1514429620.182946,590,6.09254789352417
1514429696.345113,591,6.092433929443359
1514429772.37824,592,6.092341423034668
1514429848.3421426,593,6.092251300811768
1514429924.3293254,594,6.092143535614014
1514430000.5159194,595,6.09203577041626
1514430076.6966863,596,6.09193754196167
1514430152.8202431,597,6.091835975646973
1514430228.9471345,598,6.0917487144470215
1514430305.0146613,599,6.091647624969482
1514430381.1649644,600,6.091567039489746
1514430457.2190053,601,6.091465473175049
1514430533.3505344,602,6.091371536254883
1514430609.4287422,603,6.091279983520508
1514430685.4560223,604,6.09119176864624
1514430761.5849626,605,6.091117858886719
1514430837.7020895,606,6.091022968292236
1514430913.8875997,607,6.090940952301025
1514430990.066657,608,6.090851306915283
1514431066.264398,609,6.090747833251953
1514431142.1874435,610,6.090674877166748
1514431218.41102,611,6.0905842781066895
1514431294.4125557,612,6.0904998779296875
1514431370.4872527,613,6.090409278869629
1514431446.6059372,614,6.090335845947266
1514431522.737867,615,6.090238094329834
1514431598.7795694,616,6.090166091918945
1514431674.8632095,617,6.090067386627197
1514431750.7848132,618,6.08998441696167
1514431826.7132635,619,6.089960098266602
1514431902.849401,620,6.089889049530029
1514431979.0443602,621,6.089798927307129
1514432054.9990096,622,6.089730262756348
1514432131.0380979,623,6.089635372161865
1514432207.1185737,624,6.089554786682129
1514432283.193882,625,6.089484214782715
1514432359.2357256,626,6.089427471160889
1514432435.2491376,627,6.08935022354126
1514432511.3890538,628,6.0892720222473145
1514432587.3603363,629,6.0891852378845215
1514432663.59237,630,6.089089870452881
1514432739.594081,631,6.089005947113037
1514432815.6799798,632,6.088924884796143
1514432891.7353818,633,6.088845252990723
1514432967.7978299,634,6.088764667510986
1514433043.8935251,635,6.088677883148193
1514433119.949818,636,6.0886006355285645
1514433195.9953098,637,6.088506698608398
1514433271.9849753,638,6.088442802429199
1514433348.0470383,639,6.088374614715576
1514433423.9892995,640,6.088284492492676
1514433500.1121078,641,6.088193893432617
1514433576.0041423,642,6.08811092376709
1514433652.0852704,643,6.088045120239258
1514433728.182592,644,6.087954998016357
1514433804.3869429,645,6.087888717651367
1514433880.5491629,646,6.08781099319458
1514433956.650018,647,6.0877461433410645
1514434032.7875993,648,6.087680339813232
1514434108.9994874,649,6.087616443634033
1514434184.9627817,650,6.087545871734619
1514434260.9972703,651,6.087469577789307
1514434337.198805,652,6.087391376495361
1514434413.3376777,653,6.087308883666992
1514434489.4113233,654,6.08722448348999
1514434565.4425592,655,6.087151050567627
1514434641.5656555,656,6.08707332611084
1514434717.6240966,657,6.087000370025635
1514434793.6646678,658,6.086933135986328
1514434869.718133,659,6.086858749389648
1514434945.8681064,660,6.086794853210449
1514435022.027871,661,6.086730480194092
1514435098.0571973,662,6.086675643920898
1514435174.0953014,663,6.086603164672852
1514435250.2478423,664,6.086539268493652
1514435326.4478724,665,6.086465358734131
1514435402.6055021,666,6.086401462554932
1514435478.7118106,667,6.086339950561523
1514435554.6810124,668,6.086276054382324
1514435630.846533,669,6.086205005645752
1514435706.962628,670,6.086147308349609
1514435783.052244,671,6.086087703704834
1514435859.070304,672,6.0860209465026855
1514435935.1331906,673,6.085956573486328
1514436011.258104,674,6.085883617401123
1514436087.3967683,675,6.085819721221924
1514436163.5311196,676,6.085754871368408
1514436239.6946366,677,6.0857038497924805
1514436315.6931489,678,6.085653781890869
1514436391.8275955,679,6.0855793952941895
1514436467.9422078,680,6.08553409576416
1514436543.9820056,681,6.085484981536865
1514436620.0657778,682,6.085426330566406
1514436696.131962,683,6.0853681564331055
1514436772.3393033,684,6.08529806137085
1514436848.393361,685,6.085238456726074
1514436924.4542756,686,6.08517599105835
1514437000.4211874,687,6.085117816925049
1514437076.4183123,688,6.085062503814697
1514437152.4434617,689,6.085010528564453
1514437228.5373766,690,6.084949016571045
1514437304.5861652,691,6.084878444671631
1514437380.6271448,692,6.084824085235596
1514437456.7014022,693,6.084758758544922
1514437532.7550318,694,6.084692478179932
1514437608.8946264,695,6.084630489349365
1514437684.860481,696,6.084559917449951
1514437761.0509994,697,6.084496974945068
1514437836.9761744,698,6.084433078765869
1514437913.045816,699,6.084377765655518
1514437989.0437331,700,6.084314823150635
1514438065.160954,701,6.084232330322266
1514438141.1400306,702,6.084193706512451
1514438217.1816344,703,6.0841498374938965
1514438293.1359954,704,6.084092140197754
1514438369.3095021,705,6.084047317504883
1514438445.246215,706,6.083980560302734
1514438521.2479224,707,6.083932399749756
1514438597.2728019,708,6.083876132965088
1514438673.2539425,709,6.0838236808776855
1514438749.3678267,710,6.083777904510498
1514438825.409499,711,6.083726406097412
1514438901.547546,712,6.083691596984863
1514438977.579846,713,6.08364725112915
1514439053.6195226,714,6.0835981369018555
1514439129.6711307,715,6.083554267883301
1514439205.8158295,716,6.083505153656006
1514439281.9826179,717,6.0834574699401855
1514439358.079757,718,6.083401679992676
1514439434.0790138,719,6.083347320556641
1514439510.2705708,720,6.083298206329346
1514439586.2751305,721,6.08323860168457
1514439662.297651,722,6.083179950714111
1514439738.5014482,723,6.08314323425293
1514439814.4152849,724,6.083103656768799
1514439890.5093734,725,6.083054542541504
1514439966.5752196,726,6.08300256729126
1514440042.7096307,727,6.082971096038818
1514440118.6757946,728,6.082932949066162
1514440194.7752516,729,6.082888126373291
1514440270.8816385,730,6.082832336425781
1514440347.0469196,731,6.0827860832214355
1514440422.981064,732,6.08273983001709
1514440498.984533,733,6.082688331604004
1514440575.0333214,734,6.082624912261963
1514440651.1542509,735,6.082557201385498
1514440727.2442045,736,6.082520008087158
1514440803.2975,737,6.0824809074401855
1514440879.3522277,738,6.082424640655518
1514440955.3644912,739,6.08238410949707
1514441031.6464636,740,6.082347869873047
1514441107.871571,741,6.082313060760498
1514441183.9566839,742,6.082278251647949
1514441259.949449,743,6.082217216491699
1514441336.025715,744,6.082174301147461
1514441412.1086695,745,6.082123279571533
1514441488.1650598,746,6.082087993621826
1514441564.1174443,747,6.082045555114746
1514441640.3646805,748,6.0819993019104
1514441716.4359086,749,6.081964015960693
1514441792.453336,750,6.081914901733398
1514441868.4666898,751,6.081876277923584
1514441944.479061,752,6.081827640533447
1514442020.5838664,753,6.081780910491943
1514442096.7338326,754,6.081733226776123
1514442172.987285,755,6.081681728363037
1514442249.0888407,756,6.081630229949951
1514442325.210311,757,6.081593036651611
1514442401.3033252,758,6.081546306610107
1514442477.5427554,759,6.0815019607543945
1514442553.6231968,760,6.081462860107422
1514442629.8198793,761,6.0814208984375
1514442705.8212264,762,6.081372261047363
1514442781.933364,763,6.081328392028809
1514442858.016008,764,6.081289291381836
1514442934.1420565,765,6.081233978271484
1514443010.2612123,766,6.081198215484619
1514443086.4485316,767,6.08115816116333
1514443162.5041056,768,6.081120014190674
1514443238.6133204,769,6.081085681915283
1514443314.6570785,770,6.081048965454102
1514443390.758065,771,6.081008434295654
1514443466.7893903,772,6.080974102020264
1514443542.7694666,773,6.080927848815918
1514443618.8072004,774,6.080894470214844
1514443694.8004184,775,6.080856800079346
1514443770.7806659,776,6.080817699432373
1514443846.8592138,777,6.080780029296875
1514443923.02693,778,6.080751895904541
1514443999.1053407,779,6.080719470977783
1514444075.0752094,780,6.080686092376709
1514444151.2711916,781,6.080661773681641
1514444227.2676938,782,6.080638408660889
1514444303.4136257,783,6.0806050300598145
1514444379.4425716,784,6.080580711364746
1514444455.7300308,785,6.080541610717773
1514444531.7412553,786,6.080500602722168
1514444607.7910872,787,6.080462455749512
1514444683.8436124,788,6.080442905426025
1514444760.0418072,789,6.080410957336426
1514444836.2414234,790,6.080380439758301
1514444912.2936897,791,6.08034086227417
1514444988.3786619,792,6.080304145812988
1514445064.3085842,793,6.080284118652344
1514445140.3862424,794,6.080249309539795
1514445216.4580026,795,6.080216407775879
1514445292.4783337,796,6.0801920890808105
1514445368.579304,797,6.080162048339844
1514445444.6437106,798,6.0801262855529785
1514445520.6502323,799,6.080097198486328
1514445596.7808785,800,6.080061912536621
1514445672.8349264,801,6.080028057098389
1514445748.9139054,802,6.079984664916992
1514445824.9214892,803,6.079955577850342
1514445900.9784865,804,6.079918384552002
1514445977.270495,805,6.079887390136719
1514446053.274058,806,6.079870700836182
1514446129.258329,807,6.079852104187012
1514446205.2095387,808,6.079801082611084
1514446281.3944614,809,6.079770088195801
1514446357.4127622,810,6.079739570617676
1514446433.5753286,811,6.079698085784912
1514446509.8140259,812,6.079679012298584
1514446585.9817247,813,6.079655170440674
1514446662.0498295,814,6.0796122550964355
1514446738.1566463,815,6.07957124710083
1514446814.264666,816,6.079559803009033
1514446890.32942,817,6.079519748687744
1514446966.5634112,818,6.079488277435303
1514447042.7708008,819,6.079469680786133
1514447118.879127,820,6.079431056976318
1514447194.9951372,821,6.079409122467041
1514447271.2259903,822,6.079389572143555
1514447347.2184908,823,6.07935905456543
1514447423.432833,824,6.079328536987305
1514447499.497612,825,6.079288005828857
1514447575.601354,826,6.079275608062744
1514447651.5490234,827,6.079258918762207
1514447727.570199,828,6.079229354858398
1514447803.671201,829,6.079196453094482
1514447879.9603353,830,6.079169750213623
1514447956.032402,831,6.079152584075928
1514448032.1675792,832,6.079130172729492
1514448108.312689,833,6.079099178314209
1514448184.3831484,834,6.079065322875977
1514448260.548465,835,6.079039573669434
1514448336.718541,836,6.079013824462891
1514448412.8735418,837,6.078981876373291
1514448489.0820916,838,6.078945159912109
1514448565.293598,839,6.078909397125244
1514448641.436651,840,6.078884124755859
1514448717.6273768,841,6.078855514526367
1514448793.7747173,842,6.078825950622559
1514448869.898452,843,6.078778266906738
1514448945.806,844,6.078764915466309
1514449021.928782,845,6.0787434577941895
1514449098.015515,846,6.078721523284912
1514449174.213261,847,6.0786967277526855
1514449250.3435683,848,6.078667640686035
1514449326.3768773,849,6.078640937805176
1514449402.5277812,850,6.078616619110107
1514449478.5522792,851,6.078577995300293
1514449554.644945,852,6.078548431396484
1514449630.727591,853,6.07852029800415
1514449706.8685043,854,6.078494071960449
1514449782.953415,855,6.078470230102539
1514449859.1143858,856,6.078434944152832
1514449935.0332987,857,6.078394889831543
1514450011.1095662,858,6.078366756439209
1514450087.3019242,859,6.078344821929932
1514450163.3788521,860,6.078319549560547
1514450239.5238948,861,6.078282356262207
1514450315.6129322,862,6.078257083892822
1514450391.8698113,863,6.078238010406494
1514450468.052652,864,6.078200340270996
1514450544.2167296,865,6.078172206878662
1514450620.3116403,866,6.078141212463379
1514450696.5074205,867,6.078125476837158
1514450772.5342429,868,6.078098297119141
1514450848.642105,869,6.0780720710754395
1514450924.713034,870,6.078047752380371
1514451000.9484475,871,6.0780205726623535
1514451077.027621,872,6.078002452850342
1514451153.1566916,873,6.077970027923584
1514451229.3078485,874,6.077951908111572
1514451305.5324013,875,6.07792329788208
1514451381.7847376,876,6.077887058258057
1514451457.7268565,877,6.077869892120361
1514451533.7629194,878,6.077854156494141
1514451609.877969,879,6.077834129333496
1514451686.0381033,880,6.0778069496154785
1514451762.1188254,881,6.077791690826416
1514451838.2837174,882,6.077761173248291
1514451914.3943627,883,6.077727794647217
1514451990.543281,884,6.0777130126953125
1514452066.6772578,885,6.077673435211182
1514452142.6654713,886,6.077650547027588
1514452218.8454149,887,6.077627182006836
1514452294.9433315,888,6.077606201171875
1514452371.2009115,889,6.077585697174072
1514452447.3399389,890,6.077566623687744
1514452523.5425754,891,6.077547550201416
1514452599.7491524,892,6.077512264251709
1514452675.9409614,893,6.077486991882324
1514452752.0338569,894,6.077462673187256
1514452828.1882546,895,6.077443599700928
1514452904.2309377,896,6.077409744262695
1514452980.4060924,897,6.077392101287842
1514453056.6451316,898,6.077371597290039
1514453132.7709196,899,6.077347755432129
1514453209.103848,900,6.0773234367370605
1514453285.195925,901,6.077309608459473
1514453361.463496,902,6.077279090881348
1514453437.5149956,903,6.077252388000488
1514453513.6890712,904,6.077239990234375
1514453589.843335,905,6.077219009399414
1514453665.889429,906,6.07720422744751
1514453741.8991375,907,6.077186107635498
1514453817.9372857,908,6.07717227935791
1514453893.9314308,909,6.077156066894531
1514453970.203224,910,6.077139854431152
1514454046.2386584,911,6.077120304107666
1514454122.3240635,912,6.077098369598389
1514454198.5276957,913,6.077070713043213
1514454274.5903516,914,6.07704496383667
1514454350.81045,915,6.077023983001709
1514454426.934275,916,6.076991081237793
1514454503.0347438,917,6.076968193054199
1514454579.2953684,918,6.076953411102295
1514454655.5382671,919,6.076925277709961
1514454731.6821647,920,6.076902389526367
1514454807.7868357,921,6.0768818855285645
1514454883.760324,922,6.0768609046936035
1514454960.0347586,923,6.076836585998535
1514455036.129102,924,6.076816082000732
1514455112.233475,925,6.076783657073975
1514455188.55378,926,6.076762676239014
1514455264.4829447,927,6.076749324798584
1514455340.6166022,928,6.076747417449951
1514455416.865975,929,6.076728343963623
1514455493.0733275,930,6.076711177825928
1514455569.166476,931,6.076678276062012
1514455645.5019004,932,6.076655387878418
1514455721.709438,933,6.076633930206299
1514455797.9022238,934,6.076616287231445
1514455874.029313,935,6.076594829559326
1514455950.3165102,936,6.0765862464904785
1514456026.42128,937,6.076565265655518
1514456102.5111964,938,6.076548099517822
1514456178.7271886,939,6.076533794403076
1514456254.81836,940,6.076517581939697
1514456331.024788,941,6.076483726501465
1514456407.1330063,942,6.0764570236206055
1514456483.282547,943,6.0764288902282715
1514456559.3961856,944,6.0764055252075195
1514456635.576749,945,6.076387405395508
1514456711.6575332,946,6.076383590698242
1514456787.7259574,947,6.0763630867004395
1514456863.8609188,948,6.076354026794434
1514456940.041672,949,6.076331615447998
1514457016.2535577,950,6.076305389404297
1514457092.2923396,951,6.0762810707092285
1514457168.3731756,952,6.0762553215026855
1514457244.4198976,953,6.076232433319092
1514457320.4933734,954,6.076205253601074
1514457396.6339374,955,6.076193809509277
1514457472.8934383,956,6.076175689697266
1514457548.931507,957,6.076143741607666
1514457625.1225827,958,6.076130390167236
1514457701.2562616,959,6.076115131378174
1514457777.427806,960,6.0761003494262695
1514457853.42983,961,6.076083660125732
1514457929.5507398,962,6.076070785522461
1514458005.5485635,963,6.076051712036133
1514458081.786383,964,6.0760345458984375
1514458158.1391287,965,6.076015949249268
1514458234.3110678,966,6.075994968414307
1514458310.4309366,967,6.0759758949279785
1514458386.539313,968,6.075954914093018
1514458462.7094395,969,6.075933456420898
1514458538.823907,970,6.075916290283203
1514458614.8990335,971,6.075893878936768
1514458691.0321717,972,6.075855731964111
1514458767.1895552,973,6.075836181640625
1514458843.344695,974,6.075821876525879
1514458919.4514124,975,6.075811862945557
1514458995.5303326,976,6.075800895690918
1514459071.8025527,977,6.075779438018799
1514459147.8977387,978,6.0757622718811035
1514459224.1037662,979,6.075742244720459
1514459300.2342694,980,6.075728416442871
1514459376.3370104,981,6.075705528259277
1514459452.4407926,982,6.075688362121582
1514459528.5271177,983,6.075677394866943
1514459604.6335897,984,6.0756707191467285
1514459680.7251594,985,6.075638294219971
1514459756.843279,986,6.0756144523620605
1514459832.9086525,987,6.075598239898682
1514459909.0011485,988,6.075572490692139
1514459985.103545,989,6.07555627822876
1514460061.223671,990,6.0755295753479
1514460137.4606705,991,6.075511455535889
1514460213.667935,992,6.07550048828125
1514460289.8806949,993,6.075488090515137
1514460366.1675873,994,6.075475692749023
1514460442.337223,995,6.075451374053955
1514460518.4720888,996,6.075437068939209
1514460594.6154404,997,6.075430870056152
1514460670.722726,998,6.075401306152344
1514460746.885656,999,6.075385570526123
