Wall time,Step,Value
1514384729.5545268,0,255.0
1514384806.7647617,1,226.25
1514384883.954546,2,225.375
1514384961.5556226,3,225.125
1514385038.9349432,4,223.125
1514385116.0542262,5,221.875
1514385192.329873,6,220.5
1514385268.7661989,7,222.0
1514385345.685368,8,222.5
1514385423.707006,9,223.0
1514385503.1288934,10,223.0
1514385579.1557379,11,222.0
1514385655.770855,12,221.5
1514385731.7203956,13,219.5
1514385809.1386912,14,217.0
1514385885.9049482,15,214.5
1514385961.9953165,16,212.5
1514386037.962849,17,210.5
1514386114.1733227,18,208.0
1514386190.156296,19,206.0
1514386266.0250256,20,204.0
1514386341.8669815,21,201.5
1514386417.6556787,22,199.5
1514386493.373024,23,197.5
1514386569.3156185,24,195.5
1514386645.1544836,25,194.0
1514386720.9051073,26,192.5
1514386796.6749947,27,190.5
1514386872.3546526,28,189.25
1514386948.0980513,29,188.5
1514387024.0162983,30,186.625
1514387101.2668874,31,185.625
1514387177.3581052,32,185.75
1514387253.2184837,33,185.625
1514387329.170895,34,184.875
1514387404.9966476,35,184.75
1514387480.8826315,36,184.0
1514387556.903613,37,183.0
1514387636.7673318,38,182.125
1514387712.8094509,39,181.375
1514387788.6691716,40,180.375
1514387864.6018035,41,179.375
1514387941.1225424,42,178.0
1514388016.873997,43,177.5
1514388092.6620572,44,176.375
1514388168.5345335,45,176.0
1514388244.3462315,46,175.0
1514388320.1184263,47,174.25
1514388395.8653762,48,173.875
1514388471.6697009,49,173.0
1514388547.3916938,50,172.0
1514388623.1406963,51,171.625
1514388698.907234,52,170.625
1514388774.5816095,53,170.375
1514388850.3955622,54,170.625
1514388926.2385366,55,170.75
1514389002.1458244,56,170.875
1514389078.025691,57,170.75
1514389153.762052,58,171.0
1514389229.5867474,59,171.25
1514389305.4972124,60,171.375
1514389381.261127,61,171.5
1514389457.0467436,62,171.625
1514389532.8582697,63,171.5
1514389608.6707084,64,171.625
1514389684.4837182,65,171.625
1514389760.3614655,66,171.625
1514389836.1883323,67,171.625
1514389912.0250423,68,172.0
1514389987.8715515,69,172.125
1514390063.7252204,70,172.125
1514390139.6513076,71,171.875
1514390215.4948382,72,172.0
1514390291.260033,73,172.125
1514390367.1028147,74,172.375
1514390442.9202847,75,172.5
1514390518.6870222,76,172.875
1514390594.5124965,77,172.875
1514390670.2240584,78,173.125
1514390746.2115614,79,173.25
1514390822.166592,80,172.875
1514390897.9918602,81,172.875
1514390973.8010154,82,173.125
1514391049.6932914,83,172.875
1514391126.684967,84,172.875
1514391205.6773496,85,172.875
1514391284.0267632,86,173.0
1514391360.9901245,87,172.625
1514391436.9588099,88,172.625
1514391512.9758425,89,172.75
1514391589.0194676,90,172.375
1514391665.0118346,91,172.25
1514391740.8856544,92,172.375
1514391816.6637888,93,171.875
1514391892.629562,94,171.75
1514391968.3822205,95,171.75
1514392044.3496604,96,171.875
1514392120.1631134,97,172.0
1514392196.238641,98,171.75
1514392272.2041173,99,171.75
1514392348.0944808,100,171.5
1514392423.9905937,101,171.5
1514392500.092505,102,171.25
1514392576.080436,103,171.25
1514392652.0519967,104,171.5
1514392728.1521497,105,171.25
1514392804.128638,106,170.75
1514392879.952355,107,170.875
1514392955.8724222,108,170.875
1514393031.8947906,109,170.625
1514393107.7638524,110,170.25
1514393183.6428761,111,170.375
1514393260.4362895,112,170.375
1514393336.5686188,113,170.375
1514393412.5810869,114,170.5
1514393488.6229887,115,170.125
1514393564.43591,116,170.125
1514393640.3243196,117,170.125
1514393716.344993,118,170.375
1514393792.2941601,119,170.375
1514393868.1417859,120,169.875
1514393943.9359136,121,170.125
1514394019.7765853,122,170.375
1514394095.6293404,123,170.375
1514394171.5991404,124,170.375
1514394247.437059,125,170.375
1514394323.5217373,126,170.0
1514394399.3513124,127,170.0
1514394475.4817774,128,170.0
1514394551.5583165,129,170.0
1514394627.4772947,130,170.0
1514394703.4413805,131,170.5
1514394779.5069335,132,170.5
1514394855.5377536,133,170.0
1514394931.488221,134,170.0
1514395007.461952,135,170.0
1514395083.3955026,136,170.125
1514395159.3409553,137,170.125
1514395235.282734,138,170.125
1514395311.3373468,139,170.125
1514395387.329702,140,170.125
1514395463.1786492,141,170.125
1514395539.0560439,142,170.25
1514395615.096356,143,169.75
1514395691.082999,144,170.0
1514395767.0360003,145,170.125
1514395842.9170847,146,170.125
1514395918.9046717,147,170.125
1514395994.8456101,148,170.125
1514396070.952052,149,170.125
1514396146.8211596,150,170.25
1514396222.8022473,151,170.25
1514396298.7647698,152,170.25
1514396374.7564628,153,170.25
1514396450.7054274,154,170.25
1514396526.6906857,155,170.125
1514396602.605832,156,170.125
1514396678.5715606,157,170.125
1514396754.7129998,158,170.125
1514396830.5969164,159,170.125
1514396906.5338647,160,170.25
1514396982.5605538,161,169.75
1514397058.546891,162,169.75
1514397135.6913095,163,169.75
1514397211.7892451,164,169.75
1514397287.7637627,165,170.0
1514397363.708858,166,170.0
1514397439.7231538,167,170.0
1514397515.6662538,168,170.0
1514397591.8577058,169,170.0
1514397667.7876952,170,170.0
1514397743.710618,171,169.875
1514397819.5979853,172,169.875
1514397895.545285,173,169.875
1514397971.55043,174,170.125
1514398047.586085,175,170.125
1514398123.513832,176,170.125
1514398199.4770796,177,169.625
1514398275.3873367,178,169.625
1514398351.4523861,179,169.625
1514398427.3687005,180,169.625
1514398503.4408038,181,169.625
1514398580.4164557,182,169.625
1514398658.1197348,183,169.625
1514398735.891961,184,169.625
1514398814.4597673,185,169.875
1514398891.1766505,186,169.875
1514398967.130889,187,169.875
1514399043.1076224,188,169.875
1514399119.122744,189,169.875
1514399195.0201528,190,169.875
1514399271.08175,191,169.375
1514399347.000288,192,169.375
1514399423.2063842,193,169.375
1514399499.10405,194,169.25
1514399575.0811682,195,169.125
1514399651.1320543,196,169.125
1514399727.1698732,197,169.375
1514399803.2075543,198,169.375
1514399879.3394518,199,169.375
1514399955.3602936,200,169.375
1514400031.3503604,201,169.375
1514400107.3417253,202,169.375
1514400183.3592737,203,169.375
1514400259.4691536,204,168.875
1514400335.4207606,205,168.875
1514400411.4596756,206,168.875
1514400487.5250523,207,168.75
1514400563.5968995,208,168.75
1514400639.581572,209,168.75
1514400715.6007082,210,168.75
1514400791.5884292,211,168.75
1514400867.572788,212,168.75
1514400943.7038317,213,168.625
1514401019.739861,214,168.625
1514401095.7150638,215,168.625
1514401171.6959536,216,168.625
1514401247.696999,217,168.0
1514401323.6830306,218,168.25
1514401399.7421708,219,168.25
1514401475.864499,220,168.25
1514401551.8702705,221,168.25
1514401627.8901,222,168.25
1514401703.8622148,223,168.25
1514401779.8496041,224,168.25
1514401856.479051,225,168.125
1514401934.7272346,226,168.125
1514402011.5016627,227,168.125
1514402087.625693,228,168.125
1514402163.7226264,229,167.5
1514402240.2234633,230,167.5
1514402318.323985,231,167.5
1514402394.3511016,232,167.5
1514402470.3574915,233,167.375
1514402546.2514007,234,167.375
1514402622.229099,235,167.375
1514402698.177715,236,167.375
1514402774.1147754,237,167.375
1514402850.0364618,238,167.375
1514402925.9062593,239,167.375
1514403001.821923,240,167.25
1514403077.6372387,241,167.25
1514403153.4467027,242,166.75
1514403229.40331,243,166.75
1514403305.2638283,244,166.75
1514403381.1883106,245,166.625
1514403457.0740106,246,166.625
1514403533.019662,247,166.625
1514403608.994442,248,166.5
1514403684.923191,249,166.25
1514403760.8190112,250,166.25
1514403836.8689682,251,166.25
1514403912.7699175,252,166.25
1514403988.5783596,253,166.25
1514404064.3341818,254,166.25
1514404140.16416,255,165.625
1514404215.9650729,256,165.625
1514404291.9552813,257,165.625
1514404367.7979825,258,165.625
1514404443.6919749,259,165.625
1514404519.581975,260,165.5
1514404595.526405,261,165.5
1514404671.4604697,262,165.375
1514404747.4755237,263,165.375
1514404823.355477,264,165.375
1514404899.3478804,265,165.375
1514404975.2234428,266,165.375
1514405051.2166884,267,165.375
1514405127.0243907,268,165.375
1514405202.992643,269,165.375
1514405278.865363,270,164.75
1514405354.7980528,271,164.75
1514405430.7443533,272,164.5
1514405506.6585689,273,164.5
1514405582.6829872,274,164.5
1514405658.5863872,275,164.5
1514405734.4643676,276,164.5
1514405810.3141844,277,164.375
1514405886.2772582,278,164.375
1514405963.0152938,279,164.25
1514406041.1856892,280,164.25
1514406118.2591841,281,164.25
1514406194.3668947,282,164.25
1514406270.3880267,283,164.25
1514406346.4324462,284,164.25
1514406422.4656377,285,164.125
1514406498.7154849,286,164.125
1514406574.7683482,287,163.625
1514406650.9890916,288,163.625
1514406727.0167532,289,163.375
1514406803.0304098,290,163.375
1514406879.0815814,291,163.375
1514406955.0457556,292,163.375
1514407031.0670245,293,163.25
1514407107.2024927,294,163.125
1514407183.2237554,295,163.125
1514407259.2211664,296,163.125
1514407335.322286,297,163.125
1514407411.3917868,298,163.125
1514407487.5281687,299,163.125
1514407563.546936,300,163.125
1514407639.6492987,301,163.125
1514407715.700981,302,162.75
1514407791.6492772,303,162.75
1514407867.6159651,304,162.75
1514407943.6685581,305,162.75
1514408019.7639859,306,162.125
1514408095.8529541,307,162.125
1514408171.8652422,308,162.125
1514408247.9128,309,162.125
1514408323.8762326,310,162.125
1514408399.857824,311,162.0
1514408475.8958435,312,162.0
1514408551.900171,313,162.0
1514408628.0385277,314,162.0
1514408703.9688644,315,161.75
1514408779.9900932,316,161.75
1514408856.0216548,317,161.625
1514408931.9960077,318,161.625
1514409008.0509539,319,161.625
1514409084.224379,320,162.0
1514409160.172341,321,162.0
1514409236.1645172,322,162.25
1514409312.3089168,323,162.25
1514409388.3970506,324,162.25
1514409464.3743415,325,162.25
1514409540.3972008,326,162.375
1514409616.4561276,327,162.375
1514409692.375284,328,162.375
1514409768.6024916,329,162.375
1514409844.7313256,330,162.375
1514409920.8134027,331,162.375
1514409996.8110657,332,162.375
1514410072.9127326,333,162.375
1514410148.927649,334,162.375
1514410225.0470965,335,162.375
1514410301.0088465,336,162.375
1514410377.0533235,337,162.375
1514410452.986491,338,162.375
1514410528.977326,339,162.375
1514410605.0823092,340,162.375
1514410681.185422,341,162.375
1514410757.2329211,342,162.875
1514410833.2707741,343,162.875
1514410909.3326569,344,162.875
1514410985.2518466,345,162.875
1514411061.2460475,346,162.875
1514411137.2839754,347,162.875
1514411213.183196,348,162.875
1514411289.1096885,349,162.875
1514411365.097308,350,162.875
1514411441.1772916,351,162.875
1514411517.2087464,352,162.875
1514411593.2050529,353,162.875
1514411669.300629,354,162.875
1514411745.2648604,355,163.0
1514411821.3121643,356,163.0
1514411897.353155,357,163.0
1514411973.2279594,358,163.25
1514412049.3151371,359,163.25
1514412125.407993,360,163.25
1514412201.548865,361,163.25
1514412277.6632233,362,163.25
1514412353.7659044,363,163.375
1514412429.7426898,364,163.375
1514412505.7045615,365,163.375
1514412581.666834,366,163.375
1514412657.737513,367,163.875
1514412733.7576816,368,163.875
1514412809.8883185,369,163.875
1514412886.0448904,370,163.875
1514412962.0273306,371,163.875
1514413038.0081542,372,163.875
1514413114.076402,373,163.875
1514413190.0750008,374,163.875
1514413266.2465448,375,163.875
1514413342.3059347,376,163.875
1514413418.4691255,377,163.875
1514413494.4006565,378,163.875
1514413570.432149,379,163.875
1514413646.5620174,380,163.875
1514413722.6626172,381,163.875
1514413798.8017814,382,163.875
1514413874.903165,383,163.875
1514413950.9436288,384,163.875
1514414027.0258899,385,163.875
1514414103.1403854,386,163.875
1514414179.277619,387,163.875
1514414255.1851764,388,163.875
1514414331.2055335,389,163.875
1514414407.3244624,390,163.875
1514414483.4559605,391,163.875
1514414559.4619224,392,163.875
1514414635.4799678,393,163.875
1514414711.4955637,394,163.875
1514414787.5898657,395,163.875
1514414863.5953784,396,164.375
1514414939.601668,397,164.375
1514415015.554191,398,164.375
1514415091.3916688,399,164.375
1514415167.4205492,400,164.5
1514415243.4141681,401,164.5
1514415319.4351737,402,164.5
1514415395.5047145,403,164.5
1514415471.5865002,404,164.5
1514415547.4879026,405,164.5
1514415623.4936967,406,164.5
1514415699.610682,407,164.5
1514415775.6661813,408,164.5
1514415851.727728,409,164.5
1514415927.7390535,410,164.5
1514416003.8446558,411,164.5
1514416080.0228634,412,164.5
1514416156.0139334,413,164.5
1514416232.0351117,414,164.5
1514416307.9789822,415,164.5
1514416383.9474251,416,164.5
1514416460.0390737,417,164.5
1514416536.0872824,418,164.5
1514416612.328532,419,164.5
1514416688.3943546,420,164.5
1514416764.4501855,421,164.75
1514416840.457277,422,164.75
1514416916.4708664,423,164.75
1514416992.5321586,424,164.75
1514417068.579316,425,164.75
1514417144.654051,426,164.75
1514417220.8173313,427,164.75
1514417296.9238687,428,164.75
1514417372.9192417,429,165.25
1514417448.9864595,430,165.25
1514417525.0845273,431,165.25
1514417601.302526,432,165.25
1514417677.4260283,433,165.25
1514417753.475493,434,165.25
1514417829.4594595,435,165.25
1514417905.413247,436,165.25
1514417981.4140236,437,165.25
1514418057.523859,438,165.25
1514418133.5183322,439,165.25
1514418209.6561527,440,165.25
1514418285.635474,441,165.375
1514418361.7543168,442,165.375
1514418437.7679222,443,165.375
1514418513.8134296,444,165.375
1514418589.7577784,445,165.375
1514418665.659082,446,165.5
1514418741.7393682,447,165.5
1514418817.8535836,448,165.5
1514418893.9935825,449,165.5
1514418970.0062428,450,165.5
1514419046.0898345,451,165.5
1514419122.0050604,452,165.5
1514419197.9891908,453,165.5
1514419274.0250313,454,165.5
1514419350.0456421,455,165.5
1514419426.1282403,456,165.5
1514419502.189647,457,165.5
1514419578.1901164,458,165.5
1514419654.0922773,459,165.5
1514419730.2034917,460,165.5
1514419806.194818,461,165.5
1514419882.1673214,462,165.5
1514419958.0850208,463,165.5
1514420034.0203621,464,165.5
1514420109.9193578,465,165.5
1514420185.9634235,466,165.5
1514420262.0113616,467,165.5
1514420338.073048,468,165.5
1514420414.118156,469,165.5
1514420490.150383,470,165.5
1514420566.1763399,471,165.5
1514420642.1436322,472,166.0
1514420718.1596937,473,166.0
1514420794.067735,474,166.0
1514420870.1442192,475,166.0
1514420946.2542062,476,166.0
1514421022.4121666,477,166.0
1514421098.5286438,478,166.0
1514421174.49682,479,166.0
1514421250.5671914,480,166.0
1514421326.645683,481,166.0
1514421402.615342,482,166.0
1514421478.6593504,483,166.0
1514421554.6132147,484,166.0
1514421630.6423051,485,166.0
1514421706.7503922,486,166.0
1514421782.8313944,487,166.0
1514421859.004737,488,166.0
1514421935.0959811,489,166.0
1514422011.0664697,490,166.0
1514422086.9752362,491,166.0
1514422163.0370812,492,166.0
1514422239.0304413,493,166.0
1514422315.0435607,494,166.0
1514422390.9064806,495,166.0
1514422466.9728997,496,166.0
1514422543.0048814,497,166.125
1514422619.0575938,498,166.125
1514422695.0727403,499,166.125
1514422771.1347828,500,166.125
1514422847.0686014,501,166.125
1514422923.1096513,502,166.125
1514422999.1704805,503,166.125
1514423075.2451792,504,166.125
1514423151.355393,505,166.125
1514423227.3215363,506,166.125
1514423303.3116722,507,166.125
1514423379.3998923,508,166.125
1514423455.4514375,509,166.125
1514423531.5334387,510,166.125
1514423607.6195345,511,166.125
1514423683.785025,512,166.125
1514423759.844254,513,166.125
1514423835.7623312,514,166.125
1514423911.8288298,515,166.125
1514423987.890709,516,166.125
1514424063.9604354,517,166.125
1514424140.0812318,518,166.125
1514424216.0855029,519,166.125
1514424292.1601055,520,166.125
1514424368.1411035,521,166.125
1514424444.3374946,522,166.125
1514424520.3699353,523,166.125
1514424596.504164,524,166.125
1514424672.5482774,525,166.125
1514424748.6209025,526,166.125
1514424824.6859562,527,166.125
1514424900.865554,528,166.625
1514424976.878636,529,166.625
1514425052.8692067,530,166.625
1514425128.9986846,531,166.625
1514425205.0784144,532,166.625
1514425281.3473988,533,166.625
1514425357.4305813,534,166.625
1514425433.6388385,535,166.75
1514425509.6931446,536,166.75
1514425585.8613527,537,166.75
1514425662.0075674,538,166.75
1514425738.0199995,539,166.75
1514425814.1070766,540,166.75
1514425890.301792,541,166.75
1514425966.474074,542,166.75
1514426042.438987,543,166.75
1514426118.58918,544,167.0
1514426194.6197305,545,167.0
1514426270.70574,546,167.0
1514426346.7469501,547,167.0
1514426423.052761,548,167.0
1514426499.1690335,549,167.0
1514426575.2067473,550,167.0
1514426651.2318716,551,167.0
1514426727.438112,552,167.0
1514426803.414608,553,167.0
1514426879.4713898,554,167.0
1514426955.6369143,555,167.0
1514427031.6869576,556,167.0
1514427107.7969387,557,167.0
1514427183.925007,558,167.125
1514427260.146842,559,167.125
1514427336.1770527,560,167.125
1514427412.3983727,561,167.125
1514427488.4215016,562,167.125
1514427564.341374,563,167.125
1514427640.3117862,564,167.125
1514427716.3675718,565,167.125
1514427792.489805,566,167.125
1514427868.5364683,567,167.125
1514427944.6700068,568,167.125
1514428020.8972926,569,167.125
1514428097.0137303,570,167.125
1514428173.0267994,571,167.125
1514428249.2655413,572,167.125
1514428325.3118057,573,167.125
1514428401.484649,574,167.125
1514428477.4659767,575,167.125
1514428553.5132718,576,167.125
1514428629.643916,577,167.125
1514428705.747775,578,167.125
1514428781.8523123,579,167.125
1514428857.824268,580,167.125
1514428933.866064,581,167.125
1514429009.9540246,582,167.125
1514429086.1031964,583,167.125
1514429162.1539695,584,167.125
1514429238.1638448,585,167.125
1514429314.1481242,586,167.125
1514429390.201751,587,167.125
1514429466.2580361,588,167.125
1514429542.4125547,589,167.125
1514429618.6205258,590,167.125
1514429694.8021114,591,167.125
1514429770.8366542,592,167.125
1514429846.7969723,593,167.125
1514429922.7854543,594,167.125
1514429998.9672556,595,167.125
1514430075.1173067,596,167.125
1514430151.2720695,597,167.125
1514430227.3975325,598,167.125
1514430303.4613683,599,167.125
1514430379.610676,600,167.625
1514430455.6739047,601,167.625
1514430531.798175,602,167.625
1514430607.882465,603,167.625
1514430683.9124424,604,167.625
1514430760.03818,605,167.625
1514430836.1582434,606,167.625
1514430912.3371258,607,167.625
1514430988.5069015,608,167.625
1514431064.6589844,609,167.625
1514431140.6432884,610,167.625
1514431216.860867,611,167.625
1514431292.867619,612,167.625
1514431368.9427712,613,167.625
1514431445.0568554,614,167.625
1514431521.190673,615,167.625
1514431597.2262595,616,167.625
1514431673.3175435,617,167.625
1514431749.2395144,618,167.625
1514431825.1629527,619,167.625
1514431901.3037305,620,167.625
1514431977.4914372,621,167.625
1514432053.453215,622,167.625
1514432129.4918094,623,167.625
1514432205.5424163,624,167.625
1514432281.640975,625,167.625
1514432357.684548,626,167.625
1514432433.7020788,627,167.625
1514432509.8439674,628,167.625
1514432585.8046637,629,167.625
1514432662.0301766,630,167.625
1514432738.0495148,631,167.625
1514432814.13677,632,167.625
1514432890.1825233,633,167.625
1514432966.2390032,634,167.625
1514433042.340837,635,167.625
1514433118.401518,636,167.625
1514433194.4232225,637,167.625
1514433270.4425163,638,167.625
1514433346.4828274,639,167.625
1514433422.445481,640,167.625
1514433498.5652454,641,167.625
1514433574.45425,642,167.625
1514433650.5319674,643,167.75
1514433726.6307673,644,167.75
1514433802.8337781,645,167.75
1514433878.9994826,646,167.75
1514433955.101529,647,167.75
1514434031.2329817,648,167.75
1514434107.4396079,649,167.75
1514434183.4196632,650,167.75
1514434259.450812,651,167.75
1514434335.6165571,652,167.75
1514434411.7921154,653,167.75
1514434487.8530107,654,167.75
1514434563.8958967,655,167.75
1514434640.019667,656,167.75
1514434716.0808353,657,167.75
1514434792.1195314,658,167.75
1514434868.1664495,659,167.75
1514434944.3183362,660,167.75
1514435020.4816096,661,167.75
1514435096.5120685,662,167.75
1514435172.5453072,663,167.75
1514435248.7016685,664,167.75
1514435324.8452783,665,167.75
1514435401.0578985,666,167.75
1514435477.1674232,667,167.75
1514435553.1311092,668,167.75
1514435629.2913208,669,167.75
1514435705.4098501,670,167.75
1514435781.49942,671,167.75
1514435857.5225196,672,167.75
1514435933.5865014,673,167.75
1514436009.7104363,674,167.75
1514436085.8471463,675,167.75
1514436161.981364,676,167.75
1514436238.140009,677,167.75
1514436314.1085083,678,167.75
1514436390.2693844,679,167.75
1514436466.3938808,680,167.75
1514436542.4303913,681,167.75
1514436618.5090883,682,167.75
1514436694.5843394,683,167.75
1514436770.7869987,684,167.75
1514436846.842668,685,167.75
1514436922.9049742,686,167.75
1514436998.873483,687,167.75
1514437074.8715868,688,167.75
1514437150.8922575,689,167.75
1514437226.9822888,690,167.75
1514437303.0409112,691,167.75
1514437379.08263,692,167.75
1514437455.0993326,693,167.75
1514437531.2121377,694,167.75
1514437607.3429601,695,167.75
1514437683.3146205,696,167.75
1514437759.4974053,697,167.75
1514437835.4328144,698,167.75
1514437911.4932854,699,167.75
1514437987.4986734,700,168.0
1514438063.6122267,701,168.0
1514438139.5972016,702,167.875
1514438215.6379542,703,168.0
1514438291.5864124,704,167.875
1514438367.7537625,705,167.875
1514438443.7005975,706,167.875
1514438519.69666,707,167.875
1514438595.7066736,708,167.875
1514438671.701507,709,167.875
1514438747.821096,710,167.875
1514438823.8572183,711,167.875
1514438900.0006726,712,167.875
1514438976.0269804,713,167.875
1514439052.070597,714,167.875
1514439128.1223865,715,167.875
1514439204.265245,716,167.875
1514439280.4300525,717,167.875
1514439356.5368795,718,167.875
1514439432.52694,719,167.875
1514439508.7238674,720,167.875
1514439584.7092123,721,167.875
1514439660.7487216,722,167.875
1514439736.9554849,723,167.875
1514439812.8711593,724,167.875
1514439888.962413,725,167.875
1514439965.0251021,726,167.875
1514440041.1632383,727,167.875
1514440117.1222816,728,167.875
1514440193.2203355,729,167.875
1514440269.3343945,730,167.875
1514440345.5003555,731,167.875
1514440421.4346259,732,167.875
1514440497.438678,733,167.875
1514440573.4871898,734,167.875
1514440649.6043065,735,167.875
1514440725.661364,736,167.875
1514440801.7517648,737,167.875
1514440877.8074696,738,167.875
1514440953.8143225,739,167.875
1514441030.0758183,740,167.875
1514441106.3250682,741,167.875
1514441182.408717,742,167.875
1514441258.4037025,743,167.875
1514441334.476802,744,167.875
1514441410.556192,745,167.875
1514441486.6024096,746,167.875
1514441562.573818,747,167.875
1514441638.8199263,748,167.875
1514441714.8531084,749,167.875
1514441790.9069414,750,167.875
1514441866.9213402,751,167.875
1514441942.9357877,752,167.875
1514442019.0396788,753,167.875
1514442095.1833131,754,167.875
1514442171.4318066,755,167.875
1514442247.5360901,756,167.875
1514442323.6591625,757,167.875
1514442399.7521954,758,167.875
1514442475.9851215,759,167.875
1514442552.0749338,760,167.875
1514442628.2724955,761,167.875
1514442704.2585623,762,167.875
1514442780.377008,763,167.875
1514442856.4707677,764,167.875
1514442932.59237,765,167.875
1514443008.706487,766,167.875
1514443084.8987463,767,167.875
1514443160.9530892,768,167.875
1514443237.0607245,769,167.875
1514443313.1095302,770,167.875
1514443389.2054672,771,167.875
1514443465.2437174,772,167.875
1514443541.2245936,773,167.875
1514443617.2543128,774,167.875
1514443693.256768,775,167.875
1514443769.237147,776,167.875
1514443845.2579403,777,167.875
1514443921.4754558,778,167.875
1514443997.5525951,779,167.875
1514444073.531818,780,167.875
1514444149.7255042,781,167.875
1514444225.7199147,782,167.875
1514444301.8688889,783,167.875
1514444377.8984962,784,167.375
1514444454.1814415,785,167.375
1514444530.1963847,786,167.375
1514444606.2464702,787,167.375
1514444682.30087,788,167.375
1514444758.4833765,789,167.375
1514444834.660256,790,167.375
1514444910.7402964,791,167.375
1514444986.8242373,792,167.375
1514445062.7521036,793,167.375
1514445138.829864,794,167.375
1514445214.9105036,795,167.375
1514445290.9272938,796,167.375
1514445367.029331,797,167.375
1514445443.0943706,798,167.375
1514445519.1000571,799,167.375
1514445595.2320225,800,167.375
1514445671.288739,801,167.375
1514445747.3632107,802,167.375
1514445823.3757665,803,167.375
1514445899.4252667,804,167.375
1514445975.6872532,805,167.375
1514446051.730403,806,167.375
1514446127.7132978,807,167.375
1514446203.6607475,808,167.375
1514446279.8421328,809,167.375
1514446355.860676,810,167.375
1514446432.021328,811,167.375
1514446508.268675,812,167.375
1514446584.4370506,813,167.375
1514446660.4986124,814,167.375
1514446736.6117167,815,167.375
1514446812.7198024,816,167.375
1514446888.7831914,817,167.375
1514446964.972404,818,167.375
1514447041.2071917,819,167.375
1514447117.3349247,820,167.375
1514447193.4486792,821,167.375
1514447269.6785831,822,167.375
1514447345.6656446,823,167.375
1514447421.8786726,824,167.375
1514447497.9436846,825,167.375
1514447574.0493267,826,167.375
1514447649.9997258,827,167.375
1514447726.026569,828,167.375
1514447802.1140642,829,167.375
1514447878.4079995,830,167.375
1514447954.4516828,831,167.375
1514448030.6228292,832,167.375
1514448106.758149,833,167.375
1514448182.8317926,834,167.375
1514448259.0014417,835,167.375
1514448335.16655,836,167.375
1514448411.317399,837,167.375
1514448487.529942,838,167.375
1514448563.743311,839,167.375
1514448639.8859348,840,167.375
1514448716.074836,841,167.375
1514448792.2310169,842,167.375
1514448868.3500319,843,167.375
1514448944.2584643,844,167.375
1514449020.3763614,845,167.375
1514449096.4465728,846,167.375
1514449172.6571972,847,167.375
1514449248.7949579,848,167.375
1514449324.8250506,849,167.375
1514449400.985176,850,167.375
1514449477.0048544,851,167.375
1514449553.0999236,852,167.375
1514449629.1707268,853,167.375
1514449705.324811,854,167.375
1514449781.4091558,855,167.375
1514449857.5727513,856,167.375
1514449933.488188,857,167.375
1514450009.5652041,858,167.375
1514450085.6879847,859,167.375
1514450161.8346293,860,167.375
1514450237.9741337,861,167.375
1514450314.0620213,862,167.375
1514450390.3196917,863,167.375
1514450466.503317,864,167.375
1514450542.6653297,865,167.375
1514450618.7660854,866,167.375
1514450694.9527287,867,167.375
1514450770.9898186,868,167.375
1514450847.0898514,869,167.375
1514450923.169361,870,167.375
1514450999.4001124,871,167.375
1514451075.4182146,872,167.375
1514451151.6071773,873,167.375
1514451227.7513695,874,167.375
1514451303.977198,875,167.375
1514451380.2387092,876,167.375
1514451456.1829743,877,167.375
1514451532.2146127,878,167.375
1514451608.327862,879,167.375
1514451684.486164,880,167.375
1514451760.575768,881,167.375
1514451836.7332878,882,167.375
1514451912.8436522,883,167.375
1514451989.0000727,884,167.375
1514452065.09424,885,167.375
1514452141.122628,886,167.375
1514452217.281261,887,167.375
1514452293.3941245,888,167.375
1514452369.6435428,889,167.375
1514452445.7875898,890,167.375
1514452521.9935997,891,167.375
1514452598.1934874,892,167.375
1514452674.3952708,893,167.375
1514452750.4863431,894,167.375
1514452826.6396332,895,167.375
1514452902.6877475,896,167.375
1514452978.8571422,897,167.375
1514453055.059681,898,167.375
1514453131.2178297,899,167.375
1514453207.557281,900,167.375
1514453283.6346974,901,167.375
1514453359.9151492,902,167.375
1514453435.9696689,903,167.375
1514453512.1369,904,167.375
1514453588.2988694,905,167.375
1514453664.34593,906,167.375
1514453740.3560572,907,167.375
1514453816.3931198,908,167.375
1514453892.3799145,909,167.375
1514453968.6506255,910,167.375
1514454044.6626585,911,167.375
1514454120.7720742,912,167.375
1514454196.9815404,913,167.375
1514454273.0378928,914,167.375
1514454349.2588818,915,167.375
1514454425.38417,916,167.375
1514454501.4831686,917,167.375
1514454577.7488425,918,167.375
1514454653.980544,919,167.375
1514454730.1368413,920,167.375
1514454806.2395945,921,167.375
1514454882.216546,922,167.375
1514454958.4818716,923,167.375
1514455034.5634742,924,167.375
1514455110.684677,925,167.375
1514455186.9971778,926,167.375
1514455262.9387844,927,167.375
1514455339.0684414,928,167.375
1514455415.3147388,929,167.25
1514455491.5205276,930,167.25
1514455567.6141553,931,167.25
1514455643.9503765,932,167.25
1514455720.159868,933,167.25
1514455796.354236,934,167.25
1514455872.4843867,935,167.25
1514455948.762826,936,167.25
1514456024.8417585,937,167.25
1514456100.9621568,938,167.25
1514456177.1760998,939,167.25
1514456253.262293,940,167.25
1514456329.472879,941,167.25
1514456405.5827231,942,167.25
1514456481.7381396,943,167.25
1514456557.852113,944,167.25
1514456634.0258398,945,167.25
1514456710.1131992,946,167.25
1514456786.1773245,947,167.25
1514456862.3096397,948,167.25
1514456938.486205,949,167.25
1514457014.6770022,950,167.25
1514457090.7465565,951,167.25
1514457166.8116,952,167.25
1514457242.8557775,953,167.25
1514457318.9478455,954,167.25
1514457395.0756173,955,167.25
1514457471.3410995,956,167.25
1514457547.3868618,957,167.25
1514457623.5727615,958,167.25
1514457699.7044926,959,167.25
1514457775.882538,960,167.25
1514457851.885362,961,167.25
1514457928.0060408,962,167.25
1514458003.998271,963,167.25
1514458080.241351,964,167.25
1514458156.575389,965,167.25
1514458232.7570822,966,167.25
1514458308.8788035,967,167.25
1514458384.988382,968,166.75
1514458461.1551335,969,166.75
1514458537.2799232,970,166.75
1514458613.3463943,971,166.75
1514458689.4873152,972,166.75
1514458765.6439056,973,166.75
1514458841.7923238,974,166.75
1514458917.9068632,975,166.75
1514458993.9853861,976,166.75
1514459070.248498,977,166.75
1514459146.32103,978,166.75
1514459222.5297484,979,166.75
1514459298.6889253,980,166.75
1514459374.7873504,981,166.75
1514459450.889681,982,166.75
1514459526.9837523,983,166.75
1514459603.0873141,984,166.75
1514459679.178354,985,166.75
1514459755.2953303,986,166.75
1514459831.3640857,987,166.75
1514459907.451281,988,166.75
1514459983.546183,989,166.75
1514460059.676283,990,166.75
1514460135.8702443,991,166.75
1514460212.1207857,992,166.75
1514460288.328469,993,166.75
1514460364.6173112,994,166.75
1514460440.788762,995,166.75
1514460516.9268212,996,166.75
1514460593.0647435,997,166.75
1514460669.1735106,998,166.75
1514460745.3336995,999,166.75
