Wall time,Step,Value
1514373663.6079416,0,73.8963394165039
1514373669.350191,1,33.4963493347168
1514373675.0974,2,28.042116165161133
1514373680.557904,3,27.16472053527832
1514373685.826628,4,26.218660354614258
1514373691.013081,5,25.24205207824707
1514373696.1770864,6,24.349611282348633
1514373701.3050137,7,23.6147518157959
1514373706.4887936,8,23.020709991455078
1514373711.6348457,9,22.5122013092041
1514373716.8065891,10,22.051006317138672
1514373722.009834,11,21.641094207763672
1514373727.126769,12,21.2625675201416
1514373732.309831,13,20.90308952331543
1514373737.4580278,14,20.56077766418457
1514373742.6285384,15,20.233814239501953
1514373747.7862594,16,19.92656898498535
1514373752.949104,17,19.636606216430664
1514373758.1397746,18,19.360340118408203
1514373763.3105586,19,19.093461990356445
1514373768.445359,20,18.83774757385254
1514373773.6185813,21,18.58437156677246
1514373778.7838576,22,18.338651657104492
1514373783.9590907,23,18.10601043701172
1514373789.1187298,24,17.883146286010742
1514373794.3099167,25,17.669401168823242
1514373799.5296586,26,17.46285057067871
1514373804.7385092,27,17.266328811645508
1514373810.0098042,28,17.077377319335938
1514373815.19489,29,16.89582633972168
1514373820.3976624,30,16.72218894958496
1514373825.5753431,31,16.555309295654297
1514373830.7899745,32,16.392345428466797
1514373835.9676712,33,16.237884521484375
1514373841.1806247,34,16.093591690063477
1514373846.40817,35,15.956188201904297
1514373851.5797596,36,15.82624340057373
1514373856.8057003,37,15.703007698059082
1514373862.0214481,38,15.586212158203125
1514373867.227806,39,15.475520133972168
1514373872.4052806,40,15.370655059814453
1514373877.5630052,41,15.27143383026123
1514373882.742,42,15.176645278930664
1514373887.9118683,43,15.083125114440918
1514373893.0956953,44,14.995414733886719
1514373898.2770374,45,14.91152572631836
1514373903.549058,46,14.831124305725098
1514373908.7302191,47,14.75400447845459
1514373913.8878477,48,14.680211067199707
1514373919.0913823,49,14.607075691223145
1514373924.3670938,50,14.537444114685059
1514373929.5960486,51,14.470361709594727
1514373934.7536383,52,14.405838966369629
1514373939.9308686,53,14.343762397766113
1514373945.1485698,54,14.284050941467285
1514373950.3604448,55,14.2247314453125
1514373955.565755,56,14.167320251464844
1514373960.7315705,57,14.111875534057617
1514373965.9392374,58,14.0580472946167
1514373971.11933,59,14.005783081054688
1514373976.2964156,60,13.954950332641602
1514373981.4926043,61,13.904494285583496
1514373986.6951468,62,13.853938102722168
1514373991.9010873,63,13.806050300598145
1514373997.113057,64,13.759867668151855
1514374002.3003564,65,13.715080261230469
1514374007.4967968,66,13.671603202819824
1514374012.6764965,67,13.629392623901367
1514374017.895504,68,13.58829402923584
1514374023.0870235,69,13.548315048217773
1514374028.303353,70,13.509376525878906
1514374033.4700284,71,13.470252990722656
1514374038.6517637,72,13.432709693908691
1514374043.9030385,73,13.396098136901855
1514374049.0752568,74,13.36042308807373
1514374054.3134985,75,13.325624465942383
1514374059.4982271,76,13.291656494140625
1514374064.7050683,77,13.258455276489258
1514374069.865033,78,13.226020812988281
1514374075.0535583,79,13.194249153137207
1514374080.2674162,80,13.163179397583008
1514374085.4577157,81,13.132832527160645
1514374090.672988,82,13.103165626525879
1514374095.8362932,83,13.074172019958496
1514374101.062587,84,13.045852661132812
1514374106.2373805,85,13.018122673034668
1514374111.4316583,86,12.990984916687012
1514374116.6735942,87,12.96464729309082
1514374121.888973,88,12.936325073242188
1514374127.100877,89,12.908769607543945
1514374132.3419611,90,12.882648468017578
1514374137.5711575,91,12.857137680053711
1514374142.7840848,92,12.832208633422852
1514374148.0221407,93,12.807829856872559
1514374153.2052717,94,12.784027099609375
1514374158.3654113,95,12.760747909545898
1514374163.587726,96,12.737967491149902
1514374168.770571,97,12.715597152709961
1514374173.9653964,98,12.693642616271973
1514374179.1721678,99,12.67215347290039
1514374184.40699,100,12.651078224182129
1514374189.5874078,101,12.630485534667969
1514374194.8436694,102,12.610355377197266
1514374200.0652902,103,12.589835166931152
1514374205.2934806,104,12.569190979003906
1514374210.498399,105,12.549403190612793
1514374215.6862345,106,12.530097961425781
1514374220.9073112,107,12.511194229125977
1514374226.1127043,108,12.492715835571289
1514374231.3246799,109,12.47457504272461
1514374236.5205696,110,12.456775665283203
1514374241.7619176,111,12.439373016357422
1514374246.9976733,112,12.4223051071167
1514374252.20262,113,12.405584335327148
1514374257.3603265,114,12.389251708984375
1514374262.5363514,115,12.371783256530762
1514374267.7656069,116,12.355179786682129
1514374272.98091,117,12.339069366455078
1514374278.3108025,118,12.323311805725098
1514374283.5126934,119,12.307843208312988
1514374289.2156043,120,12.29263687133789
1514374294.9603348,121,12.277702331542969
1514374300.6997797,122,12.263012886047363
1514374306.2608783,123,12.248557090759277
1514374311.6873424,124,12.234329223632812
1514374316.9299095,125,12.220332145690918
1514374322.3204122,126,12.206547737121582
1514374327.6591606,127,12.192994117736816
1514374332.9329712,128,12.179656982421875
1514374338.153903,129,12.166524887084961
1514374343.351755,130,12.15357780456543
1514374348.496818,131,12.140823364257812
1514374353.7247365,132,12.128242492675781
1514374358.8750749,133,12.115848541259766
1514374364.031929,134,12.103629112243652
1514374369.235288,135,12.091599464416504
1514374374.4206915,136,12.079734802246094
1514374379.5664122,137,12.068056106567383
1514374384.722229,138,12.056547164916992
1514374389.8698277,139,12.04518985748291
1514374395.0392287,140,12.033987998962402
1514374400.2087734,141,12.022964477539062
1514374405.3714614,142,12.012080192565918
1514374410.5365624,143,12.001352310180664
1514374415.7060244,144,11.990766525268555
1514374420.8519654,145,11.980326652526855
1514374426.0027814,146,11.970010757446289
1514374431.141655,147,11.959855079650879
1514374436.3303494,148,11.949833869934082
1514374441.4808002,149,11.939932823181152
1514374446.671686,150,11.930195808410645
1514374451.9407234,151,11.920614242553711
1514374457.070535,152,11.911160469055176
1514374462.2471464,153,11.901975631713867
1514374467.3880858,154,11.891526222229004
1514374472.57828,155,11.881902694702148
1514374477.729601,156,11.872527122497559
1514374482.8575993,157,11.863286972045898
1514374487.987124,158,11.85417652130127
1514374493.1295755,159,11.845220565795898
1514374498.298558,160,11.836392402648926
1514374503.5270097,161,11.8276948928833
1514374508.6935956,162,11.819108963012695
1514374513.8763452,163,11.81063175201416
1514374519.0324311,164,11.802266120910645
1514374524.213901,165,11.794013023376465
1514374529.3585718,166,11.785867691040039
1514374534.5183976,167,11.77782917022705
1514374539.6447322,168,11.769887924194336
1514374544.7873359,169,11.762042045593262
1514374549.9395306,170,11.754292488098145
1514374555.158492,171,11.746644020080566
1514374560.3828728,172,11.73908519744873
1514374565.5499709,173,11.731619834899902
1514374570.694134,174,11.724241256713867
1514374575.8598888,175,11.716949462890625
1514374580.9981005,176,11.709749221801758
1514374586.14235,177,11.70263385772705
1514374591.2876158,178,11.69560432434082
1514374596.4714324,179,11.688657760620117
1514374601.6202419,180,11.681785583496094
1514374606.7810848,181,11.674991607666016
1514374611.9046025,182,11.668274879455566
1514374617.0430741,183,11.661630630493164
1514374622.207375,184,11.655064582824707
1514374627.3767335,185,11.648566246032715
1514374632.5219846,186,11.642141342163086
1514374637.6729043,187,11.635788917541504
1514374642.8134484,188,11.62950611114502
1514374647.959636,189,11.623295783996582
1514374653.1585522,190,11.617148399353027
1514374658.3083112,191,11.611069679260254
1514374663.466604,192,11.605057716369629
1514374668.6393504,193,11.599100112915039
1514374673.7957778,194,11.59321117401123
1514374678.983069,195,11.587382316589355
1514374684.2441514,196,11.581615447998047
1514374689.3840842,197,11.575906753540039
1514374694.5407825,198,11.570257186889648
1514374699.7285535,199,11.564667701721191
1514374704.916567,200,11.559134483337402
1514374710.047584,201,11.553659439086914
1514374715.22812,202,11.548239707946777
1514374720.3814046,203,11.542872428894043
1514374725.5282822,204,11.537551879882812
1514374730.6219497,205,11.532293319702148
1514374735.7571826,206,11.527091026306152
1514374740.8629618,207,11.52193832397461
1514374746.5320935,208,11.516833305358887
1514374752.3420563,209,11.51177978515625
1514374757.6170144,210,11.506770133972168
1514374762.7480662,211,11.501812934875488
1514374768.0341566,212,11.496908187866211
1514374773.1716015,213,11.492048263549805
1514374778.3074164,214,11.487234115600586
1514374783.4828138,215,11.482471466064453
1514374788.6096995,216,11.477749824523926
1514374793.7306964,217,11.47307300567627
1514374798.8779447,218,11.468441009521484
1514374804.0583806,219,11.463854789733887
1514374809.2137845,220,11.459310531616211
1514374814.3756127,221,11.454806327819824
1514374819.5374415,222,11.450348854064941
1514374824.7034147,223,11.445931434631348
1514374829.8921273,224,11.441554069519043
1514374835.0293806,225,11.437219619750977
1514374840.1745374,226,11.432924270629883
1514374845.3161452,227,11.428665161132812
1514374850.4521523,228,11.424449920654297
1514374855.5817235,229,11.420271873474121
1514374860.7090027,230,11.416133880615234
1514374865.83302,231,11.412030220031738
1514374870.9605706,232,11.407970428466797
1514374876.1483226,233,11.403944969177246
1514374881.28205,234,11.399956703186035
1514374886.4012096,235,11.396003723144531
1514374891.5839384,236,11.392083168029785
1514374896.6875677,237,11.388198852539062
1514374901.8175333,238,11.384354591369629
1514374906.9679115,239,11.380537033081055
1514374912.08465,240,11.376754760742188
1514374917.2273314,241,11.373005867004395
1514374922.3664129,242,11.369283676147461
1514374927.4923162,243,11.365593910217285
1514374932.6964917,244,11.36193561553955
1514374937.8823404,245,11.358318328857422
1514374943.0107348,246,11.354727745056152
1514374948.1513216,247,11.35116195678711
1514374953.2607613,248,11.347626686096191
1514374958.4504397,249,11.34411907196045
1514374963.6208365,250,11.340648651123047
1514374968.7412243,251,11.337209701538086
1514374973.884351,252,11.333799362182617
1514374979.0094461,253,11.330421447753906
1514374984.147967,254,11.327071189880371
1514374989.2629428,255,11.323744773864746
1514374994.4575546,256,11.320446014404297
1514374999.5502775,257,11.317179679870605
1514375004.7174146,258,11.313939094543457
1514375009.8501747,259,11.310726165771484
1514375014.9753363,260,11.30754280090332
1514375020.1270819,261,11.3043851852417
1514375025.2875283,262,11.301250457763672
1514375030.391711,263,11.298152923583984
1514375035.4963017,264,11.295073509216309
1514375040.6466775,265,11.292016983032227
1514375045.7833967,266,11.288991928100586
1514375050.957539,267,11.285989761352539
1514375056.3522677,268,11.283011436462402
1514375062.1137476,269,11.28005599975586
1514375067.8336759,270,11.277129173278809
1514375073.4505782,271,11.274226188659668
1514375078.8037887,272,11.271349906921387
1514375084.558839,273,11.26849365234375
1514375089.935909,274,11.265669822692871
1514375095.4846745,275,11.262868881225586
1514375101.205676,276,11.260079383850098
1514375106.6973119,277,11.257320404052734
1514375112.0758057,278,11.2545804977417
1514375117.5581028,279,11.25185775756836
1514375122.9895191,280,11.249152183532715
1514375128.4361951,281,11.246478080749512
1514375134.0349348,282,11.243817329406738
1514375139.7769191,283,11.241191864013672
1514375145.2437787,284,11.238581657409668
1514375150.3777547,285,11.235992431640625
1514375155.529781,286,11.233417510986328
1514375160.6822877,287,11.230871200561523
1514375165.8329515,288,11.228340148925781
1514375170.9607384,289,11.225833892822266
1514375176.1019304,290,11.223347663879395
1514375181.21707,291,11.2208833694458
1514375186.3551824,292,11.218433380126953
1514375191.4856837,293,11.215999603271484
1514375196.602002,294,11.213590621948242
1514375201.7759748,295,11.211209297180176
1514375206.9173949,296,11.208823204040527
1514375212.0593066,297,11.206466674804688
1514375217.2101667,298,11.204127311706543
1514375222.341243,299,11.201803207397461
1514375227.4638748,300,11.199504852294922
1514375232.5891168,301,11.197216033935547
1514375237.7014751,302,11.19494915008545
1514375242.7944143,303,11.192700386047363
1514375247.9568334,304,11.190473556518555
1514375253.1022475,305,11.188262939453125
1514375258.2689476,306,11.186062812805176
1514375263.420341,307,11.18388843536377
1514375268.54751,308,11.181739807128906
1514375273.649162,309,11.179598808288574
1514375278.7927186,310,11.177477836608887
1514375283.914087,311,11.175379753112793
1514375289.023679,312,11.173288345336914
1514375294.1918294,313,11.171209335327148
1514375299.3018184,314,11.169151306152344
1514375304.4176216,315,11.16711711883545
1514375309.5461102,316,11.165093421936035
1514375314.6636314,317,11.16307544708252
1514375319.7836406,318,11.16109848022461
1514375325.0854778,319,11.159161567687988
1514375330.7612698,320,11.157196998596191
1514375336.3904645,321,11.155242919921875
1514375341.6586273,322,11.153301239013672
1514375346.838317,323,11.151378631591797
1514375351.949307,324,11.149465560913086
1514375357.0922291,325,11.147570610046387
1514375362.2863808,326,11.145687103271484
1514375367.3928878,327,11.143826484680176
1514375372.5200615,328,11.141969680786133
1514375377.6427655,329,11.140130996704102
1514375382.7715154,330,11.138309478759766
1514375387.8810081,331,11.136499404907227
1514375393.073382,332,11.13470458984375
1514375398.2405765,333,11.132927894592285
1514375403.371546,334,11.1311616897583
1514375408.5181317,335,11.129406929016113
1514375413.6110215,336,11.127674102783203
1514375418.7728357,337,11.125940322875977
1514375423.8783798,338,11.12423324584961
1514375428.9923718,339,11.122526168823242
1514375434.1413314,340,11.120841026306152
1514375439.2615726,341,11.119174003601074
1514375444.376841,342,11.11751937866211
1514375449.5227702,343,11.115876197814941
1514375454.63958,344,11.114239692687988
1514375459.8017774,345,11.11262035369873
1514375464.9317174,346,11.1110200881958
1514375470.051373,347,11.109430313110352
1514375475.229567,348,11.107842445373535
1514375480.3847508,349,11.106292724609375
1514375485.545708,350,11.104729652404785
1514375490.6904464,351,11.103178977966309
1514375495.8524837,352,11.101631164550781
1514375501.0214322,353,11.100102424621582
1514375506.1342225,354,11.098596572875977
1514375511.2634773,355,11.097088813781738
1514375516.4205143,356,11.095586776733398
1514375521.5314257,357,11.09410285949707
1514375526.6363175,358,11.092623710632324
1514375531.8103251,359,11.091156959533691
1514375536.934896,360,11.089700698852539
1514375542.0844965,361,11.088255882263184
1514375547.2285354,362,11.086825370788574
1514375552.3270874,363,11.085416793823242
1514375557.427707,364,11.084002494812012
1514375562.6043923,365,11.082615852355957
1514375567.7303693,366,11.081221580505371
1514375572.9324954,367,11.079830169677734
1514375578.0358105,368,11.07845401763916
1514375583.169911,369,11.077094078063965
1514375588.2596123,370,11.075740814208984
1514375593.407609,371,11.074402809143066
1514375598.5651135,372,11.073071479797363
1514375603.6827497,373,11.071731567382812
1514375608.8056629,374,11.070426940917969
1514375613.9051585,375,11.069114685058594
1514375619.027189,376,11.067811012268066
1514375624.1562717,377,11.066524505615234
1514375629.3222072,378,11.065250396728516
1514375634.5021918,379,11.063984870910645
1514375639.6242821,380,11.062726020812988
1514375644.8088207,381,11.06147575378418
1514375649.924051,382,11.06023120880127
1514375655.0380065,383,11.058998107910156
1514375660.2098808,384,11.057774543762207
1514375665.3527086,385,11.05655574798584
1514375670.4585748,386,11.055357933044434
1514375675.5833092,387,11.054150581359863
1514375680.7123094,388,11.052949905395508
1514375685.8549404,389,11.051764488220215
1514375691.0122309,390,11.050586700439453
1514375696.125691,391,11.049426078796387
1514375701.2399013,392,11.048264503479004
1514375706.360793,393,11.047112464904785
1514375711.4930353,394,11.045968055725098
1514375716.596834,395,11.044837951660156
1514375721.739494,396,11.043709754943848
1514375726.840338,397,11.042590141296387
1514375731.932128,398,11.04146671295166
1514375737.0316527,399,11.040375709533691
1514375742.1361768,400,11.03928279876709
1514375747.2575905,401,11.038185119628906
1514375752.4010785,402,11.037104606628418
1514375757.5086246,403,11.036025047302246
1514375762.6192029,404,11.034953117370605
1514375767.7304628,405,11.03388786315918
1514375772.9090135,406,11.032838821411133
1514375777.9987953,407,11.031785011291504
1514375783.1058536,408,11.030745506286621
1514375788.1852653,409,11.029706954956055
1514375793.280475,410,11.028677940368652
1514375798.3807292,411,11.027654647827148
1514375803.5317037,412,11.02664566040039
1514375808.6786022,413,11.025626182556152
1514375813.7874074,414,11.024622917175293
1514375818.9009206,415,11.023630142211914
1514375824.010381,416,11.022638320922852
1514375829.132711,417,11.021668434143066
1514375834.2879012,418,11.020678520202637
1514375839.485859,419,11.019705772399902
1514375844.6283271,420,11.018735885620117
1514375849.8038082,421,11.01777172088623
1514375854.8917534,422,11.016818046569824
1514375860.0102074,423,11.015857696533203
1514375865.143948,424,11.014921188354492
1514375870.3387606,425,11.013983726501465
1514375875.4763517,426,11.013069152832031
1514375880.560346,427,11.012168884277344
1514375885.6672127,428,11.011256217956543
1514375890.7412121,429,11.010354042053223
1514375895.8457332,430,11.009453773498535
1514375900.9737961,431,11.008553504943848
1514375906.1386783,432,11.007662773132324
1514375911.2781656,433,11.006757736206055
1514375916.4363406,434,11.005882263183594
1514375921.6052299,435,11.004996299743652
1514375926.6923623,436,11.004122734069824
1514375931.7873888,437,11.00324821472168
1514375936.8874764,438,11.002402305603027
1514375941.967629,439,11.001531600952148
1514375947.1046355,440,11.000689506530762
1514375952.245586,441,10.999846458435059
1514375957.3749044,442,10.998993873596191
1514375962.537156,443,10.99815559387207
1514375967.6344402,444,10.997313499450684
1514375972.7560644,445,10.996503829956055
1514375977.863709,446,10.995675086975098
1514375982.9611073,447,10.99486255645752
1514375988.1163473,448,10.994040489196777
1514375993.266611,449,10.99323844909668
1514375998.3950558,450,10.992446899414062
1514376003.5233297,451,10.991662979125977
1514376008.6320534,452,10.990863800048828
1514376013.7615309,453,10.990068435668945
1514376018.9462323,454,10.989297866821289
1514376024.097321,455,10.988527297973633
1514376029.2163868,456,10.987747192382812
1514376034.3261423,457,10.986967086791992
1514376039.456339,458,10.986186981201172
1514376044.5947983,459,10.985408782958984
1514376049.7704096,460,10.984654426574707
1514376054.8974702,461,10.983907699584961
1514376060.0275402,462,10.983160972595215
1514376065.1506486,463,10.98240852355957
1514376070.8195515,464,10.981671333312988
1514376076.379362,465,10.980931282043457
1514376081.5869439,466,10.980196952819824
1514376086.740275,467,10.979449272155762
1514376091.898323,468,10.978732109069824
1514376097.0239315,469,10.978004455566406
1514376102.1444662,470,10.977285385131836
1514376107.325296,471,10.976564407348633
1514376112.3992639,472,10.975863456726074
1514376117.5229502,473,10.975160598754883
1514376122.6384528,474,10.974442481994629
1514376127.752567,475,10.973738670349121
1514376132.883623,476,10.973052024841309
1514376138.0113266,477,10.972367286682129
1514376143.1592782,478,10.97166919708252
1514376148.2794926,479,10.970990180969238
1514376153.4072936,480,10.970300674438477
1514376158.5055027,481,10.96963119506836
1514376163.671128,482,10.968955993652344
1514376168.775337,483,10.968294143676758
1514376173.866966,484,10.967630386352539
1514376178.9752142,485,10.96696662902832
1514376184.1117272,486,10.966315269470215
1514376189.22781,487,10.965662002563477
1514376194.3801289,488,10.965023040771484
1514376199.4955544,489,10.964385032653809
1514376204.6040094,490,10.963747024536133
1514376209.691953,491,10.963130950927734
1514376214.8062024,492,10.96249771118164
1514376219.9751055,493,10.961892127990723
1514376225.1323647,494,10.961271286010742
1514376230.2073967,495,10.96065616607666
1514376235.3265083,496,10.960073471069336
1514376240.4343212,497,10.95950984954834
1514376245.5406053,498,10.95889949798584
1514376250.700161,499,10.958290100097656
1514376255.8070714,500,10.957700729370117
1514376260.9086988,501,10.95710563659668
1514376266.0230386,502,10.956507682800293
1514376271.1544056,503,10.955913543701172
1514376276.2253633,504,10.955344200134277
1514376281.4377048,505,10.95477294921875
1514376286.5299952,506,10.954194068908691
1514376291.6540859,507,10.953618049621582
1514376296.7589262,508,10.953049659729004
1514376301.8925557,509,10.952486991882324
1514376307.0017068,510,10.951930046081543
1514376312.1448102,511,10.951371192932129
1514376317.2579284,512,10.950807571411133
1514376322.3829157,513,10.950260162353516
1514376327.661882,514,10.949714660644531
1514376333.4274576,515,10.949173927307129
1514376338.8998034,516,10.948637008666992
1514376344.1905768,517,10.948091506958008
1514376349.5784605,518,10.947549819946289
1514376355.00829,519,10.947016716003418
1514376360.357298,520,10.9464750289917
1514376365.906622,521,10.945945739746094
1514376371.477731,522,10.945417404174805
1514376376.8812945,523,10.944904327392578
1514376382.2657762,524,10.944378852844238
1514376387.6409,525,10.943853378295898
1514376393.4669926,526,10.94334602355957
1514376399.1196475,527,10.942821502685547
1514376404.9152653,528,10.942309379577637
1514376410.3310935,529,10.941819190979004
1514376415.5316374,530,10.941320419311523
1514376421.0721767,531,10.940818786621094
1514376426.880698,532,10.940323829650879
1514376432.3807757,533,10.939831733703613
1514376438.0615935,534,10.9393310546875
1514376444.0545008,535,10.938855171203613
1514376449.5232065,536,10.93834400177002
1514376454.9054525,537,10.937868118286133
1514376460.537054,538,10.937395095825195
1514376465.970061,539,10.936919212341309
1514376471.5154226,540,10.93646240234375
1514376476.988807,541,10.93599796295166
1514376482.6528137,542,10.935525894165039
1514376488.1383765,543,10.935065269470215
1514376493.6866462,544,10.934588432312012
1514376499.2643445,545,10.934149742126465
1514376504.947398,546,10.933703422546387
1514376510.5701108,547,10.933259963989258
1514376516.0376031,548,10.932806968688965
1514376521.3357725,549,10.932358741760254
1514376526.6475735,550,10.931901931762695
1514376531.9093463,551,10.93148136138916
1514376537.2955463,552,10.931022644042969
1514376542.598193,553,10.93057632446289
1514376547.876972,554,10.930148124694824
1514376553.223848,555,10.929710388183594
1514376558.4816492,556,10.929279327392578
1514376563.8164065,557,10.92885971069336
1514376569.0500817,558,10.928438186645508
1514376574.3408048,559,10.928024291992188
1514376579.6399357,560,10.927607536315918
1514376584.9476023,561,10.927197456359863
1514376590.2347338,562,10.926790237426758
1514376595.5001106,563,10.926384925842285
1514376600.7344394,564,10.925976753234863
1514376605.9883335,565,10.92555046081543
1514376611.2934875,566,10.925146102905273
1514376616.5471566,567,10.924721717834473
1514376621.8271286,568,10.924317359924316
1514376627.1354928,569,10.923919677734375
1514376632.4183438,570,10.923538208007812
1514376637.713967,571,10.923139572143555
1514376642.970957,572,10.92275333404541
1514376648.233715,573,10.922367095947266
1514376653.5147877,574,10.921953201293945
1514376658.8285768,575,10.9215669631958
1514376664.1987922,576,10.921188354492188
1514376669.4429748,577,10.92080307006836
1514376674.7816746,578,10.920426368713379
1514376680.0786107,579,10.920051574707031
1514376685.4453492,580,10.919682502746582
1514376690.7349918,581,10.919292449951172
1514376696.0552447,582,10.918933868408203
1514376701.319105,583,10.918561935424805
1514376706.641515,584,10.918190002441406
1514376711.963691,585,10.917817115783691
1514376717.2337966,586,10.917472839355469
1514376722.5006692,587,10.917107582092285
1514376727.8097575,588,10.916746139526367
1514376733.1027393,589,10.916369438171387
1514376738.3689907,590,10.916009902954102
1514376743.6690626,591,10.915660858154297
1514376748.9644554,592,10.915306091308594
1514376754.2619388,593,10.914945602416992
1514376759.594931,594,10.914596557617188
1514376764.9071813,595,10.91425609588623
1514376770.1555233,596,10.913908004760742
1514376775.4191656,597,10.913564682006836
1514376780.7439103,598,10.913216590881348
1514376786.0057251,599,10.912869453430176
1514376791.318657,600,10.91252326965332
1514376796.6453345,601,10.912184715270996
1514376802.022628,602,10.911849021911621
1514376807.3785648,603,10.911508560180664
1514376812.6823952,604,10.91118049621582
1514376818.0277443,605,10.910858154296875
1514376823.3290613,606,10.910545349121094
1514376828.6351914,607,10.910218238830566
1514376833.937061,608,10.909904479980469
1514376839.2660553,609,10.909577369689941
1514376844.5849378,610,10.909263610839844
1514376850.6089032,611,10.908943176269531
1514376856.1226645,612,10.908608436584473
1514376861.4127324,613,10.90830135345459
1514376866.8097074,614,10.907994270324707
1514376872.4441588,615,10.907676696777344
1514376877.6393864,616,10.90735912322998
1514376882.8188744,617,10.9070405960083
1514376888.0103989,618,10.906734466552734
1514376893.183864,619,10.9065523147583
1514376898.36041,620,10.906274795532227
1514376903.7252405,621,10.905993461608887
1514376909.3213582,622,10.905702590942383
1514376914.6585422,623,10.905393600463867
1514376920.0095396,624,10.905102729797363
1514376925.288191,625,10.904797554016113
1514376930.5790899,626,10.904512405395508
1514376935.892739,627,10.904224395751953
1514376941.097671,628,10.903929710388184
1514376946.344306,629,10.903623580932617
1514376951.5756118,630,10.903348922729492
1514376956.8484492,631,10.90304946899414
1514376962.004553,632,10.90276050567627
1514376967.2177255,633,10.902478218078613
1514376972.4788237,634,10.90219783782959
1514376977.6860967,635,10.901908874511719
1514376982.8293476,636,10.90160083770752
1514376987.9855976,637,10.90132999420166
1514376993.1132782,638,10.901045799255371
1514376998.2178493,639,10.900764465332031
1514377003.3099182,640,10.90047836303711
1514377008.419128,641,10.900196075439453
1514377013.5588534,642,10.899896621704102
1514377018.6458235,643,10.899642944335938
1514377023.8363652,644,10.899354934692383
1514377028.9586885,645,10.899091720581055
1514377034.023279,646,10.898821830749512
1514377039.2631385,647,10.89853286743164
1514377044.6524932,648,10.898262023925781
1514377050.2568598,649,10.897977828979492
1514377055.9381025,650,10.897693634033203
1514377061.8370879,651,10.89743709564209
1514377067.457081,652,10.897180557250977
1514377073.1566155,653,10.896910667419434
1514377078.8655586,654,10.896653175354004
1514377084.2879806,655,10.896401405334473
1514377089.6365185,656,10.89614486694336
1514377095.0050962,657,10.895882606506348
1514377100.512713,658,10.89561653137207
1514377106.019052,659,10.895374298095703
1514377111.6240346,660,10.895118713378906
1514377117.33624,661,10.894862174987793
1514377123.2278736,662,10.894606590270996
1514377128.943172,663,10.894362449645996
1514377134.396038,664,10.89413070678711
1514377140.5158715,665,10.893885612487793
1514377146.0525365,666,10.893640518188477
1514377151.3070009,667,10.893390655517578
1514377156.610114,668,10.893174171447754
1514377161.878487,669,10.89295482635498
1514377167.0525239,670,10.892708778381348
1514377172.260682,671,10.892472267150879
1514377177.3892791,672,10.892243385314941
1514377182.5453033,673,10.892036437988281
1514377187.6695437,674,10.891800880432129
1514377192.9486206,675,10.891560554504395
1514377198.2005157,676,10.891313552856445
1514377203.3759663,677,10.891075134277344
1514377208.57108,678,10.890861511230469
1514377213.7701647,679,10.89063835144043
1514377218.8931134,680,10.890421867370605
1514377224.0545473,681,10.890192985534668
1514377229.2202885,682,10.88996410369873
1514377234.5002902,683,10.889756202697754
1514377240.004222,684,10.889518737792969
1514377245.7595294,685,10.889312744140625
1514377251.7036884,686,10.889084815979004
1514377257.2610161,687,10.888864517211914
1514377262.6677217,688,10.888629913330078
1514377267.8399777,689,10.88842487335205
1514377273.0226142,690,10.888198852539062
1514377278.1911883,691,10.8880033493042
1514377283.4971852,692,10.887781143188477
1514377288.690384,693,10.887604713439941
1514377293.9019349,694,10.8873929977417
1514377299.2165701,695,10.887195587158203
1514377304.4869328,696,10.88698959350586
1514377309.6976032,697,10.886787414550781
1514377314.8739288,698,10.886555671691895
1514377320.0321324,699,10.88636589050293
1514377325.2369995,700,10.8861665725708
1514377330.5144627,701,10.885969161987305
1514377335.7112348,702,10.885767936706543
1514377340.835744,703,10.885575294494629
1514377346.0876298,704,10.885364532470703
1514377351.2238157,705,10.885185241699219
1514377356.367155,706,10.884964942932129
1514377361.5898223,707,10.884778022766113
1514377366.8045747,708,10.884573936462402
1514377372.0015879,709,10.884394645690918
1514377377.14275,710,10.884202003479004
1514377382.4651456,711,10.884010314941406
1514377387.7950625,712,10.883816719055176
1514377393.0994596,713,10.88364028930664
1514377398.3621783,714,10.883442878723145
1514377403.6024563,715,10.883256912231445
1514377409.3275864,716,10.88305950164795
1514377414.8320682,717,10.882902145385742
1514377420.5565648,718,10.882710456848145
1514377426.09127,719,10.882532119750977
1514377431.5974672,720,10.882345199584961
1514377437.0361469,721,10.882161140441895
1514377442.8962786,722,10.881996154785156
1514377448.4302661,723,10.881826400756836
1514377454.0049067,724,10.881645202636719
1514377459.2763312,725,10.88146686553955
1514377464.604388,726,10.881296157836914
1514377469.9245725,727,10.881117820739746
1514377475.19289,728,10.880942344665527
1514377480.3130667,729,10.880764961242676
1514377485.5740454,730,10.880602836608887
1514377490.8269582,731,10.880428314208984
1514377496.0013657,732,10.880253791809082
1514377501.4180653,733,10.880097389221191
1514377506.6577334,734,10.879915237426758
1514377511.9909148,735,10.879742622375488
1514377517.2098904,736,10.879575729370117
1514377522.4102871,737,10.879402160644531
1514377527.5441062,738,10.87923526763916
1514377532.7169604,739,10.87907600402832
1514377538.6601863,740,10.87890338897705
1514377544.4766014,741,10.878750801086426
1514377550.2079678,742,10.87857437133789
1514377556.005866,743,10.878418922424316
1514377561.20506,744,10.87825870513916
1514377566.402429,745,10.878084182739258
1514377571.551866,746,10.877912521362305
1514377576.7146559,747,10.8777494430542
1514377581.833284,748,10.877602577209473
1514377587.0581732,749,10.877429962158203
1514377592.2116747,750,10.877275466918945
1514377597.4302475,751,10.877110481262207
1514377602.6008756,752,10.876946449279785
1514377607.7713594,753,10.876773834228516
1514377613.041755,754,10.876616477966309
1514377618.232722,755,10.876456260681152
1514377623.4158015,756,10.876288414001465
1514377628.6032233,757,10.876102447509766
1514377633.7429848,758,10.87594223022461
1514377638.8824284,759,10.875782012939453
1514377644.1300323,760,10.875639915466309
1514377649.2879136,761,10.875504493713379
1514377654.4516542,762,10.875337600708008
1514377659.615407,763,10.87519359588623
1514377664.8449903,764,10.875041007995605
1514377670.0191934,765,10.874897003173828
1514377675.1983113,766,10.874747276306152
1514377680.40129,767,10.874597549438477
1514377685.5514061,768,10.874443054199219
1514377690.7216675,769,10.874303817749023
1514377695.9132857,770,10.874150276184082
1514377701.0886352,771,10.874002456665039
1514377706.300675,772,10.87386703491211
1514377711.4665396,773,10.873719215393066
1514377716.5849922,774,10.873574256896973
1514377721.739084,775,10.873429298400879
1514377726.9023857,776,10.873289108276367
1514377732.1495519,777,10.873136520385742
1514377737.3312771,778,10.873001098632812
1514377742.5097709,779,10.872864723205566
1514377747.667544,780,10.872723579406738
1514377752.9144096,781,10.872586250305176
1514377758.0933998,782,10.872467994689941
1514377763.3190637,783,10.872319221496582
1514377768.464923,784,10.872190475463867
1514377773.6071858,785,10.872054100036621
1514377778.7886956,786,10.871929168701172
1514377783.9515193,787,10.871800422668457
1514377789.2653446,788,10.871665000915527
1514377794.602933,789,10.871525764465332
1514377799.773852,790,10.871389389038086
1514377804.9179094,791,10.871256828308105
1514377810.093382,792,10.871148109436035
1514377815.2677655,793,10.871013641357422
1514377820.4070468,794,10.870890617370605
1514377825.5486915,795,10.87075424194336
1514377830.7182016,796,10.870621681213379
1514377835.9102523,797,10.870492935180664
1514377841.0758684,798,10.870379447937012
1514377846.2323098,799,10.87024211883545
1514377851.3938625,800,10.870126724243164
1514377856.5764427,801,10.870001792907715
1514377861.7559395,802,10.86988353729248
1514377866.923136,803,10.869775772094727
1514377872.1141121,804,10.869664192199707
1514377877.246825,805,10.869538307189941
1514377882.4789364,806,10.869409561157227
1514377887.671648,807,10.869294166564941
1514377892.8366098,808,10.869184494018555
1514377898.0065129,809,10.869070053100586
1514377903.2532935,810,10.868948936462402
1514377908.423065,811,10.868834495544434
1514377913.7143445,812,10.868720054626465
1514377918.8562849,813,10.868608474731445
1514377924.0412383,814,10.868500709533691
1514377929.2222393,815,10.868386268615723
1514377934.3987262,816,10.868274688720703
1514377939.6269286,817,10.868162155151367
1514377944.827106,818,10.86805248260498
1514377949.9772618,819,10.867928504943848
1514377955.3335698,820,10.867822647094727
1514377960.5774693,821,10.867707252502441
1514377965.8495178,822,10.8676118850708
1514377971.1222236,823,10.867487907409668
1514377976.3287861,824,10.867388725280762
1514377981.5470867,825,10.867268562316895
1514377986.7422154,826,10.867173194885254
1514377992.0005398,827,10.867042541503906
1514377997.3011608,828,10.866944313049316
1514378002.5935624,829,10.86683177947998
1514378007.7603734,830,10.866719245910645
1514378012.9463196,831,10.86661434173584
1514378018.1224835,832,10.866512298583984
1514378023.3740447,833,10.866399765014648
1514378028.5847156,834,10.866289138793945
1514378033.8770118,835,10.866175651550293
1514378039.0920947,836,10.866090774536133
1514378044.3756397,837,10.865979194641113
1514378049.5875003,838,10.86588191986084
1514378054.8124895,839,10.865772247314453
1514378060.0924199,840,10.865683555603027
1514378065.3700736,841,10.865574836730957
1514378070.6007352,842,10.865447044372559
1514378075.7784057,843,10.865349769592285
1514378081.0581179,844,10.86524772644043
1514378086.2626896,845,10.865156173706055
1514378091.538488,846,10.865031242370605
1514378096.8275092,847,10.864954948425293
1514378102.056564,848,10.864859580993652
1514378107.3613172,849,10.864742279052734
1514378112.5370743,850,10.864642143249512
1514378117.8104486,851,10.864547729492188
1514378123.2877536,852,10.864441871643066
1514378128.599379,853,10.864337921142578
1514378133.8997548,854,10.86423397064209
1514378139.1384428,855,10.8641357421875
1514378144.342145,856,10.864045143127441
1514378149.5409956,857,10.863946914672852
1514378154.7505267,858,10.863832473754883
1514378160.1785913,859,10.863733291625977
1514378165.4520898,860,10.863625526428223
1514378170.617137,861,10.863527297973633
1514378175.874789,862,10.863426208496094
1514378181.025175,863,10.863321304321289
1514378186.2488456,864,10.86323356628418
1514378191.5464518,865,10.863142967224121
1514378196.82553,866,10.863052368164062
1514378202.008936,867,10.862957000732422
1514378207.1869342,868,10.862865447998047
1514378212.4425285,869,10.862765312194824
1514378217.6396892,870,10.862691879272461
1514378222.7598698,871,10.862586975097656
1514378228.0258381,872,10.862495422363281
1514378233.399432,873,10.862404823303223
1514378238.677154,874,10.862306594848633
1514378244.134552,875,10.862222671508789
1514378249.788871,876,10.862133979797363
1514378255.3984215,877,10.86205768585205
1514378260.9450128,878,10.86196231842041
1514378266.2877908,879,10.861888885498047
1514378271.5321448,880,10.861785888671875
1514378276.6482062,881,10.861705780029297
1514378281.7658284,882,10.86163330078125
1514378286.8635292,883,10.861552238464355
1514378291.9810727,884,10.861459732055664
1514378297.0808244,885,10.86138916015625
1514378302.229658,886,10.861310958862305
1514378307.3476946,887,10.861233711242676
1514378312.4556139,888,10.861157417297363
1514378317.5652277,889,10.861072540283203
1514378322.705782,890,10.86099624633789
1514378327.81848,891,10.860912322998047
1514378333.0637577,892,10.860848426818848
1514378338.189999,893,10.86076831817627
1514378343.2784925,894,10.860689163208008
1514378348.4174573,895,10.860600471496582
1514378353.530268,896,10.860527992248535
1514378358.625769,897,10.860442161560059
1514378363.782098,898,10.860366821289062
1514378368.8948462,899,10.860300064086914
1514378374.0241902,900,10.860209465026855
1514378379.1801388,901,10.860135078430176
1514378384.3179119,902,10.86005973815918
1514378389.4402962,903,10.859967231750488
1514378394.6826172,904,10.859917640686035
1514378399.850993,905,10.859831809997559
1514378405.0177562,906,10.859761238098145
1514378410.2918622,907,10.859667778015137
1514378415.4409537,908,10.859601020812988
1514378420.7590811,909,10.859538078308105
1514378426.1098459,910,10.859447479248047
1514378431.2712004,911,10.859396934509277
1514378436.4504178,912,10.859314918518066
1514378441.5691826,913,10.85922908782959
1514378446.7307346,914,10.859158515930176
1514378451.863997,915,10.859086990356445
1514378457.0535069,916,10.859016418457031
1514378462.189995,917,10.858936309814453
1514378467.3740935,918,10.858864784240723
1514378472.5260592,919,10.858819961547852
1514378477.7063682,920,10.858741760253906
1514378482.9286122,921,10.858668327331543
1514378488.1033785,922,10.85860824584961
1514378493.702819,923,10.858532905578613
1514378499.5147588,924,10.858467102050781
1514378505.104979,925,10.858382225036621
1514378510.7543035,926,10.858329772949219
1514378516.4160879,927,10.858250617980957
1514378521.9125128,928,10.858196258544922
1514378527.366023,929,10.858128547668457
1514378532.689947,930,10.858063697814941
1514378537.9203887,931,10.857987403869629
1514378543.2610183,932,10.857917785644531
1514378548.5611777,933,10.857855796813965
1514378553.8683562,934,10.85779857635498
1514378559.2491128,935,10.857734680175781
1514378564.6774073,936,10.857672691345215
1514378569.9709976,937,10.857592582702637
1514378575.1298726,938,10.857516288757324
1514378580.4284768,939,10.85744571685791
1514378585.9505322,940,10.857392311096191
1514378591.2996323,941,10.857337951660156
1514378596.4432974,942,10.857285499572754
1514378601.7668521,943,10.857216835021973
1514378607.1220038,944,10.857162475585938
1514378612.3414218,945,10.857093811035156
1514378617.5664525,946,10.85704231262207
1514378622.895738,947,10.856978416442871
1514378628.1245308,948,10.856917381286621
1514378633.2915127,949,10.856849670410156
1514378638.5482316,950,10.856789588928223
1514378643.8114173,951,10.856734275817871
1514378649.542486,952,10.856674194335938
1514378654.8839006,953,10.856597900390625
1514378660.1596215,954,10.856535911560059
1514378665.6528878,955,10.856496810913086
1514378670.9770336,956,10.856420516967773
1514378676.2349794,957,10.856364250183105
1514378681.4297976,958,10.85632038116455
1514378687.2643914,959,10.8562650680542
1514378692.9646742,960,10.85621166229248
1514378698.762161,961,10.856165885925293
1514378704.6761398,962,10.856115341186523
1514378710.5183368,963,10.856050491333008
1514378716.1355963,964,10.85599422454834
1514378721.5464315,965,10.85593318939209
1514378726.8075905,966,10.855881690979004
1514378732.4868882,967,10.855820655822754
1514378737.8515067,968,10.8557710647583
1514378743.1226578,969,10.855698585510254
1514378748.4454584,970,10.855636596679688
1514378753.6218448,971,10.855574607849121
1514378758.813593,972,10.855504035949707
1514378763.9750578,973,10.855461120605469
1514378769.1196709,974,10.85538101196289
1514378774.2166739,975,10.855321884155273
1514378779.3427072,976,10.855270385742188
1514378784.471782,977,10.855202674865723
1514378789.6062875,978,10.855131149291992
1514378794.782415,979,10.855074882507324
1514378799.95726,980,10.855001449584961
1514378805.1033795,981,10.854949951171875
1514378810.2277253,982,10.854891777038574
1514378815.3524065,983,10.854833602905273
1514378820.4609687,984,10.854775428771973
1514378825.6544547,985,10.854732513427734
1514378830.773938,986,10.854674339294434
1514378835.902968,987,10.854613304138184
1514378841.0302644,988,10.854573249816895
1514378846.1395907,989,10.854525566101074
1514378851.2722688,990,10.854475975036621
1514378856.4234147,991,10.854394912719727
1514378861.5480418,992,10.854351997375488
1514378866.6941137,993,10.854292869567871
1514378871.8089566,994,10.854231834411621
1514378876.9448042,995,10.8541898727417
1514378882.0563405,996,10.854131698608398
1514378887.211662,997,10.854085922241211
1514378892.3364525,998,10.854036331176758
1514378897.4667985,999,10.853983879089355
